<?xml version='1.0' encoding='UTF-8' standalone='no'?>
<!-- Created with Fritzing (https://fritzing.org/) -->
<svg xmlns="http://www.w3.org/2000/svg" height="2.16535in"  xmlns:svg="http://www.w3.org/2000/svg" y="0in" version="1.2" width="3.14961in" viewBox="0 0 226.772 155.906" x="0in" baseProfile="tiny">
 <g transform="matrix(-1, 0, 0, 1, 226.772, 0)">
  <g partID="196231">
   <g id="silkscreen0">
    <rect height="155.33" y="0.288" fill="none" width="226.196" x="0.288" stroke="black" stroke-width="0.576"/>
   </g>
  </g>
  <g partID="196230">
   <g id="board">
    <rect height="155.33" y="0.288" fill="none" width="226.196" id="boardoutline" fill-opacity="0.5" x="0.288" stroke="black" stroke-width="0.5"/>
   </g>
  </g>
  <g partID="196231">
   <g id="silkscreen0">
    <rect height="155.33" y="0.288" fill="none" width="226.196" x="0.288" stroke="black" stroke-width="0.576"/>
   </g>
  </g>
  <g partID="854683100">
   <g transform="translate(2.38488,56.4226)">
    <g transform="matrix(1, 0, 0, 1, 1.53496, -785.538)">
     <g id="copper0">
      <g transform="matrix(0.352778, 0, 0, 0.352778, -1.2596, 804.052)">
       <g>
        <g gorn="0.3.0.0.1.0.0" stroke-width="0">
         <circle cx="122.976" connectorname="LED+ve" gorn="0.3.0.0.1.0.0.0" fill="white" cy="76.2464" id="connector4pin" stroke="white" stroke-width="3.55465" r="6.00632"/>
         <circle cx="20.7678" connectorname="VIN" gorn="0.3.0.0.1.0.0.1" fill="white" cy="-32.1063" id="connector0pin" stroke="white" stroke-width="3.55465" r="5.97666"/>
         <circle cx="61.4762" connectorname="GND" gorn="0.3.0.0.1.0.0.2" fill="white" cy="-32.121" id="connector1pin" stroke="white" stroke-width="3.55465" r="6.00632"/>
         <circle cx="163.605" connectorname="DIM" gorn="0.3.0.0.1.0.0.3" fill="white" cy="-32.0849" id="connector2pin" stroke="white" stroke-width="3.55465" r="6.00632"/>
         <circle cx="163.629" connectorname="LED-ve" gorn="0.3.0.0.1.0.0.4" fill="white" cy="76.2464" id="connector3pin" stroke="white" stroke-width="3.55465" r="6.00632"/>
        </g>
       </g>
      </g>
     </g>
    </g>
   </g>
  </g>
  <g partID="854683060">
   <g transform="translate(71.8338,53.588)">
    <g transform="matrix(1, 0, 0, 1, 1.53496, -785.538)">
     <g id="copper0">
      <g transform="matrix(0.352778, 0, 0, 0.352778, -1.2596, 804.052)">
       <g>
        <g gorn="0.3.0.0.1.0.0" stroke-width="0">
         <circle cx="122.976" connectorname="LED+ve" gorn="0.3.0.0.1.0.0.0" fill="white" cy="76.2464" id="connector4pin" stroke="white" stroke-width="3.55465" r="6.00632"/>
         <circle cx="20.7678" connectorname="VIN" gorn="0.3.0.0.1.0.0.1" fill="white" cy="-32.1063" id="connector0pin" stroke="white" stroke-width="3.55465" r="5.97666"/>
         <circle cx="61.4762" connectorname="GND" gorn="0.3.0.0.1.0.0.2" fill="white" cy="-32.121" id="connector1pin" stroke="white" stroke-width="3.55465" r="6.00632"/>
         <circle cx="163.605" connectorname="DIM" gorn="0.3.0.0.1.0.0.3" fill="white" cy="-32.0849" id="connector2pin" stroke="white" stroke-width="3.55465" r="6.00632"/>
         <circle cx="163.629" connectorname="LED-ve" gorn="0.3.0.0.1.0.0.4" fill="white" cy="76.2464" id="connector3pin" stroke="white" stroke-width="3.55465" r="6.00632"/>
        </g>
       </g>
      </g>
     </g>
    </g>
   </g>
  </g>
  <g partID="854683080">
   <g transform="translate(141.283,53.588)">
    <g transform="matrix(1, 0, 0, 1, 1.53496, -785.538)">
     <g id="copper0">
      <g transform="matrix(0.352778, 0, 0, 0.352778, -1.2596, 804.052)">
       <g>
        <g gorn="0.3.0.0.1.0.0" stroke-width="0">
         <circle cx="122.976" connectorname="LED+ve" gorn="0.3.0.0.1.0.0.0" fill="white" cy="76.2464" id="connector4pin" stroke="white" stroke-width="3.55465" r="6.00632"/>
         <circle cx="20.7678" connectorname="VIN" gorn="0.3.0.0.1.0.0.1" fill="white" cy="-32.1063" id="connector0pin" stroke="white" stroke-width="3.55465" r="5.97666"/>
         <circle cx="61.4762" connectorname="GND" gorn="0.3.0.0.1.0.0.2" fill="white" cy="-32.121" id="connector1pin" stroke="white" stroke-width="3.55465" r="6.00632"/>
         <circle cx="163.605" connectorname="DIM" gorn="0.3.0.0.1.0.0.3" fill="white" cy="-32.0849" id="connector2pin" stroke="white" stroke-width="3.55465" r="6.00632"/>
         <circle cx="163.629" connectorname="LED-ve" gorn="0.3.0.0.1.0.0.4" fill="white" cy="76.2464" id="connector3pin" stroke="white" stroke-width="3.55465" r="6.00632"/>
        </g>
       </g>
      </g>
     </g>
    </g>
   </g>
  </g>
  <g partID="854654920">
   <g transform="translate(30.6786,113.623)">
    <g id="copper0">
     <circle cx="3.01732" fill="white" cy="3.01732" id="connector0pin" stroke="white" r="0.992124" stroke-width="1.57039"/>
    </g>
   </g>
  </g>
  <g partID="854655360">
   <g transform="translate(25.4946,127.447)">
    <g id="copper0">
     <circle cx="3.01732" fill="white" cy="3.01732" id="connector0pin" stroke="white" r="0.992124" stroke-width="1.57039"/>
    </g>
   </g>
  </g>
  <g partID="854657000">
   <g transform="translate(56.5986,58.3266)">
    <g id="copper0">
     <circle cx="3.01732" fill="white" cy="3.01732" id="connector0pin" stroke="white" r="0.992124" stroke-width="1.57039"/>
    </g>
   </g>
  </g>
  <g partID="854659040">
   <g transform="translate(101.527,127.447)">
    <g id="copper0">
     <circle cx="3.01732" fill="white" cy="3.01732" id="connector0pin" stroke="white" r="0.992124" stroke-width="1.57039"/>
    </g>
   </g>
  </g>
  <g partID="854659280">
   <g transform="translate(201.751,37.5906)">
    <g id="copper0">
     <circle cx="3.01732" fill="white" cy="3.01732" id="connector0pin" stroke="white" r="0.992124" stroke-width="1.57039"/>
    </g>
   </g>
  </g>
  <g partID="854661880">
   <g transform="translate(44.5274,9.60168)">
    <g id="copper0">
     <circle cx="3.01733" fill="white" cy="3.01733" id="connector0pin" stroke="white" r="0.992124" stroke-width="1.57039"/>
    </g>
   </g>
  </g>
  <g partID="854663370">
   <g transform="translate(57.2866,26.5557)">
    <g id="copper0">
     <circle cx="3.01733" fill="white" cy="3.01733" id="connector0pin" stroke="white" r="0.992124" stroke-width="1.57039"/>
    </g>
   </g>
  </g>
  <g partID="854666170">
   <g transform="translate(160.759,47.8793)">
    <g id="copper0">
     <circle cx="3.01733" fill="white" cy="3.01733" id="connector0pin" stroke="white" r="0.992124" stroke-width="1.57039"/>
    </g>
   </g>
  </g>
  <g partID="854666430">
   <g transform="translate(107.047,43.4743)">
    <g id="copper0">
     <circle cx="3.01733" fill="white" cy="3.01733" id="connector0pin" stroke="white" r="0.992124" stroke-width="1.57039"/>
    </g>
   </g>
  </g>
  <g partID="854667790">
   <g transform="translate(85.7762,117.302)">
    <g id="copper0">
     <circle cx="3.01733" fill="white" cy="3.01733" id="connector0pin" stroke="white" r="0.992124" stroke-width="1.57039"/>
    </g>
   </g>
  </g>
  <g partID="854673340">
   <g transform="translate(145.243,108.772)">
    <g id="copper0">
     <circle cx="3.01733" fill="white" cy="3.01733" id="connector0pin" stroke="white" r="0.992124" stroke-width="1.57039"/>
    </g>
   </g>
  </g>
  <g partID="854677900">
   <g transform="translate(214.759,78.9589)">
    <g id="copper0">
     <circle cx="3.01733" fill="white" cy="3.01733" id="connector0pin" stroke="white" r="0.992124" stroke-width="1.57039"/>
    </g>
   </g>
  </g>
  <g partID="854678140">
   <g transform="translate(214.759,129.981)">
    <g id="copper0">
     <circle cx="3.01733" fill="white" cy="3.01733" id="connector0pin" stroke="white" r="0.992124" stroke-width="1.57039"/>
    </g>
   </g>
  </g>
  <g partID="854678380">
   <g transform="translate(207.612,132.867)">
    <g id="copper0">
     <circle cx="3.01733" fill="white" cy="3.01733" id="connector0pin" stroke="white" r="0.992124" stroke-width="1.57039"/>
    </g>
   </g>
  </g>
  <g partID="854678420">
   <g transform="translate(207.612,96.0717)">
    <g id="copper0">
     <circle cx="3.01733" fill="white" cy="3.01733" id="connector0pin" stroke="white" r="0.992124" stroke-width="1.57039"/>
    </g>
   </g>
  </g>
  <g partID="854679460">
   <g transform="translate(125.404,142.841)">
    <g id="copper0">
     <circle cx="3.01733" fill="white" cy="3.01733" id="connector0pin" stroke="white" r="0.992124" stroke-width="1.57039"/>
    </g>
   </g>
  </g>
  <g partID="854679740">
   <g transform="translate(136.726,43.5437)">
    <g id="copper0">
     <circle cx="3.01733" fill="white" cy="3.01733" id="connector0pin" stroke="white" r="0.992124" stroke-width="1.57039"/>
    </g>
   </g>
  </g>
  <g partID="854679890">
   <g transform="translate(136.726,52.0609)">
    <g id="copper0">
     <circle cx="3.01733" fill="white" cy="3.01733" id="connector0pin" stroke="white" r="0.992124" stroke-width="1.57039"/>
    </g>
   </g>
  </g>
  <g partID="854680700">
   <g transform="translate(65.829,96.0189)">
    <g id="copper0">
     <circle cx="3.01733" fill="white" cy="3.01733" id="connector0pin" stroke="white" r="0.992124" stroke-width="1.57039"/>
    </g>
   </g>
  </g>
  <g partID="854515660">
   <g transform="translate(176.787,112.833)">
    <g transform="matrix(1, 0, 0, 1, 0.377238, -800.114)">
     <g id="copper0">
      <g transform="matrix(1, 0, 0, 1, -0.288, 797.219)">
       <g>
        <g gorn="0.3.0.0.0.0.0.0.0.0">
         <circle cx="13.0439" gorn="0.3.0.0.0.0.0.0.0.0.0" connectorname="PWR" fill="white" cy="6.12" id="connector2pad" stroke="white" stroke-width="1.57039" r="2.69291"/>
         <circle cx="13.0439" gorn="0.3.0.0.0.0.0.0.0.0.1" connectorname="GND" fill="white" cy="22.5609" id="connector0pad" stroke="white" stroke-width="1.57039" r="2.69291"/>
         <circle cx="26.6502" gorn="0.3.0.0.0.0.0.0.0.0.2" connectorname="GNDBREAK" fill="white" cy="14.6239" id="connector1pad" stroke="white" stroke-width="1.57039" r="2.69291"/>
         <g gorn="0.3.0.0.0.0.0.0.0.0.3" id="copper1">
          <circle cx="13.0439" gorn="0.3.0.0.0.0.0.0.0.0.3.0" connectorname="PWR" fill="white" cy="6.12" id="connector2pad2" stroke="white" stroke-width="1.57039" r="2.69291"/>
          <circle cx="13.0439" gorn="0.3.0.0.0.0.0.0.0.0.3.1" connectorname="GND" fill="white" cy="22.5609" id="connector0pad2" stroke="white" stroke-width="1.57039" r="2.69291"/>
          <circle cx="26.6502" gorn="0.3.0.0.0.0.0.0.0.0.3.2" connectorname="GNDBREAK" fill="white" cy="14.6239" id="connector1pad2" stroke="white" stroke-width="1.57039" r="2.69291"/>
         </g>
        </g>
       </g>
      </g>
     </g>
    </g>
   </g>
  </g>
  <g partID="854511850">
   <g transform="translate(140.66,120.308)">
    <g transform="matrix(1, 0, 0, 1, 0.615231, 1.27105)">
     <g id="copper0">
      <g gorn="0.3.0.0.5">
       <path gorn="0.3.0.0.5.0" fill="white" id="path1831" stroke="white" d="m3.68929,-1.13043a2.83464,2.83465,0,0,0,-2.83447,2.83447,2.83464,2.83465,0,0,0,2.83447,2.83595l5.67039,0a2.83464,2.83465,0,0,0,2.83447,-2.83595,2.83464,2.83465,0,0,0,-2.83447,-2.83447zm2.85352,0.706054a2.12598,2.12598,0,0,1,2.12549,2.12549,2.12598,2.12598,0,0,1,-2.12549,2.12549,2.12598,2.12598,0,0,1,-2.12695,-2.12549,2.12598,2.12598,0,0,1,2.12695,-2.12549z" stroke-width="0.72"/>
       <path gorn="0.3.0.0.5.1" fill="white" id="connector2extra2" stroke="white" d="m3.68929,-1.13043a2.83464,2.83465,0,0,0,-2.83447,2.83447,2.83464,2.83465,0,0,0,2.83447,2.83595l5.67042,0a2.83464,2.83465,0,0,0,2.83447,-2.83595,2.83464,2.83465,0,0,0,-2.83447,-2.83447zm2.85352,0.706054a2.12598,2.12598,0,0,1,2.12549,2.12549,2.12598,2.12598,0,0,1,-2.12549,2.12549,2.12598,2.12598,0,0,1,-2.12695,-2.12549,2.12598,2.12598,0,0,1,2.12695,-2.12549z" stroke-width="0.72"/>
       <circle cx="6.52411" connectorname="PWR" gorn="0.3.0.0.5.2" cy="1.70533" fill="white" id="connector2pad2" stroke="white" r="2.55118" stroke-width="1.57039"/>
       <circle cx="6.52411" connectorname="GND@1" gorn="0.3.0.0.5.3" cy="15.8786" fill="white" id="connector0pad2" stroke="white" r="2.55118" stroke-width="1.57039"/>
       <g transform="matrix(0.264583, 0, 0, 0.264583, -0.5625, -1.12932)">
        <g>
         <g>
          <path gorn="0.3.0.0.5.4.0.0" fill="white" id="connector0extra2" stroke="white" d="m16.0722,53.5703a10.7136,10.7136,0,0,0,-10.713,10.713,10.7136,10.7136,0,0,0,10.713,10.713l21.4259,0a10.7136,10.7136,0,0,0,10.713,-10.713,10.7136,10.7136,0,0,0,-10.713,-10.713zm10.713,2.67409a8.03522,8.03523,0,0,1,8.03332,8.03889,8.03522,8.03523,0,0,1,-8.03332,8.03336,8.03522,8.03523,0,0,1,-8.03888,-8.03336,8.03522,8.03523,0,0,1,8.03888,-8.03889z" stroke-width="0.72"/>
         </g>
        </g>
       </g>
       <circle cx="14.0961" connectorname="GND@2" gorn="0.3.0.0.5.5" cy="8.79404" fill="white" id="connector1pad2" stroke="white" r="2.55118" stroke-width="1.57039"/>
      </g>
     </g>
    </g>
   </g>
  </g>
  <g partID="854511840">
   <g transform="translate(102.393,120.308)">
    <g transform="matrix(1, 0, 0, 1, 0.615231, 1.27105)">
     <g id="copper0">
      <g gorn="0.3.0.0.5">
       <path gorn="0.3.0.0.5.0" fill="white" id="path1831" stroke="white" d="m3.68929,-1.13043a2.83464,2.83465,0,0,0,-2.83447,2.83447,2.83464,2.83465,0,0,0,2.83447,2.83595l5.67039,0a2.83464,2.83465,0,0,0,2.83447,-2.83595,2.83464,2.83465,0,0,0,-2.83447,-2.83447zm2.85352,0.706054a2.12598,2.12598,0,0,1,2.12549,2.12549,2.12598,2.12598,0,0,1,-2.12549,2.12549,2.12598,2.12598,0,0,1,-2.12695,-2.12549,2.12598,2.12598,0,0,1,2.12695,-2.12549z" stroke-width="0.72"/>
       <path gorn="0.3.0.0.5.1" fill="white" id="connector2extra2" stroke="white" d="m3.68929,-1.13043a2.83464,2.83465,0,0,0,-2.83447,2.83447,2.83464,2.83465,0,0,0,2.83447,2.83595l5.67042,0a2.83464,2.83465,0,0,0,2.83447,-2.83595,2.83464,2.83465,0,0,0,-2.83447,-2.83447zm2.85352,0.706054a2.12598,2.12598,0,0,1,2.12549,2.12549,2.12598,2.12598,0,0,1,-2.12549,2.12549,2.12598,2.12598,0,0,1,-2.12695,-2.12549,2.12598,2.12598,0,0,1,2.12695,-2.12549z" stroke-width="0.72"/>
       <circle cx="6.52411" connectorname="PWR" gorn="0.3.0.0.5.2" cy="1.70533" fill="white" id="connector2pad2" stroke="white" r="2.55118" stroke-width="1.57039"/>
       <circle cx="6.52411" connectorname="GND@1" gorn="0.3.0.0.5.3" cy="15.8786" fill="white" id="connector0pad2" stroke="white" r="2.55118" stroke-width="1.57039"/>
       <g transform="matrix(0.264583, 0, 0, 0.264583, -0.5625, -1.12932)">
        <g>
         <g>
          <path gorn="0.3.0.0.5.4.0.0" fill="white" id="connector0extra2" stroke="white" d="m16.0722,53.5703a10.7136,10.7136,0,0,0,-10.713,10.713,10.7136,10.7136,0,0,0,10.713,10.713l21.4259,0a10.7136,10.7136,0,0,0,10.713,-10.713,10.7136,10.7136,0,0,0,-10.713,-10.713zm10.713,2.67409a8.03522,8.03523,0,0,1,8.03332,8.03889,8.03522,8.03523,0,0,1,-8.03332,8.03336,8.03522,8.03523,0,0,1,-8.03888,-8.03336,8.03522,8.03523,0,0,1,8.03888,-8.03889z" stroke-width="0.72"/>
         </g>
        </g>
       </g>
       <circle cx="14.0961" connectorname="GND@2" gorn="0.3.0.0.5.5" cy="8.79404" fill="white" id="connector1pad2" stroke="white" r="2.55118" stroke-width="1.57039"/>
      </g>
     </g>
    </g>
   </g>
  </g>
  <g partID="854511830">
   <g transform="translate(64.125,120.308)">
    <g transform="matrix(1, 0, 0, 1, 0.615231, 1.27105)">
     <g id="copper0">
      <g gorn="0.3.0.0.5">
       <path gorn="0.3.0.0.5.0" fill="white" id="path1831" stroke="white" d="m3.68929,-1.13043a2.83464,2.83465,0,0,0,-2.83447,2.83447,2.83464,2.83465,0,0,0,2.83447,2.83595l5.67039,0a2.83464,2.83465,0,0,0,2.83447,-2.83595,2.83464,2.83465,0,0,0,-2.83447,-2.83447zm2.85352,0.706054a2.12598,2.12598,0,0,1,2.12549,2.12549,2.12598,2.12598,0,0,1,-2.12549,2.12549,2.12598,2.12598,0,0,1,-2.12695,-2.12549,2.12598,2.12598,0,0,1,2.12695,-2.12549z" stroke-width="0.72"/>
       <path gorn="0.3.0.0.5.1" fill="white" id="connector2extra2" stroke="white" d="m3.68929,-1.13043a2.83464,2.83465,0,0,0,-2.83447,2.83447,2.83464,2.83465,0,0,0,2.83447,2.83595l5.67042,0a2.83464,2.83465,0,0,0,2.83447,-2.83595,2.83464,2.83465,0,0,0,-2.83447,-2.83447zm2.85352,0.706054a2.12598,2.12598,0,0,1,2.12549,2.12549,2.12598,2.12598,0,0,1,-2.12549,2.12549,2.12598,2.12598,0,0,1,-2.12695,-2.12549,2.12598,2.12598,0,0,1,2.12695,-2.12549z" stroke-width="0.72"/>
       <circle cx="6.52411" connectorname="PWR" gorn="0.3.0.0.5.2" cy="1.70533" fill="white" id="connector2pad2" stroke="white" r="2.55118" stroke-width="1.57039"/>
       <circle cx="6.52411" connectorname="GND@1" gorn="0.3.0.0.5.3" cy="15.8786" fill="white" id="connector0pad2" stroke="white" r="2.55118" stroke-width="1.57039"/>
       <g transform="matrix(0.264583, 0, 0, 0.264583, -0.5625, -1.12932)">
        <g>
         <g>
          <path gorn="0.3.0.0.5.4.0.0" fill="white" id="connector0extra2" stroke="white" d="m16.0722,53.5703a10.7136,10.7136,0,0,0,-10.713,10.713,10.7136,10.7136,0,0,0,10.713,10.713l21.4259,0a10.7136,10.7136,0,0,0,10.713,-10.713,10.7136,10.7136,0,0,0,-10.713,-10.713zm10.713,2.67409a8.03522,8.03523,0,0,1,8.03332,8.03889,8.03522,8.03523,0,0,1,-8.03332,8.03336,8.03522,8.03523,0,0,1,-8.03888,-8.03336,8.03522,8.03523,0,0,1,8.03888,-8.03889z" stroke-width="0.72"/>
         </g>
        </g>
       </g>
       <circle cx="14.0961" connectorname="GND@2" gorn="0.3.0.0.5.5" cy="8.79404" fill="white" id="connector1pad2" stroke="white" r="2.55118" stroke-width="1.57039"/>
      </g>
     </g>
    </g>
   </g>
  </g>
  <g partID="854511860">
   <g transform="translate(25.8575,120.308)">
    <g transform="matrix(1, 0, 0, 1, 0.615231, 1.27105)">
     <g id="copper0">
      <g gorn="0.3.0.0.5">
       <path gorn="0.3.0.0.5.0" fill="white" id="path1831" stroke="white" d="m3.68929,-1.13043a2.83464,2.83465,0,0,0,-2.83447,2.83447,2.83464,2.83465,0,0,0,2.83447,2.83595l5.67039,0a2.83464,2.83465,0,0,0,2.83447,-2.83595,2.83464,2.83465,0,0,0,-2.83447,-2.83447zm2.85352,0.706054a2.12598,2.12598,0,0,1,2.12549,2.12549,2.12598,2.12598,0,0,1,-2.12549,2.12549,2.12598,2.12598,0,0,1,-2.12695,-2.12549,2.12598,2.12598,0,0,1,2.12695,-2.12549z" stroke-width="0.72"/>
       <path gorn="0.3.0.0.5.1" fill="white" id="connector2extra2" stroke="white" d="m3.68929,-1.13043a2.83464,2.83465,0,0,0,-2.83447,2.83447,2.83464,2.83465,0,0,0,2.83447,2.83595l5.67042,0a2.83464,2.83465,0,0,0,2.83447,-2.83595,2.83464,2.83465,0,0,0,-2.83447,-2.83447zm2.85352,0.706054a2.12598,2.12598,0,0,1,2.12549,2.12549,2.12598,2.12598,0,0,1,-2.12549,2.12549,2.12598,2.12598,0,0,1,-2.12695,-2.12549,2.12598,2.12598,0,0,1,2.12695,-2.12549z" stroke-width="0.72"/>
       <circle cx="6.52411" connectorname="PWR" gorn="0.3.0.0.5.2" cy="1.70533" fill="white" id="connector2pad2" stroke="white" r="2.55118" stroke-width="1.57039"/>
       <circle cx="6.52411" connectorname="GND@1" gorn="0.3.0.0.5.3" cy="15.8786" fill="white" id="connector0pad2" stroke="white" r="2.55118" stroke-width="1.57039"/>
       <g transform="matrix(0.264583, 0, 0, 0.264583, -0.5625, -1.12932)">
        <g>
         <g>
          <path gorn="0.3.0.0.5.4.0.0" fill="white" id="connector0extra2" stroke="white" d="m16.0722,53.5703a10.7136,10.7136,0,0,0,-10.713,10.713,10.7136,10.7136,0,0,0,10.713,10.713l21.4259,0a10.7136,10.7136,0,0,0,10.713,-10.713,10.7136,10.7136,0,0,0,-10.713,-10.713zm10.713,2.67409a8.03522,8.03523,0,0,1,8.03332,8.03889,8.03522,8.03523,0,0,1,-8.03332,8.03336,8.03522,8.03523,0,0,1,-8.03888,-8.03336,8.03522,8.03523,0,0,1,8.03888,-8.03889z" stroke-width="0.72"/>
         </g>
        </g>
       </g>
       <circle cx="14.0961" connectorname="GND@2" gorn="0.3.0.0.5.5" cy="8.79404" fill="white" id="connector1pad2" stroke="white" r="2.55118" stroke-width="1.57039"/>
      </g>
     </g>
    </g>
   </g>
  </g>
  <g partID="854422620">
   <g transform="translate(1.37504,1.7808)">
    <g id="copper0">
     <circle cx="7.97796" fill="white" cy="7.97796" id="nonconn0" stroke="white" r="4.96063" stroke-width="3.55465"/>
    </g>
   </g>
  </g>
  <g partID="854422600">
   <g transform="translate(1.37504,139.261)">
    <g id="copper0">
     <circle cx="7.97796" fill="white" cy="7.97796" id="nonconn0" stroke="white" r="4.96063" stroke-width="3.55465"/>
    </g>
   </g>
  </g>
  <g partID="854422360">
   <g transform="translate(209.722,139.261)">
    <g id="copper0">
     <circle cx="7.97796" fill="white" cy="7.97796" id="nonconn0" stroke="white" r="4.96063" stroke-width="3.55465"/>
    </g>
   </g>
  </g>
  <g partID="854422070">
   <g transform="translate(209.722,1.7808)">
    <g id="copper0">
     <circle cx="7.97796" fill="white" cy="7.97796" id="nonconn0" stroke="white" r="4.96063" stroke-width="3.55465"/>
    </g>
   </g>
  </g>
  <g partID="854384890">
   <g transform="translate(154.975,26.5398)">
    <g id="copper0">
     <rect height="4.464" y="12.168" fill="white" width="4.464" x="6.408" stroke="white" stroke-width="2.16"/>
     <circle cx="8.64" cy="14.4" fill="white" id="connector0pad" stroke="white" r="2.232" stroke-width="2.16"/>
     <circle cx="15.84" cy="14.4" fill="white" id="connector1pad" stroke="white" r="2.232" stroke-width="2.16"/>
     <circle cx="23.04" cy="14.4" fill="white" id="connector2pad" stroke="white" r="2.232" stroke-width="2.16"/>
    </g>
   </g>
  </g>
  <g partID="854133740">
   <g transform="translate(105.866,36.4265)">
    <g id="copper0">
     <g id="copper1">
      <!-- <rect width="55" x="10" y="15.5" fill="none" height="55" stroke="rgb(255, 191, 0)" stroke-width="20" />  -->
      <circle cx="2.7" fill="white" cy="3.096" id="connector0pin" stroke="white" r="1.98" stroke-width="2.16"/>
      <circle cx="31.5" fill="white" cy="3.096" id="connector1pin" stroke="white" r="1.98" stroke-width="2.16"/>
     </g>
    </g>
   </g>
  </g>
  <g partID="198050">
   <g transform="translate(195.297,19.5583)">
    <g transform="matrix(-1,0,0,-1,0,0)">
     <g transform="matrix(1, 0, 0, 1, -21.472, -3.00704)">
      <g id="copper0">
       <g gorn="0.3.0">
        <g gorn="0.3.0.0" id="copper1">
         <circle cx="24.185" gorn="0.3.0.0.0" cy="12.919" fill="white" id="connector0pin" stroke="white" r="2.088" stroke-width="1.97"/>
         <circle cx="31.384" gorn="0.3.0.0.1" cy="12.919" fill="white" id="connector1pin" stroke="white" r="2.088" stroke-width="1.97"/>
         <circle cx="38.585" gorn="0.3.0.0.2" cy="12.919" fill="white" id="connector2pin" stroke="white" r="2.088" stroke-width="1.97"/>
         <circle cx="45.784" gorn="0.3.0.0.3" cy="12.919" fill="white" id="connector3pin" stroke="white" r="2.088" stroke-width="1.97"/>
         <circle cx="52.9849" gorn="0.3.0.0.4" cy="12.919" fill="white" id="connector4pin" stroke="white" r="2.088" stroke-width="1.97"/>
         <circle cx="60.1849" gorn="0.3.0.0.5" cy="12.919" fill="white" id="connector5pin" stroke="white" r="2.088" stroke-width="1.97"/>
         <circle cx="67.3839" gorn="0.3.0.0.6" cy="12.919" fill="white" id="connector6pin" stroke="white" r="2.088" stroke-width="1.97"/>
         <circle cx="74.5849" gorn="0.3.0.0.7" cy="12.919" fill="white" id="connector7pin" stroke="white" r="2.088" stroke-width="1.97"/>
         <circle cx="81.7839" gorn="0.3.0.0.8" cy="12.919" fill="white" id="connector8pin" stroke="white" r="2.088" stroke-width="1.97"/>
         <circle cx="88.9849" gorn="0.3.0.0.9" cy="12.919" fill="white" id="connector9pin" stroke="white" r="2.088" stroke-width="1.97"/>
         <circle cx="96.1849" gorn="0.3.0.0.10" cy="12.919" fill="white" id="connector10pin" stroke="white" r="2.088" stroke-width="1.97"/>
         <circle cx="103.385" gorn="0.3.0.0.11" cy="12.919" fill="white" id="connector11pin" stroke="white" r="2.088" stroke-width="1.97"/>
         <circle cx="110.585" gorn="0.3.0.0.12" cy="12.919" fill="white" id="connector12pin" stroke="white" r="2.088" stroke-width="1.97"/>
         <circle cx="117.784" gorn="0.3.0.0.13" cy="12.919" fill="white" id="connector13pin" stroke="white" r="2.088" stroke-width="1.97"/>
         <circle cx="124.986" gorn="0.3.0.0.14" cy="12.919" fill="white" id="connector14pin" stroke="white" r="2.088" stroke-width="1.97"/>
         <circle cx="132.185" gorn="0.3.0.0.15" cy="12.919" fill="white" id="connector15pin" stroke="white" r="2.088" stroke-width="1.97"/>
         <circle cx="139.385" gorn="0.3.0.0.16" cy="12.919" fill="white" id="connector16pin" stroke="white" r="2.088" stroke-width="1.97"/>
         <circle cx="146.585" gorn="0.3.0.0.17" cy="12.919" fill="white" id="connector17pin" stroke="white" r="2.088" stroke-width="1.97"/>
         <circle cx="153.784" gorn="0.3.0.0.18" cy="12.919" fill="white" id="connector18pin" stroke="white" r="2.088" stroke-width="1.97"/>
         <circle cx="160.986" gorn="0.3.0.0.19" cy="12.919" fill="white" id="connector19pin" stroke="white" r="2.088" stroke-width="1.97"/>
         <circle cx="160.986" gorn="0.3.0.0.20" cy="5.72001" fill="white" id="connector20pin" stroke="white" r="2.088" stroke-width="1.97"/>
         <circle cx="153.784" gorn="0.3.0.0.21" cy="5.72001" fill="white" id="connector21pin" stroke="white" r="2.088" stroke-width="1.97"/>
         <circle cx="146.585" gorn="0.3.0.0.22" cy="5.72001" fill="white" id="connector22pin" stroke="white" r="2.088" stroke-width="1.97"/>
         <circle cx="139.385" gorn="0.3.0.0.23" cy="5.72001" fill="white" id="connector23pin" stroke="white" r="2.088" stroke-width="1.97"/>
         <circle cx="132.185" gorn="0.3.0.0.24" cy="5.72001" fill="white" id="connector24pin" stroke="white" r="2.088" stroke-width="1.97"/>
         <circle cx="124.986" gorn="0.3.0.0.25" cy="5.72001" fill="white" id="connector25pin" stroke="white" r="2.088" stroke-width="1.97"/>
         <circle cx="117.784" gorn="0.3.0.0.26" cy="5.72001" fill="white" id="connector26pin" stroke="white" r="2.088" stroke-width="1.97"/>
         <circle cx="110.585" gorn="0.3.0.0.27" cy="5.72001" fill="white" id="connector27pin" stroke="white" r="2.088" stroke-width="1.97"/>
         <circle cx="103.385" gorn="0.3.0.0.28" cy="5.72001" fill="white" id="connector28pin" stroke="white" r="2.088" stroke-width="1.97"/>
         <circle cx="96.1849" gorn="0.3.0.0.29" cy="5.72001" fill="white" id="connector29pin" stroke="white" r="2.088" stroke-width="1.97"/>
         <circle cx="88.9849" gorn="0.3.0.0.30" cy="5.72001" fill="white" id="connector30pin" stroke="white" r="2.088" stroke-width="1.97"/>
         <circle cx="81.7839" gorn="0.3.0.0.31" cy="5.72001" fill="white" id="connector31pin" stroke="white" r="2.088" stroke-width="1.97"/>
         <circle cx="74.5849" gorn="0.3.0.0.32" cy="5.72001" fill="white" id="connector32pin" stroke="white" r="2.088" stroke-width="1.97"/>
         <circle cx="67.3839" gorn="0.3.0.0.33" cy="5.72001" fill="white" id="connector33pin" stroke="white" r="2.088" stroke-width="1.97"/>
         <circle cx="60.1849" gorn="0.3.0.0.34" cy="5.72001" fill="white" id="connector34pin" stroke="white" r="2.088" stroke-width="1.97"/>
         <circle cx="52.9849" gorn="0.3.0.0.35" cy="5.72001" fill="white" id="connector35pin" stroke="white" r="2.088" stroke-width="1.97"/>
         <circle cx="45.784" gorn="0.3.0.0.36" cy="5.72001" fill="white" id="connector36pin" stroke="white" r="2.088" stroke-width="1.97"/>
         <circle cx="38.585" gorn="0.3.0.0.37" cy="5.72001" fill="white" id="connector37pin" stroke="white" r="2.088" stroke-width="1.97"/>
         <circle cx="31.384" gorn="0.3.0.0.38" cy="5.72001" fill="white" id="connector38pin" stroke="white" r="2.088" stroke-width="1.97"/>
         <circle cx="24.185" gorn="0.3.0.0.39" cy="5.72001" fill="white" id="connector39pin" stroke="white" r="2.088" stroke-width="1.97"/>
        </g>
       </g>
      </g>
     </g>
    </g>
   </g>
  </g>
  <g partID="337480">
   <g transform="translate(208.407,21.4998)">
    <g id="copper0">
     <circle cx="5.04" cy="5.04" fill="white" id="connector0pin" stroke="white" r="2.088" stroke-width="2.16"/>
     <circle cx="5.04" cy="12.24" fill="white" id="connector1pin" stroke="white" r="2.088" stroke-width="2.16"/>
     <circle cx="5.04" cy="19.44" fill="white" id="connector2pin" stroke="white" r="2.088" stroke-width="2.16"/>
     <circle cx="5.04" cy="26.64" fill="white" id="connector3pin" stroke="white" r="2.088" stroke-width="2.16"/>
     <circle cx="5.04" cy="33.84" fill="white" id="connector4pin" stroke="white" r="2.088" stroke-width="2.16"/>
    </g>
   </g>
  </g>
 </g>
</svg>
