<?xml version='1.0' encoding='UTF-8' standalone='no'?>
<!-- Created with Fritzing (https://fritzing.org/) -->
<svg xmlns="http://www.w3.org/2000/svg" height="2.16535in" xmlns:svg="http://www.w3.org/2000/svg"  y="0in" version="1.2" width="3.14961in" viewBox="0 0 226.772 155.906" x="0in" baseProfile="tiny">
 <g transform="matrix(-1, 0, 0, 1, 226.772, 0)">
  <g partID="196230">
   <g  id="board">
    <rect height="155.33"  y="0.288" fill="none" width="226.196" id="boardoutline" fill-opacity="0.5" x="0.288" stroke="black" stroke-width="0.5"/>
   </g>
  </g>
  <g partID="854683100">
   <g transform="translate(2.38488,56.4226)">
    <g transform="matrix(1, 0, 0, 1, 1.53496, -785.538)">
     <g id="copper0">
      <g transform="matrix(0.352778, 0, 0, 0.352778, -1.2596, 804.052)">
       <g>
        <g gorn="0.3.0.0.1.0.0" stroke-width="0">
         <circle cx="122.976" connectorname="LED+ve" gorn="0.3.0.0.1.0.0.0" fill="none" cy="76.2464" id="connector4pin" stroke="black" stroke-width="2.83465" r="6.00632"/>
         <circle cx="20.7678" connectorname="VIN" gorn="0.3.0.0.1.0.0.1" fill="none" cy="-32.1063" id="connector0pin" stroke="black" stroke-width="2.83465" r="5.97666"/>
         <circle cx="61.4762" connectorname="GND" gorn="0.3.0.0.1.0.0.2" fill="none" cy="-32.121" id="connector1pin" stroke="black" stroke-width="2.83465" r="6.00632"/>
         <circle cx="163.605" connectorname="DIM" gorn="0.3.0.0.1.0.0.3" fill="none" cy="-32.0849" id="connector2pin" stroke="black" stroke-width="2.83465" r="6.00632"/>
         <circle cx="163.629" connectorname="LED-ve" gorn="0.3.0.0.1.0.0.4" fill="none" cy="76.2464" id="connector3pin" stroke="black" stroke-width="2.83465" r="6.00632"/>
        </g>
       </g>
      </g>
     </g>
    </g>
   </g>
  </g>
  <g partID="854683060">
   <g transform="translate(71.8338,53.588)">
    <g transform="matrix(1, 0, 0, 1, 1.53496, -785.538)">
     <g id="copper0">
      <g transform="matrix(0.352778, 0, 0, 0.352778, -1.2596, 804.052)">
       <g>
        <g gorn="0.3.0.0.1.0.0" stroke-width="0">
         <circle cx="122.976" connectorname="LED+ve" gorn="0.3.0.0.1.0.0.0" fill="none" cy="76.2464" id="connector4pin" stroke="black" stroke-width="2.83465" r="6.00632"/>
         <circle cx="20.7678" connectorname="VIN" gorn="0.3.0.0.1.0.0.1" fill="none" cy="-32.1063" id="connector0pin" stroke="black" stroke-width="2.83465" r="5.97666"/>
         <circle cx="61.4762" connectorname="GND" gorn="0.3.0.0.1.0.0.2" fill="none" cy="-32.121" id="connector1pin" stroke="black" stroke-width="2.83465" r="6.00632"/>
         <circle cx="163.605" connectorname="DIM" gorn="0.3.0.0.1.0.0.3" fill="none" cy="-32.0849" id="connector2pin" stroke="black" stroke-width="2.83465" r="6.00632"/>
         <circle cx="163.629" connectorname="LED-ve" gorn="0.3.0.0.1.0.0.4" fill="none" cy="76.2464" id="connector3pin" stroke="black" stroke-width="2.83465" r="6.00632"/>
        </g>
       </g>
      </g>
     </g>
    </g>
   </g>
  </g>
  <g partID="854683080">
   <g transform="translate(141.283,53.588)">
    <g transform="matrix(1, 0, 0, 1, 1.53496, -785.538)">
     <g id="copper0">
      <g transform="matrix(0.352778, 0, 0, 0.352778, -1.2596, 804.052)">
       <g>
        <g gorn="0.3.0.0.1.0.0" stroke-width="0">
         <circle cx="122.976" connectorname="LED+ve" gorn="0.3.0.0.1.0.0.0" fill="none" cy="76.2464" id="connector4pin" stroke="black" stroke-width="2.83465" r="6.00632"/>
         <circle cx="20.7678" connectorname="VIN" gorn="0.3.0.0.1.0.0.1" fill="none" cy="-32.1063" id="connector0pin" stroke="black" stroke-width="2.83465" r="5.97666"/>
         <circle cx="61.4762" connectorname="GND" gorn="0.3.0.0.1.0.0.2" fill="none" cy="-32.121" id="connector1pin" stroke="black" stroke-width="2.83465" r="6.00632"/>
         <circle cx="163.605" connectorname="DIM" gorn="0.3.0.0.1.0.0.3" fill="none" cy="-32.0849" id="connector2pin" stroke="black" stroke-width="2.83465" r="6.00632"/>
         <circle cx="163.629" connectorname="LED-ve" gorn="0.3.0.0.1.0.0.4" fill="none" cy="76.2464" id="connector3pin" stroke="black" stroke-width="2.83465" r="6.00632"/>
        </g>
       </g>
      </g>
     </g>
    </g>
   </g>
  </g>
  <g partID="854654920">
   <g transform="translate(30.6786,113.623)">
    <g  id="copper0">
     <circle  cx="3.01732" fill="none" cy="3.01732" id="connector0pin" stroke="black" r="0.992124" stroke-width="0.850392"/>
    </g>
   </g>
  </g>
  <g partID="854655360">
   <g transform="translate(25.4946,127.447)">
    <g  id="copper0">
     <circle  cx="3.01732" fill="none" cy="3.01732" id="connector0pin" stroke="black" r="0.992124" stroke-width="0.850392"/>
    </g>
   </g>
  </g>
  <g partID="854657000">
   <g transform="translate(56.5986,58.3266)">
    <g  id="copper0">
     <circle  cx="3.01732" fill="none" cy="3.01732" id="connector0pin" stroke="black" r="0.992124" stroke-width="0.850392"/>
    </g>
   </g>
  </g>
  <g partID="854659040">
   <g transform="translate(101.527,127.447)">
    <g  id="copper0">
     <circle  cx="3.01732" fill="none" cy="3.01732" id="connector0pin" stroke="black" r="0.992124" stroke-width="0.850392"/>
    </g>
   </g>
  </g>
  <g partID="854659280">
   <g transform="translate(201.751,37.5906)">
    <g  id="copper0">
     <circle  cx="3.01732" fill="none" cy="3.01732" id="connector0pin" stroke="black" r="0.992124" stroke-width="0.850392"/>
    </g>
   </g>
  </g>
  <g partID="854661880">
   <g transform="translate(44.5274,9.60168)">
    <g  id="copper0">
     <circle  cx="3.01733" fill="none" cy="3.01733" id="connector0pin" stroke="black" r="0.992124" stroke-width="0.850392"/>
    </g>
   </g>
  </g>
  <g partID="854663370">
   <g transform="translate(57.2866,26.5557)">
    <g  id="copper0">
     <circle  cx="3.01733" fill="none" cy="3.01733" id="connector0pin" stroke="black" r="0.992124" stroke-width="0.850392"/>
    </g>
   </g>
  </g>
  <g partID="854666170">
   <g transform="translate(160.759,47.8793)">
    <g  id="copper0">
     <circle  cx="3.01733" fill="none" cy="3.01733" id="connector0pin" stroke="black" r="0.992124" stroke-width="0.850392"/>
    </g>
   </g>
  </g>
  <g partID="854666430">
   <g transform="translate(107.047,43.4743)">
    <g  id="copper0">
     <circle  cx="3.01733" fill="none" cy="3.01733" id="connector0pin" stroke="black" r="0.992124" stroke-width="0.850392"/>
    </g>
   </g>
  </g>
  <g partID="854667790">
   <g transform="translate(85.7762,117.302)">
    <g  id="copper0">
     <circle  cx="3.01733" fill="none" cy="3.01733" id="connector0pin" stroke="black" r="0.992124" stroke-width="0.850392"/>
    </g>
   </g>
  </g>
  <g partID="854673340">
   <g transform="translate(145.243,108.772)">
    <g  id="copper0">
     <circle  cx="3.01733" fill="none" cy="3.01733" id="connector0pin" stroke="black" r="0.992124" stroke-width="0.850392"/>
    </g>
   </g>
  </g>
  <g partID="854677900">
   <g transform="translate(214.759,78.9589)">
    <g  id="copper0">
     <circle  cx="3.01733" fill="none" cy="3.01733" id="connector0pin" stroke="black" r="0.992124" stroke-width="0.850392"/>
    </g>
   </g>
  </g>
  <g partID="854678140">
   <g transform="translate(214.759,129.981)">
    <g  id="copper0">
     <circle  cx="3.01733" fill="none" cy="3.01733" id="connector0pin" stroke="black" r="0.992124" stroke-width="0.850392"/>
    </g>
   </g>
  </g>
  <g partID="854678380">
   <g transform="translate(207.612,132.867)">
    <g  id="copper0">
     <circle  cx="3.01733" fill="none" cy="3.01733" id="connector0pin" stroke="black" r="0.992124" stroke-width="0.850392"/>
    </g>
   </g>
  </g>
  <g partID="854678420">
   <g transform="translate(207.612,96.0717)">
    <g  id="copper0">
     <circle  cx="3.01733" fill="none" cy="3.01733" id="connector0pin" stroke="black" r="0.992124" stroke-width="0.850392"/>
    </g>
   </g>
  </g>
  <g partID="854679460">
   <g transform="translate(125.404,142.841)">
    <g  id="copper0">
     <circle  cx="3.01733" fill="none" cy="3.01733" id="connector0pin" stroke="black" r="0.992124" stroke-width="0.850392"/>
    </g>
   </g>
  </g>
  <g partID="854679740">
   <g transform="translate(136.726,43.5437)">
    <g  id="copper0">
     <circle  cx="3.01733" fill="none" cy="3.01733" id="connector0pin" stroke="black" r="0.992124" stroke-width="0.850392"/>
    </g>
   </g>
  </g>
  <g partID="854679890">
   <g transform="translate(136.726,52.0609)">
    <g  id="copper0">
     <circle  cx="3.01733" fill="none" cy="3.01733" id="connector0pin" stroke="black" r="0.992124" stroke-width="0.850392"/>
    </g>
   </g>
  </g>
  <g partID="854680700">
   <g transform="translate(65.829,96.0189)">
    <g  id="copper0">
     <circle  cx="3.01733" fill="none" cy="3.01733" id="connector0pin" stroke="black" r="0.992124" stroke-width="0.850392"/>
    </g>
   </g>
  </g>
  <g partID="854515660">
   <g transform="translate(176.787,112.833)">
    <g transform="matrix(1, 0, 0, 1, 0.377238, -800.114)">
     <g id="copper0">
      <g transform="matrix(1, 0, 0, 1, -0.288, 797.219)">
       <g>
        <g gorn="0.3.0.0.0.0.0.0.0.0">
         <circle cx="13.0439" gorn="0.3.0.0.0.0.0.0.0.0.0" connectorname="PWR" fill="none" cy="6.12" id="connector2pad" stroke="black" stroke-width="0.850394" r="2.69291"/>
         <circle cx="13.0439" gorn="0.3.0.0.0.0.0.0.0.0.1" connectorname="GND" fill="none" cy="22.5609" id="connector0pad" stroke="black" stroke-width="0.850394" r="2.69291"/>
         <circle cx="26.6502" gorn="0.3.0.0.0.0.0.0.0.0.2" connectorname="GNDBREAK" fill="none" cy="14.6239" id="connector1pad" stroke="black" stroke-width="0.850394" r="2.69291"/>
         <g gorn="0.3.0.0.0.0.0.0.0.0.3" id="copper1">
          <circle cx="13.0439" gorn="0.3.0.0.0.0.0.0.0.0.3.0" connectorname="PWR" fill="none" cy="6.12" id="connector2pad2" stroke="black" stroke-width="0.850394" r="2.69291"/>
          <circle cx="13.0439" gorn="0.3.0.0.0.0.0.0.0.0.3.1" connectorname="GND" fill="none" cy="22.5609" id="connector0pad2" stroke="black" stroke-width="0.850394" r="2.69291"/>
          <circle cx="26.6502" gorn="0.3.0.0.0.0.0.0.0.0.3.2" connectorname="GNDBREAK" fill="none" cy="14.6239" id="connector1pad2" stroke="black" stroke-width="0.850394" r="2.69291"/>
         </g>
        </g>
       </g>
      </g>
     </g>
    </g>
   </g>
  </g>
  <g partID="854511850">
   <g transform="translate(140.66,120.308)">
    <g transform="matrix(1, 0, 0, 1, 0.615231, 1.27105)">
     <g id="copper0">
      <g gorn="0.3.0.0.5">
       <path gorn="0.3.0.0.5.0" fill="black" id="path1831" stroke="none" d="m3.68929,-1.13043a2.83464,2.83465,0,0,0,-2.83447,2.83447,2.83464,2.83465,0,0,0,2.83447,2.83595l5.67039,0a2.83464,2.83465,0,0,0,2.83447,-2.83595,2.83464,2.83465,0,0,0,-2.83447,-2.83447zm2.85352,0.706054a2.12598,2.12598,0,0,1,2.12549,2.12549,2.12598,2.12598,0,0,1,-2.12549,2.12549,2.12598,2.12598,0,0,1,-2.12695,-2.12549,2.12598,2.12598,0,0,1,2.12695,-2.12549z" stroke-width="0"/>
       <path gorn="0.3.0.0.5.1" fill="black" id="connector2extra2" stroke="none" d="m3.68929,-1.13043a2.83464,2.83465,0,0,0,-2.83447,2.83447,2.83464,2.83465,0,0,0,2.83447,2.83595l5.67042,0a2.83464,2.83465,0,0,0,2.83447,-2.83595,2.83464,2.83465,0,0,0,-2.83447,-2.83447zm2.85352,0.706054a2.12598,2.12598,0,0,1,2.12549,2.12549,2.12598,2.12598,0,0,1,-2.12549,2.12549,2.12598,2.12598,0,0,1,-2.12695,-2.12549,2.12598,2.12598,0,0,1,2.12695,-2.12549z" stroke-width="0"/>
       <circle cx="6.52411" connectorname="PWR" gorn="0.3.0.0.5.2" cy="1.70533" fill="none" id="connector2pad2" stroke="black" r="2.55118" stroke-width="0.850393"/>
       <circle cx="6.52411" connectorname="GND@1" gorn="0.3.0.0.5.3" cy="15.8786" fill="none" id="connector0pad2" stroke="black" r="2.55118" stroke-width="0.850393"/>
       <g transform="matrix(0.264583, 0, 0, 0.264583, -0.5625, -1.12932)">
        <g>
         <g>
          <path gorn="0.3.0.0.5.4.0.0" fill="black" id="connector0extra2" stroke="none" d="m16.0722,53.5703a10.7136,10.7136,0,0,0,-10.713,10.713,10.7136,10.7136,0,0,0,10.713,10.713l21.4259,0a10.7136,10.7136,0,0,0,10.713,-10.713,10.7136,10.7136,0,0,0,-10.713,-10.713zm10.713,2.67409a8.03522,8.03523,0,0,1,8.03332,8.03889,8.03522,8.03523,0,0,1,-8.03332,8.03336,8.03522,8.03523,0,0,1,-8.03888,-8.03336,8.03522,8.03523,0,0,1,8.03888,-8.03889z" stroke-width="0"/>
         </g>
        </g>
       </g>
       <circle cx="14.0961" connectorname="GND@2" gorn="0.3.0.0.5.5" cy="8.79404" fill="none" id="connector1pad2" stroke="black" r="2.55118" stroke-width="0.850393"/>
      </g>
     </g>
    </g>
   </g>
  </g>
  <g partID="854511840">
   <g transform="translate(102.393,120.308)">
    <g transform="matrix(1, 0, 0, 1, 0.615231, 1.27105)">
     <g id="copper0">
      <g gorn="0.3.0.0.5">
       <path gorn="0.3.0.0.5.0" fill="black" id="path1831" stroke="none" d="m3.68929,-1.13043a2.83464,2.83465,0,0,0,-2.83447,2.83447,2.83464,2.83465,0,0,0,2.83447,2.83595l5.67039,0a2.83464,2.83465,0,0,0,2.83447,-2.83595,2.83464,2.83465,0,0,0,-2.83447,-2.83447zm2.85352,0.706054a2.12598,2.12598,0,0,1,2.12549,2.12549,2.12598,2.12598,0,0,1,-2.12549,2.12549,2.12598,2.12598,0,0,1,-2.12695,-2.12549,2.12598,2.12598,0,0,1,2.12695,-2.12549z" stroke-width="0"/>
       <path gorn="0.3.0.0.5.1" fill="black" id="connector2extra2" stroke="none" d="m3.68929,-1.13043a2.83464,2.83465,0,0,0,-2.83447,2.83447,2.83464,2.83465,0,0,0,2.83447,2.83595l5.67042,0a2.83464,2.83465,0,0,0,2.83447,-2.83595,2.83464,2.83465,0,0,0,-2.83447,-2.83447zm2.85352,0.706054a2.12598,2.12598,0,0,1,2.12549,2.12549,2.12598,2.12598,0,0,1,-2.12549,2.12549,2.12598,2.12598,0,0,1,-2.12695,-2.12549,2.12598,2.12598,0,0,1,2.12695,-2.12549z" stroke-width="0"/>
       <circle cx="6.52411" connectorname="PWR" gorn="0.3.0.0.5.2" cy="1.70533" fill="none" id="connector2pad2" stroke="black" r="2.55118" stroke-width="0.850393"/>
       <circle cx="6.52411" connectorname="GND@1" gorn="0.3.0.0.5.3" cy="15.8786" fill="none" id="connector0pad2" stroke="black" r="2.55118" stroke-width="0.850393"/>
       <g transform="matrix(0.264583, 0, 0, 0.264583, -0.5625, -1.12932)">
        <g>
         <g>
          <path gorn="0.3.0.0.5.4.0.0" fill="black" id="connector0extra2" stroke="none" d="m16.0722,53.5703a10.7136,10.7136,0,0,0,-10.713,10.713,10.7136,10.7136,0,0,0,10.713,10.713l21.4259,0a10.7136,10.7136,0,0,0,10.713,-10.713,10.7136,10.7136,0,0,0,-10.713,-10.713zm10.713,2.67409a8.03522,8.03523,0,0,1,8.03332,8.03889,8.03522,8.03523,0,0,1,-8.03332,8.03336,8.03522,8.03523,0,0,1,-8.03888,-8.03336,8.03522,8.03523,0,0,1,8.03888,-8.03889z" stroke-width="0"/>
         </g>
        </g>
       </g>
       <circle cx="14.0961" connectorname="GND@2" gorn="0.3.0.0.5.5" cy="8.79404" fill="none" id="connector1pad2" stroke="black" r="2.55118" stroke-width="0.850393"/>
      </g>
     </g>
    </g>
   </g>
  </g>
  <g partID="854511830">
   <g transform="translate(64.125,120.308)">
    <g transform="matrix(1, 0, 0, 1, 0.615231, 1.27105)">
     <g id="copper0">
      <g gorn="0.3.0.0.5">
       <path gorn="0.3.0.0.5.0" fill="black" id="path1831" stroke="none" d="m3.68929,-1.13043a2.83464,2.83465,0,0,0,-2.83447,2.83447,2.83464,2.83465,0,0,0,2.83447,2.83595l5.67039,0a2.83464,2.83465,0,0,0,2.83447,-2.83595,2.83464,2.83465,0,0,0,-2.83447,-2.83447zm2.85352,0.706054a2.12598,2.12598,0,0,1,2.12549,2.12549,2.12598,2.12598,0,0,1,-2.12549,2.12549,2.12598,2.12598,0,0,1,-2.12695,-2.12549,2.12598,2.12598,0,0,1,2.12695,-2.12549z" stroke-width="0"/>
       <path gorn="0.3.0.0.5.1" fill="black" id="connector2extra2" stroke="none" d="m3.68929,-1.13043a2.83464,2.83465,0,0,0,-2.83447,2.83447,2.83464,2.83465,0,0,0,2.83447,2.83595l5.67042,0a2.83464,2.83465,0,0,0,2.83447,-2.83595,2.83464,2.83465,0,0,0,-2.83447,-2.83447zm2.85352,0.706054a2.12598,2.12598,0,0,1,2.12549,2.12549,2.12598,2.12598,0,0,1,-2.12549,2.12549,2.12598,2.12598,0,0,1,-2.12695,-2.12549,2.12598,2.12598,0,0,1,2.12695,-2.12549z" stroke-width="0"/>
       <circle cx="6.52411" connectorname="PWR" gorn="0.3.0.0.5.2" cy="1.70533" fill="none" id="connector2pad2" stroke="black" r="2.55118" stroke-width="0.850393"/>
       <circle cx="6.52411" connectorname="GND@1" gorn="0.3.0.0.5.3" cy="15.8786" fill="none" id="connector0pad2" stroke="black" r="2.55118" stroke-width="0.850393"/>
       <g transform="matrix(0.264583, 0, 0, 0.264583, -0.5625, -1.12932)">
        <g>
         <g>
          <path gorn="0.3.0.0.5.4.0.0" fill="black" id="connector0extra2" stroke="none" d="m16.0722,53.5703a10.7136,10.7136,0,0,0,-10.713,10.713,10.7136,10.7136,0,0,0,10.713,10.713l21.4259,0a10.7136,10.7136,0,0,0,10.713,-10.713,10.7136,10.7136,0,0,0,-10.713,-10.713zm10.713,2.67409a8.03522,8.03523,0,0,1,8.03332,8.03889,8.03522,8.03523,0,0,1,-8.03332,8.03336,8.03522,8.03523,0,0,1,-8.03888,-8.03336,8.03522,8.03523,0,0,1,8.03888,-8.03889z" stroke-width="0"/>
         </g>
        </g>
       </g>
       <circle cx="14.0961" connectorname="GND@2" gorn="0.3.0.0.5.5" cy="8.79404" fill="none" id="connector1pad2" stroke="black" r="2.55118" stroke-width="0.850393"/>
      </g>
     </g>
    </g>
   </g>
  </g>
  <g partID="854511860">
   <g transform="translate(25.8575,120.308)">
    <g transform="matrix(1, 0, 0, 1, 0.615231, 1.27105)">
     <g id="copper0">
      <g gorn="0.3.0.0.5">
       <path gorn="0.3.0.0.5.0" fill="black" id="path1831" stroke="none" d="m3.68929,-1.13043a2.83464,2.83465,0,0,0,-2.83447,2.83447,2.83464,2.83465,0,0,0,2.83447,2.83595l5.67039,0a2.83464,2.83465,0,0,0,2.83447,-2.83595,2.83464,2.83465,0,0,0,-2.83447,-2.83447zm2.85352,0.706054a2.12598,2.12598,0,0,1,2.12549,2.12549,2.12598,2.12598,0,0,1,-2.12549,2.12549,2.12598,2.12598,0,0,1,-2.12695,-2.12549,2.12598,2.12598,0,0,1,2.12695,-2.12549z" stroke-width="0"/>
       <path gorn="0.3.0.0.5.1" fill="black" id="connector2extra2" stroke="none" d="m3.68929,-1.13043a2.83464,2.83465,0,0,0,-2.83447,2.83447,2.83464,2.83465,0,0,0,2.83447,2.83595l5.67042,0a2.83464,2.83465,0,0,0,2.83447,-2.83595,2.83464,2.83465,0,0,0,-2.83447,-2.83447zm2.85352,0.706054a2.12598,2.12598,0,0,1,2.12549,2.12549,2.12598,2.12598,0,0,1,-2.12549,2.12549,2.12598,2.12598,0,0,1,-2.12695,-2.12549,2.12598,2.12598,0,0,1,2.12695,-2.12549z" stroke-width="0"/>
       <circle cx="6.52411" connectorname="PWR" gorn="0.3.0.0.5.2" cy="1.70533" fill="none" id="connector2pad2" stroke="black" r="2.55118" stroke-width="0.850393"/>
       <circle cx="6.52411" connectorname="GND@1" gorn="0.3.0.0.5.3" cy="15.8786" fill="none" id="connector0pad2" stroke="black" r="2.55118" stroke-width="0.850393"/>
       <g transform="matrix(0.264583, 0, 0, 0.264583, -0.5625, -1.12932)">
        <g>
         <g>
          <path gorn="0.3.0.0.5.4.0.0" fill="black" id="connector0extra2" stroke="none" d="m16.0722,53.5703a10.7136,10.7136,0,0,0,-10.713,10.713,10.7136,10.7136,0,0,0,10.713,10.713l21.4259,0a10.7136,10.7136,0,0,0,10.713,-10.713,10.7136,10.7136,0,0,0,-10.713,-10.713zm10.713,2.67409a8.03522,8.03523,0,0,1,8.03332,8.03889,8.03522,8.03523,0,0,1,-8.03332,8.03336,8.03522,8.03523,0,0,1,-8.03888,-8.03336,8.03522,8.03523,0,0,1,8.03888,-8.03889z" stroke-width="0"/>
         </g>
        </g>
       </g>
       <circle cx="14.0961" connectorname="GND@2" gorn="0.3.0.0.5.5" cy="8.79404" fill="none" id="connector1pad2" stroke="black" r="2.55118" stroke-width="0.850393"/>
      </g>
     </g>
    </g>
   </g>
  </g>
  <g partID="854422620">
   <g transform="translate(1.37504,1.7808)">
    <g  id="copper0">
     <circle  cx="7.97796" fill="none" cy="7.97796" id="nonconn0" stroke="black" r="4.96063" stroke-width="2.83465"/>
    </g>
   </g>
  </g>
  <g partID="854422600">
   <g transform="translate(1.37504,139.261)">
    <g  id="copper0">
     <circle  cx="7.97796" fill="none" cy="7.97796" id="nonconn0" stroke="black" r="4.96063" stroke-width="2.83465"/>
    </g>
   </g>
  </g>
  <g partID="854422360">
   <g transform="translate(209.722,139.261)">
    <g  id="copper0">
     <circle  cx="7.97796" fill="none" cy="7.97796" id="nonconn0" stroke="black" r="4.96063" stroke-width="2.83465"/>
    </g>
   </g>
  </g>
  <g partID="854422070">
   <g transform="translate(209.722,1.7808)">
    <g  id="copper0">
     <circle  cx="7.97796" fill="none" cy="7.97796" id="nonconn0" stroke="black" r="4.96063" stroke-width="2.83465"/>
    </g>
   </g>
  </g>
  <g partID="854384890">
   <g transform="translate(154.975,26.5398)">
    <g  id="copper0">
     <rect height="4.464"  y="12.168" fill="none" width="4.464" x="6.408" stroke="black" stroke-width="1.44"/>
     <circle  cx="8.64" cy="14.4" fill="none" id="connector0pad" stroke="black" r="2.232" stroke-width="1.44"/>
     <circle  cx="15.84" cy="14.4" fill="none" id="connector1pad" stroke="black" r="2.232" stroke-width="1.44"/>
     <circle  cx="23.04" cy="14.4" fill="none" id="connector2pad" stroke="black" r="2.232" stroke-width="1.44"/>
    </g>
   </g>
  </g>
  <g partID="854133740">
   <g transform="translate(105.866,36.4265)">
    <g  id="copper0">
     <g  id="copper1">
      <!-- <rect width="55" x="10" y="15.5" fill="none" height="55" stroke="rgb(255, 191, 0)" stroke-width="20" />  -->
      <circle  cx="2.7" fill="none" cy="3.096" id="connector0pin" stroke="black" r="1.98" stroke-width="1.44"/>
      <circle  cx="31.5" fill="none" cy="3.096" id="connector1pin" stroke="black" r="1.98" stroke-width="1.44"/>
     </g>
    </g>
   </g>
  </g>
  <g partID="198050">
   <g transform="translate(195.297,19.5583)">
    <g transform="matrix(-1,0,0,-1,0,0)">
     <g transform="matrix(1, 0, 0, 1, -21.472, -3.00704)">
      <g id="copper0">
       <g gorn="0.3.0">
        <g gorn="0.3.0.0" id="copper1">
         <circle cx="24.185" gorn="0.3.0.0.0" cy="12.919" fill="none" id="connector0pin" stroke="black" r="2.088" stroke-width="1.25"/>
         <circle cx="31.384" gorn="0.3.0.0.1" cy="12.919" fill="none" id="connector1pin" stroke="black" r="2.088" stroke-width="1.25"/>
         <circle cx="38.585" gorn="0.3.0.0.2" cy="12.919" fill="none" id="connector2pin" stroke="black" r="2.088" stroke-width="1.25"/>
         <circle cx="45.784" gorn="0.3.0.0.3" cy="12.919" fill="none" id="connector3pin" stroke="black" r="2.088" stroke-width="1.25"/>
         <circle cx="52.9849" gorn="0.3.0.0.4" cy="12.919" fill="none" id="connector4pin" stroke="black" r="2.088" stroke-width="1.25"/>
         <circle cx="60.1849" gorn="0.3.0.0.5" cy="12.919" fill="none" id="connector5pin" stroke="black" r="2.088" stroke-width="1.25"/>
         <circle cx="67.3839" gorn="0.3.0.0.6" cy="12.919" fill="none" id="connector6pin" stroke="black" r="2.088" stroke-width="1.25"/>
         <circle cx="74.5849" gorn="0.3.0.0.7" cy="12.919" fill="none" id="connector7pin" stroke="black" r="2.088" stroke-width="1.25"/>
         <circle cx="81.7839" gorn="0.3.0.0.8" cy="12.919" fill="none" id="connector8pin" stroke="black" r="2.088" stroke-width="1.25"/>
         <circle cx="88.9849" gorn="0.3.0.0.9" cy="12.919" fill="none" id="connector9pin" stroke="black" r="2.088" stroke-width="1.25"/>
         <circle cx="96.1849" gorn="0.3.0.0.10" cy="12.919" fill="none" id="connector10pin" stroke="black" r="2.088" stroke-width="1.25"/>
         <circle cx="103.385" gorn="0.3.0.0.11" cy="12.919" fill="none" id="connector11pin" stroke="black" r="2.088" stroke-width="1.25"/>
         <circle cx="110.585" gorn="0.3.0.0.12" cy="12.919" fill="none" id="connector12pin" stroke="black" r="2.088" stroke-width="1.25"/>
         <circle cx="117.784" gorn="0.3.0.0.13" cy="12.919" fill="none" id="connector13pin" stroke="black" r="2.088" stroke-width="1.25"/>
         <circle cx="124.986" gorn="0.3.0.0.14" cy="12.919" fill="none" id="connector14pin" stroke="black" r="2.088" stroke-width="1.25"/>
         <circle cx="132.185" gorn="0.3.0.0.15" cy="12.919" fill="none" id="connector15pin" stroke="black" r="2.088" stroke-width="1.25"/>
         <circle cx="139.385" gorn="0.3.0.0.16" cy="12.919" fill="none" id="connector16pin" stroke="black" r="2.088" stroke-width="1.25"/>
         <circle cx="146.585" gorn="0.3.0.0.17" cy="12.919" fill="none" id="connector17pin" stroke="black" r="2.088" stroke-width="1.25"/>
         <circle cx="153.784" gorn="0.3.0.0.18" cy="12.919" fill="none" id="connector18pin" stroke="black" r="2.088" stroke-width="1.25"/>
         <circle cx="160.986" gorn="0.3.0.0.19" cy="12.919" fill="none" id="connector19pin" stroke="black" r="2.088" stroke-width="1.25"/>
         <circle cx="160.986" gorn="0.3.0.0.20" cy="5.72001" fill="none" id="connector20pin" stroke="black" r="2.088" stroke-width="1.25"/>
         <circle cx="153.784" gorn="0.3.0.0.21" cy="5.72001" fill="none" id="connector21pin" stroke="black" r="2.088" stroke-width="1.25"/>
         <circle cx="146.585" gorn="0.3.0.0.22" cy="5.72001" fill="none" id="connector22pin" stroke="black" r="2.088" stroke-width="1.25"/>
         <circle cx="139.385" gorn="0.3.0.0.23" cy="5.72001" fill="none" id="connector23pin" stroke="black" r="2.088" stroke-width="1.25"/>
         <circle cx="132.185" gorn="0.3.0.0.24" cy="5.72001" fill="none" id="connector24pin" stroke="black" r="2.088" stroke-width="1.25"/>
         <circle cx="124.986" gorn="0.3.0.0.25" cy="5.72001" fill="none" id="connector25pin" stroke="black" r="2.088" stroke-width="1.25"/>
         <circle cx="117.784" gorn="0.3.0.0.26" cy="5.72001" fill="none" id="connector26pin" stroke="black" r="2.088" stroke-width="1.25"/>
         <circle cx="110.585" gorn="0.3.0.0.27" cy="5.72001" fill="none" id="connector27pin" stroke="black" r="2.088" stroke-width="1.25"/>
         <circle cx="103.385" gorn="0.3.0.0.28" cy="5.72001" fill="none" id="connector28pin" stroke="black" r="2.088" stroke-width="1.25"/>
         <circle cx="96.1849" gorn="0.3.0.0.29" cy="5.72001" fill="none" id="connector29pin" stroke="black" r="2.088" stroke-width="1.25"/>
         <circle cx="88.9849" gorn="0.3.0.0.30" cy="5.72001" fill="none" id="connector30pin" stroke="black" r="2.088" stroke-width="1.25"/>
         <circle cx="81.7839" gorn="0.3.0.0.31" cy="5.72001" fill="none" id="connector31pin" stroke="black" r="2.088" stroke-width="1.25"/>
         <circle cx="74.5849" gorn="0.3.0.0.32" cy="5.72001" fill="none" id="connector32pin" stroke="black" r="2.088" stroke-width="1.25"/>
         <circle cx="67.3839" gorn="0.3.0.0.33" cy="5.72001" fill="none" id="connector33pin" stroke="black" r="2.088" stroke-width="1.25"/>
         <circle cx="60.1849" gorn="0.3.0.0.34" cy="5.72001" fill="none" id="connector34pin" stroke="black" r="2.088" stroke-width="1.25"/>
         <circle cx="52.9849" gorn="0.3.0.0.35" cy="5.72001" fill="none" id="connector35pin" stroke="black" r="2.088" stroke-width="1.25"/>
         <circle cx="45.784" gorn="0.3.0.0.36" cy="5.72001" fill="none" id="connector36pin" stroke="black" r="2.088" stroke-width="1.25"/>
         <circle cx="38.585" gorn="0.3.0.0.37" cy="5.72001" fill="none" id="connector37pin" stroke="black" r="2.088" stroke-width="1.25"/>
         <circle cx="31.384" gorn="0.3.0.0.38" cy="5.72001" fill="none" id="connector38pin" stroke="black" r="2.088" stroke-width="1.25"/>
         <circle cx="24.185" gorn="0.3.0.0.39" cy="5.72001" fill="none" id="connector39pin" stroke="black" r="2.088" stroke-width="1.25"/>
        </g>
       </g>
      </g>
     </g>
    </g>
   </g>
  </g>
  <g partID="337480">
   <g transform="translate(208.407,21.4998)">
    <g  id="copper0">
     <circle  cx="5.04" cy="5.04" fill="none" id="connector0pin" stroke="black" r="2.088" stroke-width="1.44"/>
     <circle  cx="5.04" cy="12.24" fill="none" id="connector1pin" stroke="black" r="2.088" stroke-width="1.44"/>
     <circle  cx="5.04" cy="19.44" fill="none" id="connector2pin" stroke="black" r="2.088" stroke-width="1.44"/>
     <circle  cx="5.04" cy="26.64" fill="none" id="connector3pin" stroke="black" r="2.088" stroke-width="1.44"/>
     <circle  cx="5.04" cy="33.84" fill="none" id="connector4pin" stroke="black" r="2.088" stroke-width="1.44"/>
    </g>
   </g>
  </g>
  <g partID="854679210">
   <line stroke-linecap="round" y1="89.1469" stroke="black" x1="192.196" x2="149.626" y2="89.2475" stroke-width="1.728"/>
  </g>
  <g partID="854674770">
   <line stroke-linecap="round" y1="89.2477" stroke="black" x1="149.626" x2="9.44344" y2="89.2477" stroke-width="1.728"/>
  </g>
  <g partID="854674500">
   <line stroke-linecap="round" y1="89.2477" stroke="black" x1="9.44376" x2="9.95261" y2="65.2177" stroke-width="1.728"/>
  </g>
  <g partID="854650610">
   <line stroke-linecap="round" y1="113.798" stroke="black" x1="190.111" x2="192.196" y2="89.1472" stroke-width="1.728"/>
  </g>
  <g partID="854678960">
   <line stroke-linecap="round" y1="89.1469" stroke="black" x1="192.196" x2="149.626" y2="89.2475" stroke-width="1.728"/>
  </g>
  <g partID="854675580">
   <line stroke-linecap="round" y1="89.2477" stroke="black" x1="78.693" x2="79.3932" y2="62.3828" stroke-width="1.728"/>
  </g>
  <g partID="854675040">
   <line stroke-linecap="round" y1="89.2477" stroke="black" x1="149.626" x2="78.693" y2="89.2477" stroke-width="1.728"/>
  </g>
  <g partID="854651060">
   <line stroke-linecap="round" y1="113.798" stroke="black" x1="190.111" x2="192.196" y2="89.1472" stroke-width="1.728"/>
  </g>
  <g partID="854678710">
   <line stroke-linecap="round" y1="89.1469" stroke="black" x1="192.196" x2="149.626" y2="89.2475" stroke-width="1.728"/>
  </g>
  <g partID="854675310">
   <line stroke-linecap="round" y1="89.2477" stroke="black" x1="149.626" x2="148.926" y2="62.3828" stroke-width="1.728"/>
  </g>
  <g partID="854651490">
   <line stroke-linecap="round" y1="113.798" stroke="black" x1="190.111" x2="192.196" y2="89.1472" stroke-width="1.728"/>
  </g>
  <g partID="854661920">
   <line stroke-linecap="round" y1="9.82244" stroke="black" x1="23.6001" x2="24.3252" y2="61.9855" stroke-width="1.728"/>
  </g>
  <g partID="854651900">
   <line stroke-linecap="round" y1="9.65433" stroke="black" x1="54.3205" x2="23.6001" y2="9.82244" stroke-width="1.728"/>
  </g>
  <g partID="854663410">
   <line stroke-linecap="round" y1="45.1287" stroke="black" x1="92.989" x2="93.7132" y2="59.1529" stroke-width="1.728"/>
  </g>
  <g partID="854663000">
   <line stroke-linecap="round" y1="42.3322" stroke="black" x1="23.5998" x2="92.989" y2="45.1287" stroke-width="1.728"/>
  </g>
  <g partID="854662190">
   <line stroke-linecap="round" y1="9.82244" stroke="black" x1="23.6001" x2="23.5998" y2="42.3322" stroke-width="1.728"/>
  </g>
  <g partID="854652290">
   <line stroke-linecap="round" y1="9.65433" stroke="black" x1="54.3205" x2="23.6001" y2="9.82244" stroke-width="1.728"/>
  </g>
  <g partID="854665900">
   <line stroke-linecap="round" y1="51.4627" stroke="black" x1="163.746" x2="163.332" y2="59.153" stroke-width="1.728"/>
  </g>
  <g partID="854662730">
   <line stroke-linecap="round" y1="42.3322" stroke="black" x1="23.5998" x2="109.498" y2="46.4644" stroke-width="1.728"/>
  </g>
  <g partID="854662460">
   <line stroke-linecap="round" y1="9.82244" stroke="black" x1="23.6001" x2="23.5998" y2="42.3322" stroke-width="1.728"/>
  </g>
  <g partID="854652660">
   <line stroke-linecap="round" y1="9.65433" stroke="black" x1="54.3205" x2="23.6001" y2="9.82244" stroke-width="1.728"/>
  </g>
  <g partID="854667340">
   <line stroke-linecap="round" y1="101.923" stroke="black" x1="33.4032" x2="33.6847" y2="116.073" stroke-width="1.728"/>
  </g>
  <g partID="854654800">
   <line stroke-linecap="round" y1="101.846" stroke="black" x1="44.4246" x2="33.403" y2="101.923" stroke-width="1.728"/>
  </g>
  <g partID="854667390">
   <line stroke-linecap="round" y1="101.923" stroke="black" x1="53.3586" x2="53.2781" y2="144.408" stroke-width="1.728"/>
  </g>
  <g partID="854654980">
   <line stroke-linecap="round" y1="101.855" stroke="black" x1="58.7663" x2="53.3589" y2="101.923" stroke-width="1.728"/>
  </g>
  <g partID="854655220">
   <line stroke-linecap="round" y1="144.408" stroke="black" x1="53.2786" x2="25.0099" y2="144.354" stroke-width="1.728"/>
  </g>
  <g partID="854655240">
   <line stroke-linecap="round" y1="144.354" stroke="black" x1="25.0096" x2="25.056" y2="132.192" stroke-width="1.728"/>
  </g>
  <g partID="854655320">
   <line stroke-linecap="round" y1="132.192" stroke="black" x1="25.056" x2="28.0049" y2="130.717" stroke-width="1.728"/>
  </g>
  <g partID="854655480">
   <line stroke-linecap="round" y1="40.8583" stroke="black" x1="162.105" x2="138.624" y2="39.5905" stroke-width="1.728"/>
  </g>
  <g partID="854655860">
   <line stroke-linecap="round" y1="99.0002" stroke="black" x1="113.873" x2="69.4135" y2="99.0356" stroke-width="1.728"/>
  </g>
  <g partID="854656100">
   <line stroke-linecap="round" y1="100.618" stroke="black" x1="129.829" x2="129.792" y2="114.654" stroke-width="1.728"/>
  </g>
  <g partID="854656960">
   <line stroke-linecap="round" y1="62.0817" stroke="black" x1="59.8625" x2="59.7955" y2="61.8816" stroke-width="1.728"/>
  </g>
  <g partID="854680810">
   <line stroke-linecap="round" y1="99.0613" stroke="black" x1="182.306" x2="182.225" y2="135.888" stroke-width="1.728"/>
  </g>
  <g partID="854657740">
   <line stroke-linecap="round" y1="99.0368" stroke="black" x1="183.323" x2="182.306" y2="99.0607" stroke-width="1.728"/>
  </g>
  <g partID="854658520">
   <line stroke-linecap="round" y1="99.0117" stroke="black" x1="200.901" x2="210.062" y2="99.0843" stroke-width="1.728"/>
  </g>
  <g partID="854677850">
   <line stroke-linecap="round" y1="136.225" stroke="black" x1="210.175" x2="204.905" y2="140.177" stroke-width="1.728"/>
  </g>
  <g partID="854677440">
   <line stroke-linecap="round" y1="140.177" stroke="black" x1="204.906" x2="168.111" y2="140.177" stroke-width="1.728"/>
  </g>
  <g partID="854658780">
   <line stroke-linecap="round" y1="140.177" stroke="black" x1="168.11" x2="168.11" y2="151.522" stroke-width="1.728"/>
  </g>
  <g partID="854658800">
   <line stroke-linecap="round" y1="151.522" stroke="black" x1="168.11" x2="98.5979" y2="151.465" stroke-width="1.728"/>
  </g>
  <g partID="854658920">
   <line stroke-linecap="round" y1="151.465" stroke="black" x1="98.5986" x2="98.5986" y2="130.143" stroke-width="1.728"/>
  </g>
  <g partID="854658940">
   <line stroke-linecap="round" y1="130.143" stroke="black" x1="98.5986" x2="103.978" y2="130.434" stroke-width="1.728"/>
  </g>
  <g partID="854680200">
   <line stroke-linecap="round" y1="40.9723" stroke="black" x1="199.323" x2="204.202" y2="40.6459" stroke-width="1.728"/>
  </g>
  <g partID="854659160">
   <line stroke-linecap="round" y1="59.1634" stroke="black" x1="199.278" x2="199.323" y2="40.9722" stroke-width="1.728"/>
  </g>
  <g partID="854667070">
   <line stroke-linecap="round" y1="29.573" stroke="black" x1="205.025" x2="177.934" y2="29.573" stroke-width="1.728"/>
  </g>
  <g partID="854666800">
   <line stroke-linecap="round" y1="29.573" stroke="black" x1="177.934" x2="178.004" y2="39.4278" stroke-width="1.728"/>
  </g>
  <g partID="854659920">
   <line stroke-linecap="round" y1="27.0034" stroke="black" x1="212.16" x2="205.025" y2="29.573" stroke-width="1.728"/>
  </g>
  <g partID="854663320">
   <line stroke-linecap="round" y1="29.573" stroke="black" x1="59.7373" x2="47.545" y2="29.573" stroke-width="1.728"/>
  </g>
  <g partID="854663270">
   <line stroke-linecap="round" y1="29.573" stroke="black" x1="47.545" x2="47.545" y2="13.1859" stroke-width="1.728"/>
  </g>
  <g partID="854665850">
   <line stroke-linecap="round" y1="23.9799" stroke="black" x1="205.025" x2="129.868" y2="25.3782" stroke-width="1.728"/>
  </g>
  <g partID="854665800">
   <line stroke-linecap="round" y1="2.65632" stroke="black" x1="205.025" x2="205.025" y2="23.9799" stroke-width="1.728"/>
  </g>
  <g partID="854665750">
   <line stroke-linecap="round" y1="2.65632" stroke="black" x1="149.619" x2="205.025" y2="2.65632" stroke-width="1.728"/>
  </g>
  <g partID="854665700">
   <line stroke-linecap="round" y1="25.3782" stroke="black" x1="129.868" x2="129.827" y2="59.1634" stroke-width="1.728"/>
  </g>
  <g partID="854665650">
   <line stroke-linecap="round" y1="8.18414" stroke="black" x1="149.434" x2="149.619" y2="2.65632" stroke-width="1.728"/>
  </g>
  <g partID="854668170">
   <line stroke-linecap="round" y1="114.654" stroke="black" x1="88.7458" x2="88.7891" y2="119.752" stroke-width="1.728"/>
  </g>
  <g partID="854667830">
   <line stroke-linecap="round" y1="114.654" stroke="black" x1="129.791" x2="88.7457" y2="114.654" stroke-width="1.728"/>
  </g>
  <g partID="854678460">
   <line stroke-linecap="round" y1="89.1469" stroke="black" x1="192.196" x2="149.613" y2="89.1794" stroke-width="1.728"/>
  </g>
  <g partID="854675850">
   <line stroke-linecap="round" y1="89.1797" stroke="black" x1="149.613" x2="148.294" y2="111.224" stroke-width="1.728"/>
  </g>
  <g partID="854672680">
   <line stroke-linecap="round" y1="113.798" stroke="black" x1="190.111" x2="192.196" y2="89.1472" stroke-width="1.728"/>
  </g>
  <g partID="854676870">
   <line stroke-linecap="round" y1="81.9765" stroke="black" x1="217.21" x2="189.41" y2="81.9765" stroke-width="1.728"/>
  </g>
  <g partID="854676620">
   <line stroke-linecap="round" y1="81.9765" stroke="black" x1="189.41" x2="189.41" y2="60.8442" stroke-width="1.728"/>
  </g>
  <g partID="854676370">
   <line stroke-linecap="round" y1="60.8438" stroke="black" x1="189.41" x2="164.864" y2="60.7742" stroke-width="1.728"/>
  </g>
  <g partID="854676120">
   <line stroke-linecap="round" y1="132.54" stroke="black" x1="192.187" x2="217.21" y2="132.988" stroke-width="1.728"/>
  </g>
  <g partID="854658240">
   <line stroke-linecap="round" y1="145.859" stroke="black" x1="163.84" x2="128.988" y2="145.859" stroke-width="1.728"/>
  </g>
  <g partID="854658160">
   <line stroke-linecap="round" y1="135.888" stroke="black" x1="163.84" x2="163.84" y2="145.859" stroke-width="1.728"/>
  </g>
  <g partID="854679500">
   <line stroke-linecap="round" y1="135.888" stroke="black" x1="182.225" x2="163.84" y2="135.888" stroke-width="1.728"/>
  </g>
  <g partID="854679640">
   <line stroke-linecap="round" y1="47.128" stroke="black" x1="139.743" x2="139.743" y2="54.5113" stroke-width="1.728"/>
  </g>
 </g>
</svg>
