<?xml version='1.0' encoding='UTF-8' standalone='no'?>
<!-- Created with Fritzing (https://fritzing.org/) -->
<svg xmlns="http://www.w3.org/2000/svg" height="2.16535in" xmlns:svg="http://www.w3.org/2000/svg"  y="0in" version="1.2" width="3.14961in" viewBox="0 0 226.772 155.906" x="0in" baseProfile="tiny">
 <g partID="196230">
  <g  id="board">
   <rect height="155.33"  y="0.288" fill="none" width="226.196" id="boardoutline" fill-opacity="0.5" x="0.288" stroke="black" stroke-width="0.5"/>
  </g>
 </g>
 <g partID="854654921">
  <g transform="translate(30.6786,113.623)">
   <g  id="copper1">
    <circle  cx="3.01732" fill="none" cy="3.01732" id="connector0pin" stroke="black" r="0.992124" stroke-width="0.850392"/>
   </g>
  </g>
 </g>
 <g partID="854655361">
  <g transform="translate(25.4946,127.447)">
   <g  id="copper1">
    <circle  cx="3.01732" fill="none" cy="3.01732" id="connector0pin" stroke="black" r="0.992124" stroke-width="0.850392"/>
   </g>
  </g>
 </g>
 <g partID="854657001">
  <g transform="translate(56.5986,58.3266)">
   <g  id="copper1">
    <circle  cx="3.01732" fill="none" cy="3.01732" id="connector0pin" stroke="black" r="0.992124" stroke-width="0.850392"/>
   </g>
  </g>
 </g>
 <g partID="854659041">
  <g transform="translate(101.527,127.447)">
   <g  id="copper1">
    <circle  cx="3.01732" fill="none" cy="3.01732" id="connector0pin" stroke="black" r="0.992124" stroke-width="0.850392"/>
   </g>
  </g>
 </g>
 <g partID="854659281">
  <g transform="translate(201.751,37.5906)">
   <g  id="copper1">
    <circle  cx="3.01732" fill="none" cy="3.01732" id="connector0pin" stroke="black" r="0.992124" stroke-width="0.850392"/>
   </g>
  </g>
 </g>
 <g partID="854661881">
  <g transform="translate(44.5274,9.60168)">
   <g  id="copper1">
    <circle  cx="3.01733" fill="none" cy="3.01733" id="connector0pin" stroke="black" r="0.992124" stroke-width="0.850392"/>
   </g>
  </g>
 </g>
 <g partID="854663371">
  <g transform="translate(57.2866,26.5557)">
   <g  id="copper1">
    <circle  cx="3.01733" fill="none" cy="3.01733" id="connector0pin" stroke="black" r="0.992124" stroke-width="0.850392"/>
   </g>
  </g>
 </g>
 <g partID="854666171">
  <g transform="translate(160.759,47.8793)">
   <g  id="copper1">
    <circle  cx="3.01733" fill="none" cy="3.01733" id="connector0pin" stroke="black" r="0.992124" stroke-width="0.850392"/>
   </g>
  </g>
 </g>
 <g partID="854666431">
  <g transform="translate(107.047,43.4743)">
   <g  id="copper1">
    <circle  cx="3.01733" fill="none" cy="3.01733" id="connector0pin" stroke="black" r="0.992124" stroke-width="0.850392"/>
   </g>
  </g>
 </g>
 <g partID="854667791">
  <g transform="translate(85.7762,117.302)">
   <g  id="copper1">
    <circle  cx="3.01733" fill="none" cy="3.01733" id="connector0pin" stroke="black" r="0.992124" stroke-width="0.850392"/>
   </g>
  </g>
 </g>
 <g partID="854673341">
  <g transform="translate(145.243,108.772)">
   <g  id="copper1">
    <circle  cx="3.01733" fill="none" cy="3.01733" id="connector0pin" stroke="black" r="0.992124" stroke-width="0.850392"/>
   </g>
  </g>
 </g>
 <g partID="854677901">
  <g transform="translate(214.759,78.9589)">
   <g  id="copper1">
    <circle  cx="3.01733" fill="none" cy="3.01733" id="connector0pin" stroke="black" r="0.992124" stroke-width="0.850392"/>
   </g>
  </g>
 </g>
 <g partID="854678141">
  <g transform="translate(214.759,129.981)">
   <g  id="copper1">
    <circle  cx="3.01733" fill="none" cy="3.01733" id="connector0pin" stroke="black" r="0.992124" stroke-width="0.850392"/>
   </g>
  </g>
 </g>
 <g partID="854678381">
  <g transform="translate(207.612,132.867)">
   <g  id="copper1">
    <circle  cx="3.01733" fill="none" cy="3.01733" id="connector0pin" stroke="black" r="0.992124" stroke-width="0.850392"/>
   </g>
  </g>
 </g>
 <g partID="854678421">
  <g transform="translate(207.612,96.0717)">
   <g  id="copper1">
    <circle  cx="3.01733" fill="none" cy="3.01733" id="connector0pin" stroke="black" r="0.992124" stroke-width="0.850392"/>
   </g>
  </g>
 </g>
 <g partID="854679461">
  <g transform="translate(125.404,142.841)">
   <g  id="copper1">
    <circle  cx="3.01733" fill="none" cy="3.01733" id="connector0pin" stroke="black" r="0.992124" stroke-width="0.850392"/>
   </g>
  </g>
 </g>
 <g partID="854679741">
  <g transform="translate(136.726,43.5437)">
   <g  id="copper1">
    <circle  cx="3.01733" fill="none" cy="3.01733" id="connector0pin" stroke="black" r="0.992124" stroke-width="0.850392"/>
   </g>
  </g>
 </g>
 <g partID="854679891">
  <g transform="translate(136.726,52.0609)">
   <g  id="copper1">
    <circle  cx="3.01733" fill="none" cy="3.01733" id="connector0pin" stroke="black" r="0.992124" stroke-width="0.850392"/>
   </g>
  </g>
 </g>
 <g partID="854680701">
  <g transform="translate(65.829,96.0189)">
   <g  id="copper1">
    <circle  cx="3.01733" fill="none" cy="3.01733" id="connector0pin" stroke="black" r="0.992124" stroke-width="0.850392"/>
   </g>
  </g>
 </g>
 <g partID="854515662">
  <g transform="translate(176.787,112.833)">
   <g transform="matrix(1, 0, 0, 1, 0.377238, -800.114)">
    <g id="copper1">
     <g transform="matrix(1, 0, 0, 1, -0.288, 797.219)">
      <g>
       <g gorn="0.3.0.0.0.0.0.0.0.0.3">
        <circle cx="13.0439" gorn="0.3.0.0.0.0.0.0.0.0.3.0" connectorname="PWR" fill="none" cy="6.12" id="connector2pad2" stroke="black" stroke-width="0.850394" r="2.69291"/>
        <circle cx="13.0439" gorn="0.3.0.0.0.0.0.0.0.0.3.1" connectorname="GND" fill="none" cy="22.5609" id="connector0pad2" stroke="black" stroke-width="0.850394" r="2.69291"/>
        <circle cx="26.6502" gorn="0.3.0.0.0.0.0.0.0.0.3.2" connectorname="GNDBREAK" fill="none" cy="14.6239" id="connector1pad2" stroke="black" stroke-width="0.850394" r="2.69291"/>
       </g>
      </g>
     </g>
    </g>
   </g>
  </g>
 </g>
 <g partID="854511852">
  <g transform="translate(140.66,120.308)">
   <g transform="matrix(1, 0, 0, 1, 0.615231, 1.27105)">
    <g id="copper1">
     <g gorn="0.3.0.0">
      <circle cx="6.52411" connectorname="PWR" gorn="0.3.0.0.0" cy="1.70533" fill="none" id="connector2pad" stroke="black" r="2.55118" stroke-width="0.850393"/>
      <path gorn="0.3.0.0.1" fill="black" id="connector2extra" stroke="none" d="M3.68929,-1.13043A2.83464,2.83465,0,0,0,0.854824,1.70404,2.83464,2.83465,0,0,0,3.68929,4.53997L9.35971,4.53997A2.83464,2.83465,0,0,0,12.1942,1.70404,2.83464,2.83465,0,0,0,9.35971,-1.13043Zm2.85352,0.706054A2.12598,2.12598,0,0,1,8.66828,1.70111,2.12598,2.12598,0,0,1,6.54281,3.8266,2.12598,2.12598,0,0,1,4.41587,1.70111,2.12598,2.12598,0,0,1,6.54281,-0.424381Z" stroke-width="0"/>
      <circle cx="6.58983" connectorname="GND@1" gorn="0.3.0.0.2" cy="15.8982" fill="none" id="connector0pad" stroke="black" r="2.55118" stroke-width="0.850393"/>
      <g transform="matrix(0.264583, 0, 0, 0.264583, -0.5625, -1.12932)">
       <g>
        <g>
         <path gorn="0.3.0.0.3.0.0" fill="black" id="connector0extra" stroke="none" d="m16.0722,53.5703a10.7136,10.7136,0,0,0,-10.713,10.713,10.7136,10.7136,0,0,0,10.713,10.713l21.4259,0a10.7136,10.7136,0,0,0,10.713,-10.713,10.7136,10.7136,0,0,0,-10.713,-10.713zm10.713,2.70731A8.03522,8.03523,0,0,1,34.8185,64.311,8.03522,8.03523,0,0,1,26.7852,72.3498,8.03522,8.03523,0,0,1,18.7463,64.311,8.03522,8.03523,0,0,1,26.7852,56.2776Z" stroke-width="0"/>
        </g>
       </g>
      </g>
      <circle cx="14.0961" connectorname="GND@2" gorn="0.3.0.0.4" cy="8.79404" fill="none" id="connector1pad" stroke="black" r="2.55118" stroke-width="0.850393"/>
      <g gorn="0.3.0.0.5" id="copper0">
       <path gorn="0.3.0.0.5.0" fill="black" id="path1831" stroke="none" d="m3.68929,-1.13043a2.83464,2.83465,0,0,0,-2.83447,2.83447,2.83464,2.83465,0,0,0,2.83447,2.83595l5.67039,0a2.83464,2.83465,0,0,0,2.83447,-2.83595,2.83464,2.83465,0,0,0,-2.83447,-2.83447zm2.85352,0.706054a2.12598,2.12598,0,0,1,2.12549,2.12549,2.12598,2.12598,0,0,1,-2.12549,2.12549,2.12598,2.12598,0,0,1,-2.12695,-2.12549,2.12598,2.12598,0,0,1,2.12695,-2.12549z" stroke-width="0"/>
       <path gorn="0.3.0.0.5.1" fill="black" id="connector2extra2" stroke="none" d="m3.68929,-1.13043a2.83464,2.83465,0,0,0,-2.83447,2.83447,2.83464,2.83465,0,0,0,2.83447,2.83595l5.67042,0a2.83464,2.83465,0,0,0,2.83447,-2.83595,2.83464,2.83465,0,0,0,-2.83447,-2.83447zm2.85352,0.706054a2.12598,2.12598,0,0,1,2.12549,2.12549,2.12598,2.12598,0,0,1,-2.12549,2.12549,2.12598,2.12598,0,0,1,-2.12695,-2.12549,2.12598,2.12598,0,0,1,2.12695,-2.12549z" stroke-width="0"/>
       <circle cx="6.52411" connectorname="PWR" gorn="0.3.0.0.5.2" cy="1.70533" fill="none" id="connector2pad2" stroke="black" r="2.55118" stroke-width="0.850393"/>
       <circle cx="6.52411" connectorname="GND@1" gorn="0.3.0.0.5.3" cy="15.8786" fill="none" id="connector0pad2" stroke="black" r="2.55118" stroke-width="0.850393"/>
       <g transform="matrix(0.264583, 0, 0, 0.264583, -0.5625, -1.12932)">
        <g>
         <g>
          <path gorn="0.3.0.0.5.4.0.0" fill="black" id="connector0extra2" stroke="none" d="m16.0722,53.5703a10.7136,10.7136,0,0,0,-10.713,10.713,10.7136,10.7136,0,0,0,10.713,10.713l21.4259,0a10.7136,10.7136,0,0,0,10.713,-10.713,10.7136,10.7136,0,0,0,-10.713,-10.713zm10.713,2.67409a8.03522,8.03523,0,0,1,8.03332,8.03889,8.03522,8.03523,0,0,1,-8.03332,8.03336,8.03522,8.03523,0,0,1,-8.03888,-8.03336,8.03522,8.03523,0,0,1,8.03888,-8.03889z" stroke-width="0"/>
         </g>
        </g>
       </g>
       <circle cx="14.0961" connectorname="GND@2" gorn="0.3.0.0.5.5" cy="8.79404" fill="none" id="connector1pad2" stroke="black" r="2.55118" stroke-width="0.850393"/>
      </g>
     </g>
    </g>
   </g>
  </g>
 </g>
 <g partID="854511842">
  <g transform="translate(102.393,120.308)">
   <g transform="matrix(1, 0, 0, 1, 0.615231, 1.27105)">
    <g id="copper1">
     <g gorn="0.3.0.0">
      <circle cx="6.52411" connectorname="PWR" gorn="0.3.0.0.0" cy="1.70533" fill="none" id="connector2pad" stroke="black" r="2.55118" stroke-width="0.850393"/>
      <path gorn="0.3.0.0.1" fill="black" id="connector2extra" stroke="none" d="M3.68929,-1.13043A2.83464,2.83465,0,0,0,0.854824,1.70404,2.83464,2.83465,0,0,0,3.68929,4.53997L9.35971,4.53997A2.83464,2.83465,0,0,0,12.1942,1.70404,2.83464,2.83465,0,0,0,9.35971,-1.13043Zm2.85352,0.706054A2.12598,2.12598,0,0,1,8.66828,1.70111,2.12598,2.12598,0,0,1,6.54281,3.8266,2.12598,2.12598,0,0,1,4.41587,1.70111,2.12598,2.12598,0,0,1,6.54281,-0.424381Z" stroke-width="0"/>
      <circle cx="6.58983" connectorname="GND@1" gorn="0.3.0.0.2" cy="15.8982" fill="none" id="connector0pad" stroke="black" r="2.55118" stroke-width="0.850393"/>
      <g transform="matrix(0.264583, 0, 0, 0.264583, -0.5625, -1.12932)">
       <g>
        <g>
         <path gorn="0.3.0.0.3.0.0" fill="black" id="connector0extra" stroke="none" d="m16.0722,53.5703a10.7136,10.7136,0,0,0,-10.713,10.713,10.7136,10.7136,0,0,0,10.713,10.713l21.4259,0a10.7136,10.7136,0,0,0,10.713,-10.713,10.7136,10.7136,0,0,0,-10.713,-10.713zm10.713,2.70731A8.03522,8.03523,0,0,1,34.8185,64.311,8.03522,8.03523,0,0,1,26.7852,72.3498,8.03522,8.03523,0,0,1,18.7463,64.311,8.03522,8.03523,0,0,1,26.7852,56.2776Z" stroke-width="0"/>
        </g>
       </g>
      </g>
      <circle cx="14.0961" connectorname="GND@2" gorn="0.3.0.0.4" cy="8.79404" fill="none" id="connector1pad" stroke="black" r="2.55118" stroke-width="0.850393"/>
      <g gorn="0.3.0.0.5" id="copper0">
       <path gorn="0.3.0.0.5.0" fill="black" id="path1831" stroke="none" d="m3.68929,-1.13043a2.83464,2.83465,0,0,0,-2.83447,2.83447,2.83464,2.83465,0,0,0,2.83447,2.83595l5.67039,0a2.83464,2.83465,0,0,0,2.83447,-2.83595,2.83464,2.83465,0,0,0,-2.83447,-2.83447zm2.85352,0.706054a2.12598,2.12598,0,0,1,2.12549,2.12549,2.12598,2.12598,0,0,1,-2.12549,2.12549,2.12598,2.12598,0,0,1,-2.12695,-2.12549,2.12598,2.12598,0,0,1,2.12695,-2.12549z" stroke-width="0"/>
       <path gorn="0.3.0.0.5.1" fill="black" id="connector2extra2" stroke="none" d="m3.68929,-1.13043a2.83464,2.83465,0,0,0,-2.83447,2.83447,2.83464,2.83465,0,0,0,2.83447,2.83595l5.67042,0a2.83464,2.83465,0,0,0,2.83447,-2.83595,2.83464,2.83465,0,0,0,-2.83447,-2.83447zm2.85352,0.706054a2.12598,2.12598,0,0,1,2.12549,2.12549,2.12598,2.12598,0,0,1,-2.12549,2.12549,2.12598,2.12598,0,0,1,-2.12695,-2.12549,2.12598,2.12598,0,0,1,2.12695,-2.12549z" stroke-width="0"/>
       <circle cx="6.52411" connectorname="PWR" gorn="0.3.0.0.5.2" cy="1.70533" fill="none" id="connector2pad2" stroke="black" r="2.55118" stroke-width="0.850393"/>
       <circle cx="6.52411" connectorname="GND@1" gorn="0.3.0.0.5.3" cy="15.8786" fill="none" id="connector0pad2" stroke="black" r="2.55118" stroke-width="0.850393"/>
       <g transform="matrix(0.264583, 0, 0, 0.264583, -0.5625, -1.12932)">
        <g>
         <g>
          <path gorn="0.3.0.0.5.4.0.0" fill="black" id="connector0extra2" stroke="none" d="m16.0722,53.5703a10.7136,10.7136,0,0,0,-10.713,10.713,10.7136,10.7136,0,0,0,10.713,10.713l21.4259,0a10.7136,10.7136,0,0,0,10.713,-10.713,10.7136,10.7136,0,0,0,-10.713,-10.713zm10.713,2.67409a8.03522,8.03523,0,0,1,8.03332,8.03889,8.03522,8.03523,0,0,1,-8.03332,8.03336,8.03522,8.03523,0,0,1,-8.03888,-8.03336,8.03522,8.03523,0,0,1,8.03888,-8.03889z" stroke-width="0"/>
         </g>
        </g>
       </g>
       <circle cx="14.0961" connectorname="GND@2" gorn="0.3.0.0.5.5" cy="8.79404" fill="none" id="connector1pad2" stroke="black" r="2.55118" stroke-width="0.850393"/>
      </g>
     </g>
    </g>
   </g>
  </g>
 </g>
 <g partID="854511832">
  <g transform="translate(64.125,120.308)">
   <g transform="matrix(1, 0, 0, 1, 0.615231, 1.27105)">
    <g id="copper1">
     <g gorn="0.3.0.0">
      <circle cx="6.52411" connectorname="PWR" gorn="0.3.0.0.0" cy="1.70533" fill="none" id="connector2pad" stroke="black" r="2.55118" stroke-width="0.850393"/>
      <path gorn="0.3.0.0.1" fill="black" id="connector2extra" stroke="none" d="M3.68929,-1.13043A2.83464,2.83465,0,0,0,0.854824,1.70404,2.83464,2.83465,0,0,0,3.68929,4.53997L9.35971,4.53997A2.83464,2.83465,0,0,0,12.1942,1.70404,2.83464,2.83465,0,0,0,9.35971,-1.13043Zm2.85352,0.706054A2.12598,2.12598,0,0,1,8.66828,1.70111,2.12598,2.12598,0,0,1,6.54281,3.8266,2.12598,2.12598,0,0,1,4.41587,1.70111,2.12598,2.12598,0,0,1,6.54281,-0.424381Z" stroke-width="0"/>
      <circle cx="6.58983" connectorname="GND@1" gorn="0.3.0.0.2" cy="15.8982" fill="none" id="connector0pad" stroke="black" r="2.55118" stroke-width="0.850393"/>
      <g transform="matrix(0.264583, 0, 0, 0.264583, -0.5625, -1.12932)">
       <g>
        <g>
         <path gorn="0.3.0.0.3.0.0" fill="black" id="connector0extra" stroke="none" d="m16.0722,53.5703a10.7136,10.7136,0,0,0,-10.713,10.713,10.7136,10.7136,0,0,0,10.713,10.713l21.4259,0a10.7136,10.7136,0,0,0,10.713,-10.713,10.7136,10.7136,0,0,0,-10.713,-10.713zm10.713,2.70731A8.03522,8.03523,0,0,1,34.8185,64.311,8.03522,8.03523,0,0,1,26.7852,72.3498,8.03522,8.03523,0,0,1,18.7463,64.311,8.03522,8.03523,0,0,1,26.7852,56.2776Z" stroke-width="0"/>
        </g>
       </g>
      </g>
      <circle cx="14.0961" connectorname="GND@2" gorn="0.3.0.0.4" cy="8.79404" fill="none" id="connector1pad" stroke="black" r="2.55118" stroke-width="0.850393"/>
      <g gorn="0.3.0.0.5" id="copper0">
       <path gorn="0.3.0.0.5.0" fill="black" id="path1831" stroke="none" d="m3.68929,-1.13043a2.83464,2.83465,0,0,0,-2.83447,2.83447,2.83464,2.83465,0,0,0,2.83447,2.83595l5.67039,0a2.83464,2.83465,0,0,0,2.83447,-2.83595,2.83464,2.83465,0,0,0,-2.83447,-2.83447zm2.85352,0.706054a2.12598,2.12598,0,0,1,2.12549,2.12549,2.12598,2.12598,0,0,1,-2.12549,2.12549,2.12598,2.12598,0,0,1,-2.12695,-2.12549,2.12598,2.12598,0,0,1,2.12695,-2.12549z" stroke-width="0"/>
       <path gorn="0.3.0.0.5.1" fill="black" id="connector2extra2" stroke="none" d="m3.68929,-1.13043a2.83464,2.83465,0,0,0,-2.83447,2.83447,2.83464,2.83465,0,0,0,2.83447,2.83595l5.67042,0a2.83464,2.83465,0,0,0,2.83447,-2.83595,2.83464,2.83465,0,0,0,-2.83447,-2.83447zm2.85352,0.706054a2.12598,2.12598,0,0,1,2.12549,2.12549,2.12598,2.12598,0,0,1,-2.12549,2.12549,2.12598,2.12598,0,0,1,-2.12695,-2.12549,2.12598,2.12598,0,0,1,2.12695,-2.12549z" stroke-width="0"/>
       <circle cx="6.52411" connectorname="PWR" gorn="0.3.0.0.5.2" cy="1.70533" fill="none" id="connector2pad2" stroke="black" r="2.55118" stroke-width="0.850393"/>
       <circle cx="6.52411" connectorname="GND@1" gorn="0.3.0.0.5.3" cy="15.8786" fill="none" id="connector0pad2" stroke="black" r="2.55118" stroke-width="0.850393"/>
       <g transform="matrix(0.264583, 0, 0, 0.264583, -0.5625, -1.12932)">
        <g>
         <g>
          <path gorn="0.3.0.0.5.4.0.0" fill="black" id="connector0extra2" stroke="none" d="m16.0722,53.5703a10.7136,10.7136,0,0,0,-10.713,10.713,10.7136,10.7136,0,0,0,10.713,10.713l21.4259,0a10.7136,10.7136,0,0,0,10.713,-10.713,10.7136,10.7136,0,0,0,-10.713,-10.713zm10.713,2.67409a8.03522,8.03523,0,0,1,8.03332,8.03889,8.03522,8.03523,0,0,1,-8.03332,8.03336,8.03522,8.03523,0,0,1,-8.03888,-8.03336,8.03522,8.03523,0,0,1,8.03888,-8.03889z" stroke-width="0"/>
         </g>
        </g>
       </g>
       <circle cx="14.0961" connectorname="GND@2" gorn="0.3.0.0.5.5" cy="8.79404" fill="none" id="connector1pad2" stroke="black" r="2.55118" stroke-width="0.850393"/>
      </g>
     </g>
    </g>
   </g>
  </g>
 </g>
 <g partID="854511862">
  <g transform="translate(25.8575,120.308)">
   <g transform="matrix(1, 0, 0, 1, 0.615231, 1.27105)">
    <g id="copper1">
     <g gorn="0.3.0.0">
      <circle cx="6.52411" connectorname="PWR" gorn="0.3.0.0.0" cy="1.70533" fill="none" id="connector2pad" stroke="black" r="2.55118" stroke-width="0.850393"/>
      <path gorn="0.3.0.0.1" fill="black" id="connector2extra" stroke="none" d="M3.68929,-1.13043A2.83464,2.83465,0,0,0,0.854824,1.70404,2.83464,2.83465,0,0,0,3.68929,4.53997L9.35971,4.53997A2.83464,2.83465,0,0,0,12.1942,1.70404,2.83464,2.83465,0,0,0,9.35971,-1.13043Zm2.85352,0.706054A2.12598,2.12598,0,0,1,8.66828,1.70111,2.12598,2.12598,0,0,1,6.54281,3.8266,2.12598,2.12598,0,0,1,4.41587,1.70111,2.12598,2.12598,0,0,1,6.54281,-0.424381Z" stroke-width="0"/>
      <circle cx="6.58983" connectorname="GND@1" gorn="0.3.0.0.2" cy="15.8982" fill="none" id="connector0pad" stroke="black" r="2.55118" stroke-width="0.850393"/>
      <g transform="matrix(0.264583, 0, 0, 0.264583, -0.5625, -1.12932)">
       <g>
        <g>
         <path gorn="0.3.0.0.3.0.0" fill="black" id="connector0extra" stroke="none" d="m16.0722,53.5703a10.7136,10.7136,0,0,0,-10.713,10.713,10.7136,10.7136,0,0,0,10.713,10.713l21.4259,0a10.7136,10.7136,0,0,0,10.713,-10.713,10.7136,10.7136,0,0,0,-10.713,-10.713zm10.713,2.70731A8.03522,8.03523,0,0,1,34.8185,64.311,8.03522,8.03523,0,0,1,26.7852,72.3498,8.03522,8.03523,0,0,1,18.7463,64.311,8.03522,8.03523,0,0,1,26.7852,56.2776Z" stroke-width="0"/>
        </g>
       </g>
      </g>
      <circle cx="14.0961" connectorname="GND@2" gorn="0.3.0.0.4" cy="8.79404" fill="none" id="connector1pad" stroke="black" r="2.55118" stroke-width="0.850393"/>
      <g gorn="0.3.0.0.5" id="copper0">
       <path gorn="0.3.0.0.5.0" fill="black" id="path1831" stroke="none" d="m3.68929,-1.13043a2.83464,2.83465,0,0,0,-2.83447,2.83447,2.83464,2.83465,0,0,0,2.83447,2.83595l5.67039,0a2.83464,2.83465,0,0,0,2.83447,-2.83595,2.83464,2.83465,0,0,0,-2.83447,-2.83447zm2.85352,0.706054a2.12598,2.12598,0,0,1,2.12549,2.12549,2.12598,2.12598,0,0,1,-2.12549,2.12549,2.12598,2.12598,0,0,1,-2.12695,-2.12549,2.12598,2.12598,0,0,1,2.12695,-2.12549z" stroke-width="0"/>
       <path gorn="0.3.0.0.5.1" fill="black" id="connector2extra2" stroke="none" d="m3.68929,-1.13043a2.83464,2.83465,0,0,0,-2.83447,2.83447,2.83464,2.83465,0,0,0,2.83447,2.83595l5.67042,0a2.83464,2.83465,0,0,0,2.83447,-2.83595,2.83464,2.83465,0,0,0,-2.83447,-2.83447zm2.85352,0.706054a2.12598,2.12598,0,0,1,2.12549,2.12549,2.12598,2.12598,0,0,1,-2.12549,2.12549,2.12598,2.12598,0,0,1,-2.12695,-2.12549,2.12598,2.12598,0,0,1,2.12695,-2.12549z" stroke-width="0"/>
       <circle cx="6.52411" connectorname="PWR" gorn="0.3.0.0.5.2" cy="1.70533" fill="none" id="connector2pad2" stroke="black" r="2.55118" stroke-width="0.850393"/>
       <circle cx="6.52411" connectorname="GND@1" gorn="0.3.0.0.5.3" cy="15.8786" fill="none" id="connector0pad2" stroke="black" r="2.55118" stroke-width="0.850393"/>
       <g transform="matrix(0.264583, 0, 0, 0.264583, -0.5625, -1.12932)">
        <g>
         <g>
          <path gorn="0.3.0.0.5.4.0.0" fill="black" id="connector0extra2" stroke="none" d="m16.0722,53.5703a10.7136,10.7136,0,0,0,-10.713,10.713,10.7136,10.7136,0,0,0,10.713,10.713l21.4259,0a10.7136,10.7136,0,0,0,10.713,-10.713,10.7136,10.7136,0,0,0,-10.713,-10.713zm10.713,2.67409a8.03522,8.03523,0,0,1,8.03332,8.03889,8.03522,8.03523,0,0,1,-8.03332,8.03336,8.03522,8.03523,0,0,1,-8.03888,-8.03336,8.03522,8.03523,0,0,1,8.03888,-8.03889z" stroke-width="0"/>
         </g>
        </g>
       </g>
       <circle cx="14.0961" connectorname="GND@2" gorn="0.3.0.0.5.5" cy="8.79404" fill="none" id="connector1pad2" stroke="black" r="2.55118" stroke-width="0.850393"/>
      </g>
     </g>
    </g>
   </g>
  </g>
 </g>
 <g partID="854422621">
  <g transform="translate(1.37504,1.7808)">
   <g  id="copper1">
    <circle  cx="7.97796" fill="none" cy="7.97796" id="nonconn0" stroke="black" r="4.96063" stroke-width="2.83465"/>
   </g>
  </g>
 </g>
 <g partID="854422601">
  <g transform="translate(1.37504,139.261)">
   <g  id="copper1">
    <circle  cx="7.97796" fill="none" cy="7.97796" id="nonconn0" stroke="black" r="4.96063" stroke-width="2.83465"/>
   </g>
  </g>
 </g>
 <g partID="854422361">
  <g transform="translate(209.722,139.261)">
   <g  id="copper1">
    <circle  cx="7.97796" fill="none" cy="7.97796" id="nonconn0" stroke="black" r="4.96063" stroke-width="2.83465"/>
   </g>
  </g>
 </g>
 <g partID="854422071">
  <g transform="translate(209.722,1.7808)">
   <g  id="copper1">
    <circle  cx="7.97796" fill="none" cy="7.97796" id="nonconn0" stroke="black" r="4.96063" stroke-width="2.83465"/>
   </g>
  </g>
 </g>
 <g partID="854384892">
  <g transform="translate(154.975,26.5398)">
   <g  id="copper1">
    <g  id="copper0">
     <rect height="4.464"  y="12.168" fill="none" width="4.464" x="6.408" stroke="black" stroke-width="1.44"/>
     <circle  cx="8.64" cy="14.4" fill="none" id="connector0pad" stroke="black" r="2.232" stroke-width="1.44"/>
     <circle  cx="15.84" cy="14.4" fill="none" id="connector1pad" stroke="black" r="2.232" stroke-width="1.44"/>
     <circle  cx="23.04" cy="14.4" fill="none" id="connector2pad" stroke="black" r="2.232" stroke-width="1.44"/>
    </g>
   </g>
  </g>
 </g>
 <g partID="854133742">
  <g transform="translate(105.866,36.4265)">
   <g  id="copper1">
    <!-- <rect width="55" x="10" y="15.5" fill="none" height="55" stroke="rgb(255, 191, 0)" stroke-width="20" />  -->
    <circle  cx="2.7" fill="none" cy="3.096" id="connector0pin" stroke="black" r="1.98" stroke-width="1.44"/>
    <circle  cx="31.5" fill="none" cy="3.096" id="connector1pin" stroke="black" r="1.98" stroke-width="1.44"/>
   </g>
  </g>
 </g>
 <g partID="198051">
  <g transform="translate(195.297,19.5583)">
   <g transform="matrix(-1,0,0,-1,0,0)">
    <g transform="matrix(1, 0, 0, 1, -21.472, -3.00704)">
     <g id="copper1">
      <g gorn="0.3.0.0">
       <circle cx="24.185" gorn="0.3.0.0.0" cy="12.919" fill="none" id="connector0pin" stroke="black" r="2.088" stroke-width="1.25"/>
       <circle cx="31.384" gorn="0.3.0.0.1" cy="12.919" fill="none" id="connector1pin" stroke="black" r="2.088" stroke-width="1.25"/>
       <circle cx="38.585" gorn="0.3.0.0.2" cy="12.919" fill="none" id="connector2pin" stroke="black" r="2.088" stroke-width="1.25"/>
       <circle cx="45.784" gorn="0.3.0.0.3" cy="12.919" fill="none" id="connector3pin" stroke="black" r="2.088" stroke-width="1.25"/>
       <circle cx="52.9849" gorn="0.3.0.0.4" cy="12.919" fill="none" id="connector4pin" stroke="black" r="2.088" stroke-width="1.25"/>
       <circle cx="60.1849" gorn="0.3.0.0.5" cy="12.919" fill="none" id="connector5pin" stroke="black" r="2.088" stroke-width="1.25"/>
       <circle cx="67.3839" gorn="0.3.0.0.6" cy="12.919" fill="none" id="connector6pin" stroke="black" r="2.088" stroke-width="1.25"/>
       <circle cx="74.5849" gorn="0.3.0.0.7" cy="12.919" fill="none" id="connector7pin" stroke="black" r="2.088" stroke-width="1.25"/>
       <circle cx="81.7839" gorn="0.3.0.0.8" cy="12.919" fill="none" id="connector8pin" stroke="black" r="2.088" stroke-width="1.25"/>
       <circle cx="88.9849" gorn="0.3.0.0.9" cy="12.919" fill="none" id="connector9pin" stroke="black" r="2.088" stroke-width="1.25"/>
       <circle cx="96.1849" gorn="0.3.0.0.10" cy="12.919" fill="none" id="connector10pin" stroke="black" r="2.088" stroke-width="1.25"/>
       <circle cx="103.385" gorn="0.3.0.0.11" cy="12.919" fill="none" id="connector11pin" stroke="black" r="2.088" stroke-width="1.25"/>
       <circle cx="110.585" gorn="0.3.0.0.12" cy="12.919" fill="none" id="connector12pin" stroke="black" r="2.088" stroke-width="1.25"/>
       <circle cx="117.784" gorn="0.3.0.0.13" cy="12.919" fill="none" id="connector13pin" stroke="black" r="2.088" stroke-width="1.25"/>
       <circle cx="124.986" gorn="0.3.0.0.14" cy="12.919" fill="none" id="connector14pin" stroke="black" r="2.088" stroke-width="1.25"/>
       <circle cx="132.185" gorn="0.3.0.0.15" cy="12.919" fill="none" id="connector15pin" stroke="black" r="2.088" stroke-width="1.25"/>
       <circle cx="139.385" gorn="0.3.0.0.16" cy="12.919" fill="none" id="connector16pin" stroke="black" r="2.088" stroke-width="1.25"/>
       <circle cx="146.585" gorn="0.3.0.0.17" cy="12.919" fill="none" id="connector17pin" stroke="black" r="2.088" stroke-width="1.25"/>
       <circle cx="153.784" gorn="0.3.0.0.18" cy="12.919" fill="none" id="connector18pin" stroke="black" r="2.088" stroke-width="1.25"/>
       <circle cx="160.986" gorn="0.3.0.0.19" cy="12.919" fill="none" id="connector19pin" stroke="black" r="2.088" stroke-width="1.25"/>
       <circle cx="160.986" gorn="0.3.0.0.20" cy="5.72001" fill="none" id="connector20pin" stroke="black" r="2.088" stroke-width="1.25"/>
       <circle cx="153.784" gorn="0.3.0.0.21" cy="5.72001" fill="none" id="connector21pin" stroke="black" r="2.088" stroke-width="1.25"/>
       <circle cx="146.585" gorn="0.3.0.0.22" cy="5.72001" fill="none" id="connector22pin" stroke="black" r="2.088" stroke-width="1.25"/>
       <circle cx="139.385" gorn="0.3.0.0.23" cy="5.72001" fill="none" id="connector23pin" stroke="black" r="2.088" stroke-width="1.25"/>
       <circle cx="132.185" gorn="0.3.0.0.24" cy="5.72001" fill="none" id="connector24pin" stroke="black" r="2.088" stroke-width="1.25"/>
       <circle cx="124.986" gorn="0.3.0.0.25" cy="5.72001" fill="none" id="connector25pin" stroke="black" r="2.088" stroke-width="1.25"/>
       <circle cx="117.784" gorn="0.3.0.0.26" cy="5.72001" fill="none" id="connector26pin" stroke="black" r="2.088" stroke-width="1.25"/>
       <circle cx="110.585" gorn="0.3.0.0.27" cy="5.72001" fill="none" id="connector27pin" stroke="black" r="2.088" stroke-width="1.25"/>
       <circle cx="103.385" gorn="0.3.0.0.28" cy="5.72001" fill="none" id="connector28pin" stroke="black" r="2.088" stroke-width="1.25"/>
       <circle cx="96.1849" gorn="0.3.0.0.29" cy="5.72001" fill="none" id="connector29pin" stroke="black" r="2.088" stroke-width="1.25"/>
       <circle cx="88.9849" gorn="0.3.0.0.30" cy="5.72001" fill="none" id="connector30pin" stroke="black" r="2.088" stroke-width="1.25"/>
       <circle cx="81.7839" gorn="0.3.0.0.31" cy="5.72001" fill="none" id="connector31pin" stroke="black" r="2.088" stroke-width="1.25"/>
       <circle cx="74.5849" gorn="0.3.0.0.32" cy="5.72001" fill="none" id="connector32pin" stroke="black" r="2.088" stroke-width="1.25"/>
       <circle cx="67.3839" gorn="0.3.0.0.33" cy="5.72001" fill="none" id="connector33pin" stroke="black" r="2.088" stroke-width="1.25"/>
       <circle cx="60.1849" gorn="0.3.0.0.34" cy="5.72001" fill="none" id="connector34pin" stroke="black" r="2.088" stroke-width="1.25"/>
       <circle cx="52.9849" gorn="0.3.0.0.35" cy="5.72001" fill="none" id="connector35pin" stroke="black" r="2.088" stroke-width="1.25"/>
       <circle cx="45.784" gorn="0.3.0.0.36" cy="5.72001" fill="none" id="connector36pin" stroke="black" r="2.088" stroke-width="1.25"/>
       <circle cx="38.585" gorn="0.3.0.0.37" cy="5.72001" fill="none" id="connector37pin" stroke="black" r="2.088" stroke-width="1.25"/>
       <circle cx="31.384" gorn="0.3.0.0.38" cy="5.72001" fill="none" id="connector38pin" stroke="black" r="2.088" stroke-width="1.25"/>
       <circle cx="24.185" gorn="0.3.0.0.39" cy="5.72001" fill="none" id="connector39pin" stroke="black" r="2.088" stroke-width="1.25"/>
      </g>
     </g>
    </g>
   </g>
  </g>
 </g>
 <g partID="337482">
  <g transform="translate(208.407,21.4998)">
   <g  id="copper1">
    <g  id="copper0">
     <circle  cx="5.04" cy="5.04" fill="none" id="connector0pin" stroke="black" r="2.088" stroke-width="1.44"/>
     <circle  cx="5.04" cy="12.24" fill="none" id="connector1pin" stroke="black" r="2.088" stroke-width="1.44"/>
     <circle  cx="5.04" cy="19.44" fill="none" id="connector2pin" stroke="black" r="2.088" stroke-width="1.44"/>
     <circle  cx="5.04" cy="26.64" fill="none" id="connector3pin" stroke="black" r="2.088" stroke-width="1.44"/>
     <circle  cx="5.04" cy="33.84" fill="none" id="connector4pin" stroke="black" r="2.088" stroke-width="1.44"/>
    </g>
   </g>
  </g>
 </g>
 <g partID="854654940">
  <line stroke-linecap="round" y1="117.203" stroke="black" x1="33.6367" x2="33.2193" y2="121.169" stroke-width="1.728"/>
 </g>
 <g partID="854655380">
  <line stroke-linecap="round" y1="130.939" stroke="black" x1="28.8206" x2="31.9053" y2="135.693" stroke-width="1.728"/>
 </g>
 <g partID="854680860">
  <line stroke-linecap="round" y1="55.0977" stroke="black" x1="207.759" x2="207.759" y2="48.0555" stroke-width="1.728"/>
 </g>
 <g partID="854664870">
  <line stroke-linecap="round" y1="29.573" stroke="black" x1="136.859" x2="137.302" y2="38.2641" stroke-width="1.728"/>
 </g>
 <g partID="854664800">
  <line stroke-linecap="round" y1="29.573" stroke="black" x1="156.785" x2="136.86" y2="29.573" stroke-width="1.728"/>
 </g>
 <g partID="854655540">
  <line stroke-linecap="round" y1="18.3082" stroke="black" x1="156.607" x2="156.785" y2="29.573" stroke-width="1.728"/>
 </g>
 <g partID="854655700">
  <line stroke-linecap="round" y1="55.2817" stroke="black" x1="212.081" x2="207.758" y2="55.0977" stroke-width="1.728"/>
 </g>
 <g partID="854680910">
  <line stroke-linecap="round" y1="48.0555" stroke="black" x1="192.165" x2="192.564" y2="18.3082" stroke-width="1.728"/>
 </g>
 <g partID="854680760">
  <line stroke-linecap="round" y1="113.208" stroke="black" x1="71.6986" x2="71.3562" y2="121.16" stroke-width="1.728"/>
 </g>
 <g partID="854667440">
  <line stroke-linecap="round" y1="113.208" stroke="black" x1="68.8778" x2="71.6981" y2="113.208" stroke-width="1.728"/>
 </g>
 <g partID="854655820">
  <line stroke-linecap="round" y1="48.0555" stroke="black" x1="207.759" x2="192.165" y2="48.0555" stroke-width="1.728"/>
 </g>
 <g partID="854667740">
  <line stroke-linecap="round" y1="120.887" stroke="black" x1="88.7938" x2="88.7938" y2="137.329" stroke-width="1.728"/>
 </g>
 <g partID="854667690">
  <line stroke-linecap="round" y1="137.328" stroke="black" x1="88.7938" x2="73.4561" y2="137.459" stroke-width="1.728"/>
 </g>
 <g partID="854680980">
  <line stroke-linecap="round" y1="46.6386" stroke="black" x1="170.905" x2="140.31" y2="46.5625" stroke-width="1.728"/>
 </g>
 <g partID="854679590">
  <line stroke-linecap="round" y1="55.6451" stroke="black" x1="139.743" x2="139.743" y2="116.049" stroke-width="1.728"/>
 </g>
 <g partID="854656840">
  <line stroke-linecap="round" y1="116.048" stroke="black" x1="139.743" x2="136.939" y2="116.048" stroke-width="1.728"/>
 </g>
 <g partID="854656780">
  <line stroke-linecap="round" y1="42.4516" stroke="black" x1="170.839" x2="170.905" y2="46.6386" stroke-width="1.728"/>
 </g>
 <g partID="854656920">
  <line stroke-linecap="round" y1="137.341" stroke="black" x1="136.939" x2="145.739" y2="137.45" stroke-width="1.728"/>
 </g>
 <g partID="854656900">
  <line stroke-linecap="round" y1="116.048" stroke="black" x1="136.939" x2="136.939" y2="137.341" stroke-width="1.728"/>
 </g>
 <g partID="854657140">
  <line stroke-linecap="round" y1="2.65632" stroke="black" x1="47.545" x2="77.433" y2="2.65632" stroke-width="1.728"/>
 </g>
 <g partID="854657060">
  <line stroke-linecap="round" y1="12.052" stroke="black" x1="47.545" x2="47.545" y2="2.65632" stroke-width="1.728"/>
 </g>
 <g partID="854657160">
  <line stroke-linecap="round" y1="2.65632" stroke="black" x1="77.433" x2="77.3944" y2="8.18336" stroke-width="1.728"/>
 </g>
 <g partID="854658260">
  <line stroke-linecap="round" y1="145.292" stroke="black" x1="128.422" x2="128.422" y2="123.112" stroke-width="1.728"/>
 </g>
 <g partID="854658480">
  <line stroke-linecap="round" y1="123.112" stroke="black" x1="128.422" x2="111.659" y2="123.265" stroke-width="1.728"/>
 </g>
 <g partID="854677370">
  <line stroke-linecap="round" y1="137.316" stroke="black" x1="104.331" x2="107.473" y2="137.412" stroke-width="1.728"/>
 </g>
 <g partID="854659060">
  <line stroke-linecap="round" y1="131.03" stroke="black" x1="104.527" x2="104.332" y2="137.315" stroke-width="1.728"/>
 </g>
 <g partID="854659300">
  <line stroke-linecap="round" y1="40.0411" stroke="black" x1="204.772" x2="205.025" y2="2.65632" stroke-width="1.728"/>
 </g>
 <g partID="854659540">
  <line stroke-linecap="round" y1="2.65632" stroke="black" x1="156.785" x2="156.626" y2="8.18392" stroke-width="1.728"/>
 </g>
 <g partID="854659520">
  <line stroke-linecap="round" y1="2.65632" stroke="black" x1="205.025" x2="156.785" y2="2.65632" stroke-width="1.728"/>
 </g>
 <g partID="854659640">
  <line stroke-linecap="round" y1="39.4279" stroke="black" x1="178.025" x2="178.174" y2="18.3083" stroke-width="1.728"/>
 </g>
 <g partID="854679930">
  <line stroke-linecap="round" y1="50.8196" stroke="black" x1="109.933" x2="163.209" y2="50.8958" stroke-width="1.728"/>
 </g>
 <g partID="854673960">
  <line stroke-linecap="round" y1="123.112" stroke="black" x1="148.26" x2="148.26" y2="112.357" stroke-width="1.728"/>
 </g>
 <g partID="854664530">
  <line stroke-linecap="round" y1="28.1747" stroke="black" x1="108.544" x2="108.563" y2="38.2625" stroke-width="1.728"/>
 </g>
 <g partID="854664240">
  <line stroke-linecap="round" y1="28.1747" stroke="black" x1="91.5906" x2="108.545" y2="28.1747" stroke-width="1.728"/>
 </g>
 <g partID="854663720">
  <line stroke-linecap="round" y1="18.3081" stroke="black" x1="91.7586" x2="91.5909" y2="28.1747" stroke-width="1.728"/>
 </g>
 <g partID="854657020">
  <line stroke-linecap="round" y1="60.7772" stroke="black" x1="59.6285" x2="60.2923" y2="30.1398" stroke-width="1.728"/>
 </g>
 <g partID="854653010">
  <line stroke-linecap="round" y1="47.0583" stroke="black" x1="110.047" x2="109.933" y2="50.8196" stroke-width="1.728"/>
 </g>
 <g partID="854677760">
  <line stroke-linecap="round" y1="99.6562" stroke="black" x1="210.629" x2="210.629" y2="135.318" stroke-width="1.728"/>
 </g>
 <g partID="854677120">
  <line stroke-linecap="round" y1="132.431" stroke="black" x1="217.777" x2="217.777" y2="82.5428" stroke-width="1.728"/>
 </g>
 <g partID="854673970">
  <line stroke-linecap="round" y1="122.538" stroke="black" x1="149.791" x2="148.26" y2="123.111" stroke-width="1.728"/>
 </g>
 <g partID="854680250">
  <line stroke-linecap="round" y1="99.6034" stroke="black" x1="68.8479" x2="68.8779" y2="113.208" stroke-width="1.728"/>
 </g>
</svg>
