<?xml version='1.0' encoding='UTF-8' standalone='no'?>
<!-- Created with Fritzing (http://www.fritzing.org/) -->
<svg xmlns="http://www.w3.org/2000/svg"  y="0in" width="3.14961in" height="2.16535in" viewBox="0 0 226.772 155.906" baseProfile="tiny" xmlns:svg="http://www.w3.org/2000/svg" version="1.2" x="0in">
 <g transform="matrix(-1, 0, 0, 1, 226.772, 0)">
  <g partID="196230">
   <g  id="board">
    <rect  y="0.288" fill-opacity="0.5" width="226.196" stroke-width="0.5" fill="none" id="boardoutline" height="155.33" x="0.288" stroke="black"/>
   </g>
  </g>
  <g partID="854544810">
   <g transform="translate(55.961,52.0103)">
    <g  id="copper0">
     <circle  cy="3.01733" cx="3.01733" stroke-width="0.850392" fill="none" id="connector0pin" r="0.992124" stroke="black"/>
    </g>
   </g>
  </g>
  <g partID="854545390">
   <g transform="translate(44.5834,6.67368)">
    <g  id="copper0">
     <circle  cy="3.01733" cx="3.01733" stroke-width="0.850392" fill="none" id="connector0pin" r="0.992124" stroke="black"/>
    </g>
   </g>
  </g>
  <g partID="854536970">
   <g transform="translate(186.374,103.142)">
    <g  id="copper0">
     <circle  cy="3.01733" cx="3.01733" stroke-width="0.850392" fill="none" id="connector0pin" r="0.992124" stroke="black"/>
    </g>
   </g>
  </g>
  <g partID="854515660">
   <g transform="translate(176.787,112.833)">
    <g transform="matrix(1, 0, 0, 1, 0.377238, -800.114)">
     <g id="copper0">
      <g transform="matrix(1, 0, 0, 1, -0.288, 797.219)">
       <g>
        <g gorn="0.3.0.0.0.0.0.0.0.0">
         <circle cy="6.12" connectorname="PWR" cx="13.0439" stroke-width="0.850394" fill="none" id="connector2pad" gorn="0.3.0.0.0.0.0.0.0.0.0" r="2.69291" stroke="black"/>
         <circle cy="22.5609" connectorname="GND" cx="13.0439" stroke-width="0.850394" fill="none" id="connector0pad" gorn="0.3.0.0.0.0.0.0.0.0.1" r="2.69291" stroke="black"/>
         <circle cy="14.6239" connectorname="GNDBREAK" cx="26.6502" stroke-width="0.850394" fill="none" id="connector1pad" gorn="0.3.0.0.0.0.0.0.0.0.2" r="2.69291" stroke="black"/>
         <g id="copper1" gorn="0.3.0.0.0.0.0.0.0.0.3">
          <circle cy="6.12" connectorname="PWR" cx="13.0439" stroke-width="0.850394" fill="none" id="connector2pad2" gorn="0.3.0.0.0.0.0.0.0.0.3.0" r="2.69291" stroke="black"/>
          <circle cy="22.5609" connectorname="GND" cx="13.0439" stroke-width="0.850394" fill="none" id="connector0pad2" gorn="0.3.0.0.0.0.0.0.0.0.3.1" r="2.69291" stroke="black"/>
          <circle cy="14.6239" connectorname="GNDBREAK" cx="26.6502" stroke-width="0.850394" fill="none" id="connector1pad2" gorn="0.3.0.0.0.0.0.0.0.0.3.2" r="2.69291" stroke="black"/>
         </g>
        </g>
       </g>
      </g>
     </g>
    </g>
   </g>
  </g>
  <g partID="854512850">
   <g transform="translate(161.444,136.445)">
    <g  id="copper0">
     <circle  cy="3.01733" cx="3.01733" stroke-width="0.850392" fill="none" id="connector0pin" r="0.992124" stroke="black"/>
    </g>
   </g>
  </g>
  <g partID="854511850">
   <g transform="translate(140.66,120.308)">
    <g transform="matrix(1, 0, 0, 1, 0.615231, 1.27105)">
     <g id="copper0">
      <g gorn="0.3.0.0.5">
       <path d="m3.68929,-1.13043a2.83464,2.83465,0,0,0,-2.83447,2.83447,2.83464,2.83465,0,0,0,2.83447,2.83595l5.67039,0a2.83464,2.83465,0,0,0,2.83447,-2.83595,2.83464,2.83465,0,0,0,-2.83447,-2.83447zm2.85352,0.706054a2.12598,2.12598,0,0,1,2.12549,2.12549,2.12598,2.12598,0,0,1,-2.12549,2.12549,2.12598,2.12598,0,0,1,-2.12695,-2.12549,2.12598,2.12598,0,0,1,2.12695,-2.12549z" stroke-width="0" fill="black" id="path1831" gorn="0.3.0.0.5.0" stroke="none"/>
       <path d="m3.68929,-1.13043a2.83464,2.83465,0,0,0,-2.83447,2.83447,2.83464,2.83465,0,0,0,2.83447,2.83595l5.67042,0a2.83464,2.83465,0,0,0,2.83447,-2.83595,2.83464,2.83465,0,0,0,-2.83447,-2.83447zm2.85352,0.706054a2.12598,2.12598,0,0,1,2.12549,2.12549,2.12598,2.12598,0,0,1,-2.12549,2.12549,2.12598,2.12598,0,0,1,-2.12695,-2.12549,2.12598,2.12598,0,0,1,2.12695,-2.12549z" stroke-width="0" fill="black" id="connector2extra2" gorn="0.3.0.0.5.1" stroke="none"/>
       <circle cy="1.70533" connectorname="PWR" cx="6.52411" stroke-width="0.850393" fill="none" id="connector2pad2" gorn="0.3.0.0.5.2" r="2.55118" stroke="black"/>
       <circle cy="15.8786" connectorname="GND@1" cx="6.52411" stroke-width="0.850393" fill="none" id="connector0pad2" gorn="0.3.0.0.5.3" r="2.55118" stroke="black"/>
       <g transform="matrix(0.264583, 0, 0, 0.264583, -0.5625, -1.12932)">
        <g>
         <g>
          <path d="m16.0722,53.5703a10.7136,10.7136,0,0,0,-10.713,10.713,10.7136,10.7136,0,0,0,10.713,10.713l21.4259,0a10.7136,10.7136,0,0,0,10.713,-10.713,10.7136,10.7136,0,0,0,-10.713,-10.713zm10.713,2.67409a8.03522,8.03523,0,0,1,8.03332,8.03889,8.03522,8.03523,0,0,1,-8.03332,8.03336,8.03522,8.03523,0,0,1,-8.03888,-8.03336,8.03522,8.03523,0,0,1,8.03888,-8.03889z" stroke-width="0" fill="black" id="connector0extra2" gorn="0.3.0.0.5.4.0.0" stroke="none"/>
         </g>
        </g>
       </g>
       <circle cy="8.79404" connectorname="GND@2" cx="14.0961" stroke-width="0.850393" fill="none" id="connector1pad2" gorn="0.3.0.0.5.5" r="2.55118" stroke="black"/>
      </g>
     </g>
    </g>
   </g>
  </g>
  <g partID="854511840">
   <g transform="translate(102.393,120.308)">
    <g transform="matrix(1, 0, 0, 1, 0.615231, 1.27105)">
     <g id="copper0">
      <g gorn="0.3.0.0.5">
       <path d="m3.68929,-1.13043a2.83464,2.83465,0,0,0,-2.83447,2.83447,2.83464,2.83465,0,0,0,2.83447,2.83595l5.67039,0a2.83464,2.83465,0,0,0,2.83447,-2.83595,2.83464,2.83465,0,0,0,-2.83447,-2.83447zm2.85352,0.706054a2.12598,2.12598,0,0,1,2.12549,2.12549,2.12598,2.12598,0,0,1,-2.12549,2.12549,2.12598,2.12598,0,0,1,-2.12695,-2.12549,2.12598,2.12598,0,0,1,2.12695,-2.12549z" stroke-width="0" fill="black" id="path1831" gorn="0.3.0.0.5.0" stroke="none"/>
       <path d="m3.68929,-1.13043a2.83464,2.83465,0,0,0,-2.83447,2.83447,2.83464,2.83465,0,0,0,2.83447,2.83595l5.67042,0a2.83464,2.83465,0,0,0,2.83447,-2.83595,2.83464,2.83465,0,0,0,-2.83447,-2.83447zm2.85352,0.706054a2.12598,2.12598,0,0,1,2.12549,2.12549,2.12598,2.12598,0,0,1,-2.12549,2.12549,2.12598,2.12598,0,0,1,-2.12695,-2.12549,2.12598,2.12598,0,0,1,2.12695,-2.12549z" stroke-width="0" fill="black" id="connector2extra2" gorn="0.3.0.0.5.1" stroke="none"/>
       <circle cy="1.70533" connectorname="PWR" cx="6.52411" stroke-width="0.850393" fill="none" id="connector2pad2" gorn="0.3.0.0.5.2" r="2.55118" stroke="black"/>
       <circle cy="15.8786" connectorname="GND@1" cx="6.52411" stroke-width="0.850393" fill="none" id="connector0pad2" gorn="0.3.0.0.5.3" r="2.55118" stroke="black"/>
       <g transform="matrix(0.264583, 0, 0, 0.264583, -0.5625, -1.12932)">
        <g>
         <g>
          <path d="m16.0722,53.5703a10.7136,10.7136,0,0,0,-10.713,10.713,10.7136,10.7136,0,0,0,10.713,10.713l21.4259,0a10.7136,10.7136,0,0,0,10.713,-10.713,10.7136,10.7136,0,0,0,-10.713,-10.713zm10.713,2.67409a8.03522,8.03523,0,0,1,8.03332,8.03889,8.03522,8.03523,0,0,1,-8.03332,8.03336,8.03522,8.03523,0,0,1,-8.03888,-8.03336,8.03522,8.03523,0,0,1,8.03888,-8.03889z" stroke-width="0" fill="black" id="connector0extra2" gorn="0.3.0.0.5.4.0.0" stroke="none"/>
         </g>
        </g>
       </g>
       <circle cy="8.79404" connectorname="GND@2" cx="14.0961" stroke-width="0.850393" fill="none" id="connector1pad2" gorn="0.3.0.0.5.5" r="2.55118" stroke="black"/>
      </g>
     </g>
    </g>
   </g>
  </g>
  <g partID="854468370">
   <g transform="translate(121.167,134.267)">
    <g  id="copper0">
     <circle  cy="3.01733" cx="3.01733" stroke-width="0.850392" fill="none" id="connector0pin" r="0.992124" stroke="black"/>
    </g>
   </g>
  </g>
  <g partID="854511830">
   <g transform="translate(64.125,120.308)">
    <g transform="matrix(1, 0, 0, 1, 0.615231, 1.27105)">
     <g id="copper0">
      <g gorn="0.3.0.0.5">
       <path d="m3.68929,-1.13043a2.83464,2.83465,0,0,0,-2.83447,2.83447,2.83464,2.83465,0,0,0,2.83447,2.83595l5.67039,0a2.83464,2.83465,0,0,0,2.83447,-2.83595,2.83464,2.83465,0,0,0,-2.83447,-2.83447zm2.85352,0.706054a2.12598,2.12598,0,0,1,2.12549,2.12549,2.12598,2.12598,0,0,1,-2.12549,2.12549,2.12598,2.12598,0,0,1,-2.12695,-2.12549,2.12598,2.12598,0,0,1,2.12695,-2.12549z" stroke-width="0" fill="black" id="path1831" gorn="0.3.0.0.5.0" stroke="none"/>
       <path d="m3.68929,-1.13043a2.83464,2.83465,0,0,0,-2.83447,2.83447,2.83464,2.83465,0,0,0,2.83447,2.83595l5.67042,0a2.83464,2.83465,0,0,0,2.83447,-2.83595,2.83464,2.83465,0,0,0,-2.83447,-2.83447zm2.85352,0.706054a2.12598,2.12598,0,0,1,2.12549,2.12549,2.12598,2.12598,0,0,1,-2.12549,2.12549,2.12598,2.12598,0,0,1,-2.12695,-2.12549,2.12598,2.12598,0,0,1,2.12695,-2.12549z" stroke-width="0" fill="black" id="connector2extra2" gorn="0.3.0.0.5.1" stroke="none"/>
       <circle cy="1.70533" connectorname="PWR" cx="6.52411" stroke-width="0.850393" fill="none" id="connector2pad2" gorn="0.3.0.0.5.2" r="2.55118" stroke="black"/>
       <circle cy="15.8786" connectorname="GND@1" cx="6.52411" stroke-width="0.850393" fill="none" id="connector0pad2" gorn="0.3.0.0.5.3" r="2.55118" stroke="black"/>
       <g transform="matrix(0.264583, 0, 0, 0.264583, -0.5625, -1.12932)">
        <g>
         <g>
          <path d="m16.0722,53.5703a10.7136,10.7136,0,0,0,-10.713,10.713,10.7136,10.7136,0,0,0,10.713,10.713l21.4259,0a10.7136,10.7136,0,0,0,10.713,-10.713,10.7136,10.7136,0,0,0,-10.713,-10.713zm10.713,2.67409a8.03522,8.03523,0,0,1,8.03332,8.03889,8.03522,8.03523,0,0,1,-8.03332,8.03336,8.03522,8.03523,0,0,1,-8.03888,-8.03336,8.03522,8.03523,0,0,1,8.03888,-8.03889z" stroke-width="0" fill="black" id="connector0extra2" gorn="0.3.0.0.5.4.0.0" stroke="none"/>
         </g>
        </g>
       </g>
       <circle cy="8.79404" connectorname="GND@2" cx="14.0961" stroke-width="0.850393" fill="none" id="connector1pad2" gorn="0.3.0.0.5.5" r="2.55118" stroke="black"/>
      </g>
     </g>
    </g>
   </g>
  </g>
  <g partID="854511860">
   <g transform="translate(25.8575,120.308)">
    <g transform="matrix(1, 0, 0, 1, 0.615231, 1.27105)">
     <g id="copper0">
      <g gorn="0.3.0.0.5">
       <path d="m3.68929,-1.13043a2.83464,2.83465,0,0,0,-2.83447,2.83447,2.83464,2.83465,0,0,0,2.83447,2.83595l5.67039,0a2.83464,2.83465,0,0,0,2.83447,-2.83595,2.83464,2.83465,0,0,0,-2.83447,-2.83447zm2.85352,0.706054a2.12598,2.12598,0,0,1,2.12549,2.12549,2.12598,2.12598,0,0,1,-2.12549,2.12549,2.12598,2.12598,0,0,1,-2.12695,-2.12549,2.12598,2.12598,0,0,1,2.12695,-2.12549z" stroke-width="0" fill="black" id="path1831" gorn="0.3.0.0.5.0" stroke="none"/>
       <path d="m3.68929,-1.13043a2.83464,2.83465,0,0,0,-2.83447,2.83447,2.83464,2.83465,0,0,0,2.83447,2.83595l5.67042,0a2.83464,2.83465,0,0,0,2.83447,-2.83595,2.83464,2.83465,0,0,0,-2.83447,-2.83447zm2.85352,0.706054a2.12598,2.12598,0,0,1,2.12549,2.12549,2.12598,2.12598,0,0,1,-2.12549,2.12549,2.12598,2.12598,0,0,1,-2.12695,-2.12549,2.12598,2.12598,0,0,1,2.12695,-2.12549z" stroke-width="0" fill="black" id="connector2extra2" gorn="0.3.0.0.5.1" stroke="none"/>
       <circle cy="1.70533" connectorname="PWR" cx="6.52411" stroke-width="0.850393" fill="none" id="connector2pad2" gorn="0.3.0.0.5.2" r="2.55118" stroke="black"/>
       <circle cy="15.8786" connectorname="GND@1" cx="6.52411" stroke-width="0.850393" fill="none" id="connector0pad2" gorn="0.3.0.0.5.3" r="2.55118" stroke="black"/>
       <g transform="matrix(0.264583, 0, 0, 0.264583, -0.5625, -1.12932)">
        <g>
         <g>
          <path d="m16.0722,53.5703a10.7136,10.7136,0,0,0,-10.713,10.713,10.7136,10.7136,0,0,0,10.713,10.713l21.4259,0a10.7136,10.7136,0,0,0,10.713,-10.713,10.7136,10.7136,0,0,0,-10.713,-10.713zm10.713,2.67409a8.03522,8.03523,0,0,1,8.03332,8.03889,8.03522,8.03523,0,0,1,-8.03332,8.03336,8.03522,8.03523,0,0,1,-8.03888,-8.03336,8.03522,8.03523,0,0,1,8.03888,-8.03889z" stroke-width="0" fill="black" id="connector0extra2" gorn="0.3.0.0.5.4.0.0" stroke="none"/>
         </g>
        </g>
       </g>
       <circle cy="8.79404" connectorname="GND@2" cx="14.0961" stroke-width="0.850393" fill="none" id="connector1pad2" gorn="0.3.0.0.5.5" r="2.55118" stroke="black"/>
      </g>
     </g>
    </g>
   </g>
  </g>
  <g partID="854422620">
   <g transform="translate(1.37504,1.7808)">
    <g  id="copper0">
     <circle  cy="7.97796" cx="7.97796" stroke-width="2.83465" fill="none" id="nonconn0" r="4.96063" stroke="black"/>
    </g>
   </g>
  </g>
  <g partID="854422600">
   <g transform="translate(1.37504,139.261)">
    <g  id="copper0">
     <circle  cy="7.97796" cx="7.97796" stroke-width="2.83465" fill="none" id="nonconn0" r="4.96063" stroke="black"/>
    </g>
   </g>
  </g>
  <g partID="854422360">
   <g transform="translate(209.722,139.261)">
    <g  id="copper0">
     <circle  cy="7.97796" cx="7.97796" stroke-width="2.83465" fill="none" id="nonconn0" r="4.96063" stroke="black"/>
    </g>
   </g>
  </g>
  <g partID="854422070">
   <g transform="translate(209.722,1.7808)">
    <g  id="copper0">
     <circle  cy="7.97796" cx="7.97796" stroke-width="2.83465" fill="none" id="nonconn0" r="4.96063" stroke="black"/>
    </g>
   </g>
  </g>
  <g partID="854384610">
   <g transform="translate(14.7728,64.8075)">
    <g  id="copper0">
     <rect  y="12.168" width="4.464" stroke-width="1.44" fill="none" height="4.464" x="6.408" stroke="black"/>
     <circle  cy="14.4" cx="8.64" stroke-width="1.44" fill="none" id="connector0pad" r="2.232" stroke="black"/>
     <circle  cy="14.4" cx="15.84" stroke-width="1.44" fill="none" id="connector1pad" r="2.232" stroke="black"/>
     <circle  cy="14.4" cx="23.04" stroke-width="1.44" fill="none" id="connector2pad" r="2.232" stroke="black"/>
    </g>
   </g>
  </g>
  <g partID="854384890">
   <g transform="translate(155.087,64.8075)">
    <g  id="copper0">
     <rect  y="12.168" width="4.464" stroke-width="1.44" fill="none" height="4.464" x="6.408" stroke="black"/>
     <circle  cy="14.4" cx="8.64" stroke-width="1.44" fill="none" id="connector0pad" r="2.232" stroke="black"/>
     <circle  cy="14.4" cx="15.84" stroke-width="1.44" fill="none" id="connector1pad" r="2.232" stroke="black"/>
     <circle  cy="14.4" cx="23.04" stroke-width="1.44" fill="none" id="connector2pad" r="2.232" stroke="black"/>
    </g>
   </g>
  </g>
  <g partID="854385170">
   <g transform="translate(61.5442,64.8075)">
    <g  id="copper0">
     <rect  y="12.168" width="4.464" stroke-width="1.44" fill="none" height="4.464" x="6.408" stroke="black"/>
     <circle  cy="14.4" cx="8.64" stroke-width="1.44" fill="none" id="connector0pad" r="2.232" stroke="black"/>
     <circle  cy="14.4" cx="15.84" stroke-width="1.44" fill="none" id="connector1pad" r="2.232" stroke="black"/>
     <circle  cy="14.4" cx="23.04" stroke-width="1.44" fill="none" id="connector2pad" r="2.232" stroke="black"/>
    </g>
   </g>
  </g>
  <g partID="854385450">
   <g transform="translate(108.316,64.8075)">
    <g  id="copper0">
     <rect  y="12.168" width="4.464" stroke-width="1.44" fill="none" height="4.464" x="6.408" stroke="black"/>
     <circle  cy="14.4" cx="8.64" stroke-width="1.44" fill="none" id="connector0pad" r="2.232" stroke="black"/>
     <circle  cy="14.4" cx="15.84" stroke-width="1.44" fill="none" id="connector1pad" r="2.232" stroke="black"/>
     <circle  cy="14.4" cx="23.04" stroke-width="1.44" fill="none" id="connector2pad" r="2.232" stroke="black"/>
    </g>
   </g>
  </g>
  <g partID="854134040">
   <g transform="translate(13.2861,94.5365)">
    <g  id="copper0">
     <g  id="copper1">
      <!-- <rect width="55" x="10" y="15.5" fill="none" height="55" stroke="rgb(255, 191, 0)" stroke-width="20" />  -->
      <circle  cy="3.096" cx="2.7" stroke-width="1.44" fill="none" id="connector0pin" r="1.98" stroke="black"/>
      <circle  cy="3.096" cx="31.5" stroke-width="1.44" fill="none" id="connector1pin" r="1.98" stroke="black"/>
     </g>
    </g>
   </g>
  </g>
  <g partID="854133740">
   <g transform="translate(155.019,94.5365)">
    <g  id="copper0">
     <g  id="copper1">
      <!-- <rect width="55" x="10" y="15.5" fill="none" height="55" stroke="rgb(255, 191, 0)" stroke-width="20" />  -->
      <circle  cy="3.096" cx="2.7" stroke-width="1.44" fill="none" id="connector0pin" r="1.98" stroke="black"/>
      <circle  cy="3.096" cx="31.5" stroke-width="1.44" fill="none" id="connector1pin" r="1.98" stroke="black"/>
     </g>
    </g>
   </g>
  </g>
  <g partID="854133450">
   <g transform="translate(60.0578,94.5365)">
    <g  id="copper0">
     <g  id="copper1">
      <!-- <rect width="55" x="10" y="15.5" fill="none" height="55" stroke="rgb(255, 191, 0)" stroke-width="20" />  -->
      <circle  cy="3.096" cx="2.7" stroke-width="1.44" fill="none" id="connector0pin" r="1.98" stroke="black"/>
      <circle  cy="3.096" cx="31.5" stroke-width="1.44" fill="none" id="connector1pin" r="1.98" stroke="black"/>
     </g>
    </g>
   </g>
  </g>
  <g partID="854133200">
   <g transform="translate(111.081,94.5365)">
    <g  id="copper0">
     <g  id="copper1">
      <!-- <rect width="55" x="10" y="15.5" fill="none" height="55" stroke="rgb(255, 191, 0)" stroke-width="20" />  -->
      <circle  cy="3.096" cx="2.7" stroke-width="1.44" fill="none" id="connector0pin" r="1.98" stroke="black"/>
      <circle  cy="3.096" cx="31.5" stroke-width="1.44" fill="none" id="connector1pin" r="1.98" stroke="black"/>
     </g>
    </g>
   </g>
  </g>
  <g partID="198050">
   <g transform="translate(195.297,19.5583)">
    <g transform="matrix(-1,0,0,-1,0,0)">
     <g transform="matrix(1, 0, 0, 1, -21.472, -3.00704)">
      <g id="copper0">
       <g gorn="0.3.0">
        <g id="copper1" gorn="0.3.0.0">
         <circle cy="12.919" cx="24.185" stroke-width="1.25" fill="none" id="connector0pin" gorn="0.3.0.0.0" r="2.088" stroke="black"/>
         <circle cy="12.919" cx="31.384" stroke-width="1.25" fill="none" id="connector1pin" gorn="0.3.0.0.1" r="2.088" stroke="black"/>
         <circle cy="12.919" cx="38.585" stroke-width="1.25" fill="none" id="connector2pin" gorn="0.3.0.0.2" r="2.088" stroke="black"/>
         <circle cy="12.919" cx="45.784" stroke-width="1.25" fill="none" id="connector3pin" gorn="0.3.0.0.3" r="2.088" stroke="black"/>
         <circle cy="12.919" cx="52.9849" stroke-width="1.25" fill="none" id="connector4pin" gorn="0.3.0.0.4" r="2.088" stroke="black"/>
         <circle cy="12.919" cx="60.1849" stroke-width="1.25" fill="none" id="connector5pin" gorn="0.3.0.0.5" r="2.088" stroke="black"/>
         <circle cy="12.919" cx="67.3839" stroke-width="1.25" fill="none" id="connector6pin" gorn="0.3.0.0.6" r="2.088" stroke="black"/>
         <circle cy="12.919" cx="74.5849" stroke-width="1.25" fill="none" id="connector7pin" gorn="0.3.0.0.7" r="2.088" stroke="black"/>
         <circle cy="12.919" cx="81.7839" stroke-width="1.25" fill="none" id="connector8pin" gorn="0.3.0.0.8" r="2.088" stroke="black"/>
         <circle cy="12.919" cx="88.9849" stroke-width="1.25" fill="none" id="connector9pin" gorn="0.3.0.0.9" r="2.088" stroke="black"/>
         <circle cy="12.919" cx="96.1849" stroke-width="1.25" fill="none" id="connector10pin" gorn="0.3.0.0.10" r="2.088" stroke="black"/>
         <circle cy="12.919" cx="103.385" stroke-width="1.25" fill="none" id="connector11pin" gorn="0.3.0.0.11" r="2.088" stroke="black"/>
         <circle cy="12.919" cx="110.585" stroke-width="1.25" fill="none" id="connector12pin" gorn="0.3.0.0.12" r="2.088" stroke="black"/>
         <circle cy="12.919" cx="117.784" stroke-width="1.25" fill="none" id="connector13pin" gorn="0.3.0.0.13" r="2.088" stroke="black"/>
         <circle cy="12.919" cx="124.986" stroke-width="1.25" fill="none" id="connector14pin" gorn="0.3.0.0.14" r="2.088" stroke="black"/>
         <circle cy="12.919" cx="132.185" stroke-width="1.25" fill="none" id="connector15pin" gorn="0.3.0.0.15" r="2.088" stroke="black"/>
         <circle cy="12.919" cx="139.385" stroke-width="1.25" fill="none" id="connector16pin" gorn="0.3.0.0.16" r="2.088" stroke="black"/>
         <circle cy="12.919" cx="146.585" stroke-width="1.25" fill="none" id="connector17pin" gorn="0.3.0.0.17" r="2.088" stroke="black"/>
         <circle cy="12.919" cx="153.784" stroke-width="1.25" fill="none" id="connector18pin" gorn="0.3.0.0.18" r="2.088" stroke="black"/>
         <circle cy="12.919" cx="160.986" stroke-width="1.25" fill="none" id="connector19pin" gorn="0.3.0.0.19" r="2.088" stroke="black"/>
         <circle cy="5.72001" cx="160.986" stroke-width="1.25" fill="none" id="connector20pin" gorn="0.3.0.0.20" r="2.088" stroke="black"/>
         <circle cy="5.72001" cx="153.784" stroke-width="1.25" fill="none" id="connector21pin" gorn="0.3.0.0.21" r="2.088" stroke="black"/>
         <circle cy="5.72001" cx="146.585" stroke-width="1.25" fill="none" id="connector22pin" gorn="0.3.0.0.22" r="2.088" stroke="black"/>
         <circle cy="5.72001" cx="139.385" stroke-width="1.25" fill="none" id="connector23pin" gorn="0.3.0.0.23" r="2.088" stroke="black"/>
         <circle cy="5.72001" cx="132.185" stroke-width="1.25" fill="none" id="connector24pin" gorn="0.3.0.0.24" r="2.088" stroke="black"/>
         <circle cy="5.72001" cx="124.986" stroke-width="1.25" fill="none" id="connector25pin" gorn="0.3.0.0.25" r="2.088" stroke="black"/>
         <circle cy="5.72001" cx="117.784" stroke-width="1.25" fill="none" id="connector26pin" gorn="0.3.0.0.26" r="2.088" stroke="black"/>
         <circle cy="5.72001" cx="110.585" stroke-width="1.25" fill="none" id="connector27pin" gorn="0.3.0.0.27" r="2.088" stroke="black"/>
         <circle cy="5.72001" cx="103.385" stroke-width="1.25" fill="none" id="connector28pin" gorn="0.3.0.0.28" r="2.088" stroke="black"/>
         <circle cy="5.72001" cx="96.1849" stroke-width="1.25" fill="none" id="connector29pin" gorn="0.3.0.0.29" r="2.088" stroke="black"/>
         <circle cy="5.72001" cx="88.9849" stroke-width="1.25" fill="none" id="connector30pin" gorn="0.3.0.0.30" r="2.088" stroke="black"/>
         <circle cy="5.72001" cx="81.7839" stroke-width="1.25" fill="none" id="connector31pin" gorn="0.3.0.0.31" r="2.088" stroke="black"/>
         <circle cy="5.72001" cx="74.5849" stroke-width="1.25" fill="none" id="connector32pin" gorn="0.3.0.0.32" r="2.088" stroke="black"/>
         <circle cy="5.72001" cx="67.3839" stroke-width="1.25" fill="none" id="connector33pin" gorn="0.3.0.0.33" r="2.088" stroke="black"/>
         <circle cy="5.72001" cx="60.1849" stroke-width="1.25" fill="none" id="connector34pin" gorn="0.3.0.0.34" r="2.088" stroke="black"/>
         <circle cy="5.72001" cx="52.9849" stroke-width="1.25" fill="none" id="connector35pin" gorn="0.3.0.0.35" r="2.088" stroke="black"/>
         <circle cy="5.72001" cx="45.784" stroke-width="1.25" fill="none" id="connector36pin" gorn="0.3.0.0.36" r="2.088" stroke="black"/>
         <circle cy="5.72001" cx="38.585" stroke-width="1.25" fill="none" id="connector37pin" gorn="0.3.0.0.37" r="2.088" stroke="black"/>
         <circle cy="5.72001" cx="31.384" stroke-width="1.25" fill="none" id="connector38pin" gorn="0.3.0.0.38" r="2.088" stroke="black"/>
         <circle cy="5.72001" cx="24.185" stroke-width="1.25" fill="none" id="connector39pin" gorn="0.3.0.0.39" r="2.088" stroke="black"/>
        </g>
       </g>
      </g>
     </g>
    </g>
   </g>
  </g>
  <g partID="337480">
   <g transform="translate(202.738,38.7345)">
    <g  id="copper0">
     <circle  cy="5.04" cx="5.04" stroke-width="1.44" fill="none" id="connector0pin" r="2.088" stroke="black"/>
     <circle  cy="12.24" cx="5.04" stroke-width="1.44" fill="none" id="connector1pin" r="2.088" stroke="black"/>
     <circle  cy="19.44" cx="5.04" stroke-width="1.44" fill="none" id="connector2pin" r="2.088" stroke="black"/>
     <circle  cy="26.64" cx="5.04" stroke-width="1.44" fill="none" id="connector3pin" r="2.088" stroke="black"/>
     <circle  cy="33.84" cx="5.04" stroke-width="1.44" fill="none" id="connector4pin" r="2.088" stroke="black"/>
    </g>
   </g>
  </g>
  <g partID="854545650">
   <line x2="47.6006" y1="28.1613" stroke-linecap="round" stroke-width="1.728" x1="57.5162" y2="28.1613" stroke="black"/>
  </g>
  <g partID="854545580">
   <line x2="47.601" y1="28.1613" stroke-linecap="round" stroke-width="1.728" x1="47.601" y2="11.058" stroke="black"/>
  </g>
  <g partID="854545510">
   <line x2="57.5163" y1="53.6628" stroke-linecap="round" stroke-width="1.728" x1="58.9043" y2="28.1612" stroke="black"/>
  </g>
  <g partID="854540630">
   <line x2="178.116" y1="110.382" stroke-linecap="round" stroke-width="1.728" x1="177.979" y2="81.5197" stroke="black"/>
  </g>
  <g partID="854535340">
   <line x2="177.979" y1="110.382" stroke-linecap="round" stroke-width="1.728" x1="175.126" y2="110.382" stroke="black"/>
  </g>
  <g partID="854534910">
   <line x2="175.126" y1="133.092" stroke-linecap="round" stroke-width="1.728" x1="175.126" y2="110.382" stroke="black"/>
  </g>
  <g partID="854534480">
   <line x2="175.126" y1="132.622" stroke-linecap="round" stroke-width="1.728" x1="186.855" y2="133.092" stroke="black"/>
  </g>
  <g partID="854535590">
   <line x2="189.464" y1="112.995" stroke-linecap="round" stroke-width="1.728" x1="189.757" y2="107.525" stroke="black"/>
  </g>
  <g partID="854475690">
   <line x2="164.438" y1="104.714" stroke-linecap="round" stroke-width="1.728" x1="163.859" y2="138.096" stroke="black"/>
  </g>
  <g partID="854475760">
   <line x2="163.86" y1="104.714" stroke-linecap="round" stroke-width="1.728" x1="170.966" y2="104.714" stroke="black"/>
  </g>
  <g partID="854475490">
   <line x2="170.966" y1="81.5197" stroke-linecap="round" stroke-width="1.728" x1="170.931" y2="104.714" stroke="black"/>
  </g>
  <g partID="854468010">
   <line x2="124.183" y1="81.5197" stroke-linecap="round" stroke-width="1.728" x1="124.157" y2="135.917" stroke="black"/>
  </g>
  <g partID="854425930">
   <line x2="116.996" y1="90.6005" stroke-linecap="round" stroke-width="1.728" x1="117.151" y2="81.5189" stroke="black"/>
  </g>
  <g partID="854425860">
   <line x2="117.152" y1="90.6005" stroke-linecap="round" stroke-width="1.728" x1="114.327" y2="90.6005" stroke="black"/>
  </g>
  <g partID="854403480">
   <line x2="114.327" y1="95.5787" stroke-linecap="round" stroke-width="1.728" x1="113.94" y2="90.6008" stroke="black"/>
  </g>
  <g partID="854427240">
   <line x2="29.1744" y1="90.6005" stroke-linecap="round" stroke-width="1.728" x1="23.5245" y2="90.6003" stroke="black"/>
  </g>
  <g partID="854427170">
   <line x2="29.0704" y1="90.6005" stroke-linecap="round" stroke-width="1.728" x1="29.1744" y2="97.7174" stroke="black"/>
  </g>
  <g partID="854427100">
   <line x2="42.726" y1="97.7173" stroke-linecap="round" stroke-width="1.728" x1="29.0704" y2="97.6437" stroke="black"/>
  </g>
  <g partID="854404180">
   <line x2="23.5245" y1="81.5196" stroke-linecap="round" stroke-width="1.728" x1="23.4355" y2="90.6006" stroke="black"/>
  </g>
  <g partID="854404300">
   <line x2="77.3472" y1="7.38335" stroke-linecap="round" stroke-width="1.728" x1="77.3722" y2="2.69178" stroke="black"/>
  </g>
  <g partID="854404380">
   <line x2="23.4922" y1="2.69176" stroke-linecap="round" stroke-width="1.728" x1="77.3474" y2="2.69176" stroke="black"/>
  </g>
  <g partID="854404400">
   <line x2="23.4152" y1="2.69176" stroke-linecap="round" stroke-width="1.728" x1="23.4922" y2="76.8955" stroke="black"/>
  </g>
  <g partID="854423950">
   <line x2="70.2153" y1="90.6005" stroke-linecap="round" stroke-width="1.728" x1="70.3378" y2="81.5193" stroke="black"/>
  </g>
  <g partID="854423880">
   <line x2="70.3379" y1="90.6005" stroke-linecap="round" stroke-width="1.728" x1="91.525" y2="90.6005" stroke="black"/>
  </g>
  <g partID="854406060">
   <line x2="91.5252" y1="95.5725" stroke-linecap="round" stroke-width="1.728" x1="91.5483" y2="90.6008" stroke="black"/>
  </g>
  <g partID="854406540">
   <line x2="155.658" y1="97.6325" stroke-linecap="round" stroke-width="1.728" x1="144.641" y2="97.6325" stroke="black"/>
  </g>
  <g partID="854426640">
   <line x2="61.8632" y1="86.3637" stroke-linecap="round" stroke-width="1.728" x1="37.6493" y2="87.7762" stroke="black"/>
  </g>
  <g partID="854426410">
   <line x2="62.5719" y1="87.7757" stroke-linecap="round" stroke-width="1.728" x1="61.8634" y2="95.5808" stroke="black"/>
  </g>
  <g partID="854407920">
   <line x2="37.6492" y1="81.5191" stroke-linecap="round" stroke-width="1.728" x1="37.76" y2="86.3635" stroke="black"/>
  </g>
  <g partID="854426870">
   <line x2="40.1248" y1="79.3013" stroke-linecap="round" stroke-width="1.728" x1="56.213" y2="79.2193" stroke="black"/>
  </g>
  <g partID="854459510">
   <line x2="56.213" y1="66.4626" stroke-linecap="round" stroke-width="1.728" x1="56.1554" y2="79.3013" stroke="black"/>
  </g>
  <g partID="854459280">
   <line x2="56.1554" y1="66.4626" stroke-linecap="round" stroke-width="1.728" x1="77.3474" y2="66.4626" stroke="black"/>
  </g>
  <g partID="854408380">
   <line x2="77.3472" y1="19.1084" stroke-linecap="round" stroke-width="1.728" x1="77.3826" y2="66.4626" stroke="black"/>
  </g>
  <g partID="854411340">
   <line x2="165.683" y1="79.2949" stroke-linecap="round" stroke-width="1.728" x1="163.866" y2="80.4416" stroke="black"/>
  </g>
  <g partID="854545110">
   <line x2="163.866" y1="26.8002" stroke-linecap="round" stroke-width="1.728" x1="162.505" y2="79.2949" stroke="black"/>
  </g>
  <g partID="854545040">
   <line x2="162.505" y1="26.8002" stroke-linecap="round" stroke-width="1.728" x1="156.672" y2="26.8002" stroke="black"/>
  </g>
  <g partID="854411350">
   <line x2="156.672" y1="19.1083" stroke-linecap="round" stroke-width="1.728" x1="156.604" y2="26.8003" stroke="black"/>
  </g>
  <g partID="854459740">
   <line x2="192.54" y1="33.7995" stroke-linecap="round" stroke-width="1.728" x1="192.251" y2="19.1079" stroke="black"/>
  </g>
  <g partID="854426140">
   <line x2="192.251" y1="72.1013" stroke-linecap="round" stroke-width="1.728" x1="192.251" y2="33.7999" stroke="black"/>
  </g>
  <g partID="854403320">
   <line x2="192.252" y1="72.5088" stroke-linecap="round" stroke-width="1.728" x1="205.611" y2="72.1013" stroke="black"/>
  </g>
 </g>
</svg>
