G04 MADE WITH FRITZING*
G04 WWW.FRITZING.ORG*
G04 DOUBLE SIDED*
G04 HOLES PLATED*
G04 CONTOUR ON CENTER OF CONTOUR VECTOR*
%ASAXBY*%
%FSLAX23Y23*%
%MOIN*%
%OFA0B0*%
%SFA1.0B1.0*%
%ADD10C,0.039370*%
%ADD11C,0.086614*%
%ADD12C,0.082677*%
%ADD13C,0.177165*%
%ADD14C,0.082000*%
%ADD15C,0.075000*%
%ADD16C,0.075361*%
%ADD17C,0.078000*%
%ADD18R,0.082000X0.082000*%
%ADD19C,0.024000*%
%ADD20R,0.001000X0.001000*%
%LNCOPPER1*%
G90*
G70*
G54D10*
X468Y545D03*
X396Y353D03*
X828Y1313D03*
X1452Y353D03*
X2844Y1601D03*
X660Y1990D03*
X838Y1755D03*
X2275Y1458D03*
X1529Y1520D03*
X1233Y494D03*
X2059Y613D03*
X3025Y1027D03*
X3025Y318D03*
X2925Y278D03*
X2925Y789D03*
X1784Y140D03*
X1941Y1519D03*
X1941Y1400D03*
X956Y790D03*
G54D11*
X2638Y553D03*
X2638Y325D03*
X2827Y435D03*
G54D12*
X2053Y453D03*
X2054Y256D03*
X2158Y355D03*
X2053Y453D03*
X2053Y256D03*
X2158Y355D03*
X1521Y453D03*
X1522Y256D03*
X1626Y355D03*
X1521Y453D03*
X1521Y256D03*
X1626Y355D03*
X990Y453D03*
X991Y256D03*
X1095Y355D03*
X990Y453D03*
X990Y256D03*
X1095Y355D03*
X458Y453D03*
X459Y256D03*
X563Y355D03*
X458Y453D03*
X458Y256D03*
X563Y355D03*
G54D13*
X130Y2030D03*
X130Y120D03*
X3024Y120D03*
X3024Y2030D03*
G54D14*
X2272Y1597D03*
X2372Y1597D03*
X2472Y1597D03*
G54D15*
X1508Y1616D03*
X1908Y1616D03*
G54D16*
X2675Y2031D03*
X2575Y2031D03*
X2475Y2031D03*
X2375Y2031D03*
X2275Y2031D03*
X2175Y2031D03*
X2075Y2031D03*
X1975Y2031D03*
X1875Y2031D03*
X1775Y2031D03*
X1675Y2031D03*
X1575Y2031D03*
X1475Y2031D03*
X1375Y2031D03*
X1275Y2031D03*
X1175Y2031D03*
X1075Y2031D03*
X975Y2031D03*
X875Y2031D03*
X775Y2031D03*
X775Y1931D03*
X875Y1931D03*
X975Y1931D03*
X1075Y1931D03*
X1175Y1931D03*
X1275Y1931D03*
X1375Y1931D03*
X1475Y1931D03*
X1575Y1931D03*
X1675Y1931D03*
X1775Y1931D03*
X1875Y1931D03*
X1975Y1931D03*
X2075Y1931D03*
X2175Y1931D03*
X2275Y1931D03*
X2375Y1931D03*
X2475Y1931D03*
X2575Y1931D03*
X2675Y1931D03*
G54D17*
X2965Y1797D03*
X2965Y1697D03*
X2965Y1597D03*
X2965Y1497D03*
X2965Y1397D03*
G54D18*
X2272Y1597D03*
G54D19*
X467Y538D02*
X461Y482D01*
D02*
X400Y347D02*
X443Y281D01*
D02*
X2886Y1400D02*
X2886Y1498D01*
D02*
X1901Y1755D02*
X1907Y1634D01*
D02*
X2178Y1755D02*
X1901Y1755D01*
D02*
X2175Y1911D02*
X2178Y1755D01*
D02*
X2946Y1398D02*
X2886Y1400D01*
D02*
X2669Y1498D02*
X2675Y1911D01*
D02*
X996Y593D02*
X991Y483D01*
D02*
X957Y593D02*
X996Y593D01*
D02*
X2886Y1498D02*
X2669Y1498D01*
D02*
X1233Y486D02*
X1233Y258D01*
D02*
X1233Y258D02*
X1020Y256D01*
D02*
X2374Y1518D02*
X1949Y1519D01*
D02*
X1941Y1393D02*
X1941Y554D01*
D02*
X1941Y554D02*
X1902Y554D01*
D02*
X2373Y1576D02*
X2374Y1518D01*
D02*
X1902Y258D02*
X2024Y256D01*
D02*
X1902Y554D02*
X1902Y258D01*
D02*
X660Y2128D02*
X1075Y2128D01*
D02*
X660Y1998D02*
X660Y2128D01*
D02*
X1075Y2128D02*
X1075Y2052D01*
D02*
X1784Y147D02*
X1784Y455D01*
D02*
X1784Y455D02*
X1551Y453D01*
D02*
X1449Y258D02*
X1493Y257D01*
D02*
X1452Y345D02*
X1449Y258D01*
D02*
X2844Y1609D02*
X2848Y2128D01*
D02*
X2178Y2128D02*
X2175Y2052D01*
D02*
X2848Y2128D02*
X2178Y2128D01*
D02*
X2473Y1618D02*
X2475Y1911D01*
D02*
X1527Y1460D02*
X2267Y1458D01*
D02*
X2059Y455D02*
X2059Y605D01*
D02*
X1508Y1774D02*
X1508Y1634D01*
D02*
X1272Y1774D02*
X1508Y1774D01*
D02*
X1274Y1911D02*
X1272Y1774D01*
D02*
X828Y1321D02*
X837Y1747D01*
D02*
X1528Y1512D02*
X1527Y1460D01*
D02*
X2925Y781D02*
X2925Y286D01*
D02*
X3025Y326D02*
X3025Y1019D01*
D02*
X2080Y463D02*
X2059Y455D01*
D02*
X956Y782D02*
X957Y593D01*
G54D20*
X412Y492D02*
X506Y492D01*
X943Y492D02*
X1037Y492D01*
X1474Y492D02*
X1569Y492D01*
X2006Y492D02*
X2100Y492D01*
X408Y491D02*
X510Y491D01*
X939Y491D02*
X1041Y491D01*
X1471Y491D02*
X1572Y491D01*
X2002Y491D02*
X2104Y491D01*
X405Y490D02*
X512Y490D01*
X936Y490D02*
X1044Y490D01*
X1468Y490D02*
X1575Y490D01*
X1999Y490D02*
X2106Y490D01*
X403Y489D02*
X515Y489D01*
X934Y489D02*
X1046Y489D01*
X1466Y489D02*
X1577Y489D01*
X1997Y489D02*
X2109Y489D01*
X401Y488D02*
X517Y488D01*
X932Y488D02*
X1048Y488D01*
X1464Y488D02*
X1579Y488D01*
X1995Y488D02*
X2111Y488D01*
X399Y487D02*
X518Y487D01*
X931Y487D02*
X1050Y487D01*
X1462Y487D02*
X1581Y487D01*
X1993Y487D02*
X2112Y487D01*
X398Y486D02*
X520Y486D01*
X929Y486D02*
X1051Y486D01*
X1460Y486D02*
X1583Y486D01*
X1992Y486D02*
X2114Y486D01*
X396Y485D02*
X521Y485D01*
X928Y485D02*
X1053Y485D01*
X1459Y485D02*
X1584Y485D01*
X1990Y485D02*
X2115Y485D01*
X395Y484D02*
X522Y484D01*
X926Y484D02*
X1054Y484D01*
X1458Y484D02*
X1585Y484D01*
X1989Y484D02*
X2117Y484D01*
X394Y483D02*
X457Y483D01*
X461Y483D02*
X524Y483D01*
X925Y483D02*
X988Y483D01*
X992Y483D02*
X1055Y483D01*
X1457Y483D02*
X1520Y483D01*
X1524Y483D02*
X1586Y483D01*
X1988Y483D02*
X2051Y483D01*
X2055Y483D02*
X2118Y483D01*
X393Y482D02*
X451Y482D01*
X467Y482D02*
X525Y482D01*
X924Y482D02*
X982Y482D01*
X999Y482D02*
X1056Y482D01*
X1456Y482D02*
X1513Y482D01*
X1530Y482D02*
X1587Y482D01*
X1987Y482D02*
X2045Y482D01*
X2061Y482D02*
X2119Y482D01*
X392Y481D02*
X448Y481D01*
X470Y481D02*
X526Y481D01*
X923Y481D02*
X979Y481D01*
X1002Y481D02*
X1057Y481D01*
X1454Y481D02*
X1510Y481D01*
X1533Y481D02*
X1589Y481D01*
X1986Y481D02*
X2042Y481D01*
X2064Y481D02*
X2120Y481D01*
X391Y480D02*
X445Y480D01*
X473Y480D02*
X527Y480D01*
X922Y480D02*
X977Y480D01*
X1004Y480D02*
X1058Y480D01*
X1454Y480D02*
X1508Y480D01*
X1535Y480D02*
X1589Y480D01*
X1985Y480D02*
X2040Y480D01*
X2067Y480D02*
X2121Y480D01*
X390Y479D02*
X444Y479D01*
X474Y479D02*
X528Y479D01*
X921Y479D02*
X975Y479D01*
X1006Y479D02*
X1059Y479D01*
X1453Y479D02*
X1506Y479D01*
X1537Y479D02*
X1590Y479D01*
X1984Y479D02*
X2038Y479D01*
X2069Y479D02*
X2122Y479D01*
X389Y478D02*
X442Y478D01*
X476Y478D02*
X528Y478D01*
X920Y478D02*
X973Y478D01*
X1007Y478D02*
X1060Y478D01*
X1452Y478D02*
X1505Y478D01*
X1539Y478D02*
X1591Y478D01*
X1983Y478D02*
X2036Y478D01*
X2070Y478D02*
X2123Y478D01*
X388Y477D02*
X441Y477D01*
X477Y477D02*
X529Y477D01*
X920Y477D02*
X972Y477D01*
X1009Y477D02*
X1060Y477D01*
X1451Y477D02*
X1503Y477D01*
X1540Y477D02*
X1592Y477D01*
X1982Y477D02*
X2035Y477D01*
X2072Y477D02*
X2123Y477D01*
X388Y476D02*
X439Y476D01*
X479Y476D02*
X530Y476D01*
X919Y476D02*
X971Y476D01*
X1010Y476D02*
X1061Y476D01*
X1450Y476D02*
X1502Y476D01*
X1541Y476D02*
X1593Y476D01*
X1982Y476D02*
X2033Y476D01*
X2073Y476D02*
X2124Y476D01*
X387Y475D02*
X438Y475D01*
X480Y475D02*
X531Y475D01*
X918Y475D02*
X970Y475D01*
X1011Y475D02*
X1062Y475D01*
X1450Y475D02*
X1501Y475D01*
X1542Y475D02*
X1593Y475D01*
X1981Y475D02*
X2032Y475D01*
X2074Y475D02*
X2125Y475D01*
X386Y474D02*
X437Y474D01*
X481Y474D02*
X531Y474D01*
X918Y474D02*
X969Y474D01*
X1012Y474D02*
X1063Y474D01*
X1449Y474D02*
X1500Y474D01*
X1544Y474D02*
X1594Y474D01*
X1980Y474D02*
X2031Y474D01*
X2075Y474D02*
X2125Y474D01*
X386Y473D02*
X436Y473D01*
X482Y473D02*
X532Y473D01*
X917Y473D02*
X968Y473D01*
X1013Y473D02*
X1063Y473D01*
X1448Y473D02*
X1499Y473D01*
X1544Y473D02*
X1595Y473D01*
X1980Y473D02*
X2030Y473D01*
X2076Y473D02*
X2126Y473D01*
X385Y472D02*
X435Y472D01*
X482Y472D02*
X532Y472D01*
X916Y472D02*
X967Y472D01*
X1014Y472D02*
X1064Y472D01*
X1448Y472D02*
X1498Y472D01*
X1545Y472D02*
X1595Y472D01*
X1979Y472D02*
X2030Y472D01*
X2077Y472D02*
X2126Y472D01*
X385Y471D02*
X435Y471D01*
X483Y471D02*
X533Y471D01*
X916Y471D02*
X966Y471D01*
X1015Y471D02*
X1064Y471D01*
X1447Y471D02*
X1497Y471D01*
X1546Y471D02*
X1596Y471D01*
X1979Y471D02*
X2029Y471D01*
X2077Y471D02*
X2127Y471D01*
X384Y470D02*
X434Y470D01*
X484Y470D02*
X533Y470D01*
X916Y470D02*
X965Y470D01*
X1015Y470D02*
X1065Y470D01*
X1447Y470D02*
X1497Y470D01*
X1547Y470D02*
X1596Y470D01*
X1978Y470D02*
X2028Y470D01*
X2078Y470D02*
X2127Y470D01*
X384Y469D02*
X433Y469D01*
X485Y469D02*
X534Y469D01*
X915Y469D02*
X965Y469D01*
X1016Y469D02*
X1065Y469D01*
X1446Y469D02*
X1496Y469D01*
X1547Y469D02*
X1597Y469D01*
X1978Y469D02*
X2027Y469D01*
X2079Y469D02*
X2128Y469D01*
X383Y468D02*
X433Y468D01*
X485Y468D02*
X534Y468D01*
X915Y468D02*
X964Y468D01*
X1017Y468D02*
X1066Y468D01*
X1446Y468D02*
X1496Y468D01*
X1548Y468D02*
X1597Y468D01*
X1977Y468D02*
X2027Y468D01*
X2079Y468D02*
X2128Y468D01*
X383Y467D02*
X432Y467D01*
X486Y467D02*
X535Y467D01*
X914Y467D02*
X964Y467D01*
X1017Y467D02*
X1066Y467D01*
X1446Y467D02*
X1495Y467D01*
X1549Y467D02*
X1597Y467D01*
X1977Y467D02*
X2026Y467D01*
X2080Y467D02*
X2129Y467D01*
X383Y466D02*
X432Y466D01*
X486Y466D02*
X535Y466D01*
X914Y466D02*
X963Y466D01*
X1018Y466D02*
X1066Y466D01*
X1445Y466D02*
X1495Y466D01*
X1549Y466D02*
X1598Y466D01*
X1977Y466D02*
X2026Y466D01*
X2080Y466D02*
X2129Y466D01*
X382Y465D02*
X431Y465D01*
X487Y465D02*
X535Y465D01*
X914Y465D02*
X963Y465D01*
X1018Y465D02*
X1067Y465D01*
X1445Y465D02*
X1494Y465D01*
X1549Y465D02*
X1598Y465D01*
X1976Y465D02*
X2025Y465D01*
X2081Y465D02*
X2129Y465D01*
X382Y464D02*
X431Y464D01*
X487Y464D02*
X535Y464D01*
X913Y464D02*
X962Y464D01*
X1018Y464D02*
X1067Y464D01*
X1445Y464D02*
X1494Y464D01*
X1550Y464D02*
X1598Y464D01*
X1976Y464D02*
X2025Y464D01*
X2081Y464D02*
X2130Y464D01*
X382Y463D02*
X430Y463D01*
X487Y463D02*
X536Y463D01*
X913Y463D02*
X962Y463D01*
X1019Y463D02*
X1067Y463D01*
X1444Y463D02*
X1493Y463D01*
X1550Y463D02*
X1599Y463D01*
X1976Y463D02*
X2025Y463D01*
X2082Y463D02*
X2130Y463D01*
X381Y462D02*
X430Y462D01*
X488Y462D02*
X536Y462D01*
X913Y462D02*
X962Y462D01*
X1019Y462D02*
X1067Y462D01*
X1444Y462D02*
X1493Y462D01*
X1551Y462D02*
X1599Y462D01*
X1976Y462D02*
X2024Y462D01*
X2082Y462D02*
X2130Y462D01*
X381Y461D02*
X430Y461D01*
X488Y461D02*
X536Y461D01*
X913Y461D02*
X961Y461D01*
X1019Y461D02*
X1068Y461D01*
X1444Y461D02*
X1493Y461D01*
X1551Y461D02*
X1599Y461D01*
X1975Y461D02*
X2024Y461D01*
X2082Y461D02*
X2130Y461D01*
X381Y460D02*
X430Y460D01*
X488Y460D02*
X536Y460D01*
X912Y460D02*
X961Y460D01*
X1020Y460D02*
X1068Y460D01*
X1444Y460D02*
X1492Y460D01*
X1551Y460D02*
X1599Y460D01*
X1975Y460D02*
X2024Y460D01*
X2082Y460D02*
X2131Y460D01*
X381Y459D02*
X429Y459D01*
X488Y459D02*
X537Y459D01*
X912Y459D02*
X961Y459D01*
X1020Y459D02*
X1068Y459D01*
X1444Y459D02*
X1492Y459D01*
X1551Y459D02*
X1599Y459D01*
X1975Y459D02*
X2024Y459D01*
X2083Y459D02*
X2131Y459D01*
X381Y458D02*
X429Y458D01*
X489Y458D02*
X537Y458D01*
X912Y458D02*
X961Y458D01*
X1020Y458D02*
X1068Y458D01*
X1444Y458D02*
X1492Y458D01*
X1551Y458D02*
X1599Y458D01*
X1975Y458D02*
X2023Y458D01*
X2083Y458D02*
X2131Y458D01*
X381Y457D02*
X429Y457D01*
X489Y457D02*
X537Y457D01*
X912Y457D02*
X961Y457D01*
X1020Y457D02*
X1068Y457D01*
X1443Y457D02*
X1492Y457D01*
X1552Y457D02*
X1600Y457D01*
X1975Y457D02*
X2023Y457D01*
X2083Y457D02*
X2131Y457D01*
X381Y456D02*
X429Y456D01*
X489Y456D02*
X537Y456D01*
X912Y456D02*
X960Y456D01*
X1020Y456D02*
X1068Y456D01*
X1443Y456D02*
X1492Y456D01*
X1552Y456D02*
X1600Y456D01*
X1975Y456D02*
X2023Y456D01*
X2083Y456D02*
X2131Y456D01*
X381Y455D02*
X429Y455D01*
X489Y455D02*
X537Y455D01*
X912Y455D02*
X960Y455D01*
X1020Y455D02*
X1068Y455D01*
X1443Y455D02*
X1492Y455D01*
X1552Y455D02*
X1600Y455D01*
X1975Y455D02*
X2023Y455D01*
X2083Y455D02*
X2131Y455D01*
X380Y454D02*
X429Y454D01*
X489Y454D02*
X537Y454D01*
X912Y454D02*
X960Y454D01*
X1020Y454D02*
X1068Y454D01*
X1443Y454D02*
X1492Y454D01*
X1552Y454D02*
X1600Y454D01*
X1975Y454D02*
X2023Y454D01*
X2083Y454D02*
X2131Y454D01*
X380Y453D02*
X429Y453D01*
X489Y453D02*
X537Y453D01*
X912Y453D02*
X960Y453D01*
X1020Y453D02*
X1068Y453D01*
X1443Y453D02*
X1492Y453D01*
X1552Y453D02*
X1600Y453D01*
X1975Y453D02*
X2023Y453D01*
X2083Y453D02*
X2131Y453D01*
X381Y452D02*
X429Y452D01*
X489Y452D02*
X537Y452D01*
X912Y452D02*
X960Y452D01*
X1020Y452D02*
X1068Y452D01*
X1443Y452D02*
X1492Y452D01*
X1552Y452D02*
X1600Y452D01*
X1975Y452D02*
X2023Y452D01*
X2083Y452D02*
X2131Y452D01*
X381Y451D02*
X429Y451D01*
X489Y451D02*
X537Y451D01*
X912Y451D02*
X960Y451D01*
X1020Y451D02*
X1068Y451D01*
X1443Y451D02*
X1492Y451D01*
X1552Y451D02*
X1600Y451D01*
X1975Y451D02*
X2023Y451D01*
X2083Y451D02*
X2131Y451D01*
X381Y450D02*
X429Y450D01*
X489Y450D02*
X537Y450D01*
X912Y450D02*
X961Y450D01*
X1020Y450D02*
X1068Y450D01*
X1443Y450D02*
X1492Y450D01*
X1552Y450D02*
X1600Y450D01*
X1975Y450D02*
X2023Y450D01*
X2083Y450D02*
X2131Y450D01*
X381Y449D02*
X429Y449D01*
X489Y449D02*
X537Y449D01*
X912Y449D02*
X961Y449D01*
X1020Y449D02*
X1068Y449D01*
X1444Y449D02*
X1492Y449D01*
X1551Y449D02*
X1599Y449D01*
X1975Y449D02*
X2023Y449D01*
X2083Y449D02*
X2131Y449D01*
X381Y448D02*
X429Y448D01*
X488Y448D02*
X537Y448D01*
X912Y448D02*
X961Y448D01*
X1020Y448D02*
X1068Y448D01*
X1444Y448D02*
X1492Y448D01*
X1551Y448D02*
X1599Y448D01*
X1975Y448D02*
X2024Y448D01*
X2083Y448D02*
X2131Y448D01*
X381Y447D02*
X430Y447D01*
X488Y447D02*
X536Y447D01*
X912Y447D02*
X961Y447D01*
X1020Y447D02*
X1068Y447D01*
X1444Y447D02*
X1492Y447D01*
X1551Y447D02*
X1599Y447D01*
X1975Y447D02*
X2024Y447D01*
X2082Y447D02*
X2131Y447D01*
X381Y446D02*
X430Y446D01*
X488Y446D02*
X536Y446D01*
X913Y446D02*
X961Y446D01*
X1019Y446D02*
X1068Y446D01*
X1444Y446D02*
X1493Y446D01*
X1551Y446D02*
X1599Y446D01*
X1975Y446D02*
X2024Y446D01*
X2082Y446D02*
X2130Y446D01*
X381Y445D02*
X430Y445D01*
X488Y445D02*
X536Y445D01*
X913Y445D02*
X962Y445D01*
X1019Y445D02*
X1067Y445D01*
X1444Y445D02*
X1493Y445D01*
X1550Y445D02*
X1599Y445D01*
X1976Y445D02*
X2024Y445D01*
X2082Y445D02*
X2130Y445D01*
X382Y444D02*
X431Y444D01*
X487Y444D02*
X536Y444D01*
X913Y444D02*
X962Y444D01*
X1019Y444D02*
X1067Y444D01*
X1444Y444D02*
X1493Y444D01*
X1550Y444D02*
X1599Y444D01*
X1976Y444D02*
X2025Y444D01*
X2082Y444D02*
X2130Y444D01*
X382Y443D02*
X431Y443D01*
X487Y443D02*
X535Y443D01*
X913Y443D02*
X962Y443D01*
X1018Y443D02*
X1067Y443D01*
X1445Y443D02*
X1494Y443D01*
X1550Y443D02*
X1598Y443D01*
X1976Y443D02*
X2025Y443D01*
X2081Y443D02*
X2130Y443D01*
X382Y442D02*
X431Y442D01*
X487Y442D02*
X535Y442D01*
X914Y442D02*
X963Y442D01*
X1018Y442D02*
X1067Y442D01*
X1445Y442D02*
X1494Y442D01*
X1549Y442D02*
X1598Y442D01*
X1976Y442D02*
X2025Y442D01*
X2081Y442D02*
X2129Y442D01*
X383Y441D02*
X432Y441D01*
X486Y441D02*
X535Y441D01*
X914Y441D02*
X963Y441D01*
X1018Y441D02*
X1066Y441D01*
X1445Y441D02*
X1495Y441D01*
X1549Y441D02*
X1598Y441D01*
X1977Y441D02*
X2026Y441D01*
X2080Y441D02*
X2129Y441D01*
X383Y440D02*
X432Y440D01*
X486Y440D02*
X535Y440D01*
X914Y440D02*
X964Y440D01*
X1017Y440D02*
X1066Y440D01*
X1446Y440D02*
X1495Y440D01*
X1548Y440D02*
X1597Y440D01*
X1977Y440D02*
X2026Y440D01*
X2080Y440D02*
X2129Y440D01*
X383Y439D02*
X433Y439D01*
X485Y439D02*
X534Y439D01*
X915Y439D02*
X964Y439D01*
X1017Y439D02*
X1066Y439D01*
X1446Y439D02*
X1496Y439D01*
X1548Y439D02*
X1597Y439D01*
X1977Y439D02*
X2027Y439D01*
X2079Y439D02*
X2128Y439D01*
X384Y438D02*
X433Y438D01*
X485Y438D02*
X534Y438D01*
X915Y438D02*
X965Y438D01*
X1016Y438D02*
X1065Y438D01*
X1446Y438D02*
X1496Y438D01*
X1547Y438D02*
X1597Y438D01*
X1978Y438D02*
X2028Y438D01*
X2079Y438D02*
X2128Y438D01*
X384Y437D02*
X434Y437D01*
X484Y437D02*
X533Y437D01*
X916Y437D02*
X965Y437D01*
X1015Y437D02*
X1065Y437D01*
X1447Y437D02*
X1497Y437D01*
X1547Y437D02*
X1596Y437D01*
X1978Y437D02*
X2028Y437D01*
X2078Y437D02*
X2127Y437D01*
X385Y436D02*
X435Y436D01*
X483Y436D02*
X533Y436D01*
X916Y436D02*
X966Y436D01*
X1015Y436D02*
X1064Y436D01*
X1447Y436D02*
X1498Y436D01*
X1546Y436D02*
X1596Y436D01*
X1979Y436D02*
X2029Y436D01*
X2077Y436D02*
X2127Y436D01*
X385Y435D02*
X436Y435D01*
X482Y435D02*
X532Y435D01*
X916Y435D02*
X967Y435D01*
X1014Y435D02*
X1064Y435D01*
X1448Y435D02*
X1498Y435D01*
X1545Y435D02*
X1595Y435D01*
X1979Y435D02*
X2030Y435D01*
X2077Y435D02*
X2126Y435D01*
X386Y434D02*
X436Y434D01*
X482Y434D02*
X532Y434D01*
X917Y434D02*
X968Y434D01*
X1013Y434D02*
X1063Y434D01*
X1448Y434D02*
X1499Y434D01*
X1544Y434D02*
X1595Y434D01*
X1980Y434D02*
X2031Y434D01*
X2076Y434D02*
X2126Y434D01*
X386Y433D02*
X437Y433D01*
X481Y433D02*
X531Y433D01*
X918Y433D02*
X969Y433D01*
X1012Y433D02*
X1063Y433D01*
X1449Y433D02*
X1500Y433D01*
X1543Y433D02*
X1594Y433D01*
X1980Y433D02*
X2031Y433D01*
X2075Y433D02*
X2125Y433D01*
X387Y432D02*
X438Y432D01*
X480Y432D02*
X531Y432D01*
X918Y432D02*
X970Y432D01*
X1011Y432D02*
X1062Y432D01*
X1450Y432D02*
X1501Y432D01*
X1542Y432D02*
X1593Y432D01*
X1981Y432D02*
X2033Y432D01*
X2074Y432D02*
X2125Y432D01*
X388Y431D02*
X439Y431D01*
X478Y431D02*
X530Y431D01*
X919Y431D02*
X971Y431D01*
X1010Y431D02*
X1061Y431D01*
X1450Y431D02*
X1502Y431D01*
X1541Y431D02*
X1593Y431D01*
X1982Y431D02*
X2034Y431D01*
X2073Y431D02*
X2124Y431D01*
X388Y430D02*
X441Y430D01*
X477Y430D02*
X529Y430D01*
X920Y430D02*
X972Y430D01*
X1009Y430D02*
X1060Y430D01*
X1451Y430D02*
X1504Y430D01*
X1540Y430D02*
X1592Y430D01*
X1982Y430D02*
X2035Y430D01*
X2071Y430D02*
X2123Y430D01*
X389Y429D02*
X442Y429D01*
X476Y429D02*
X528Y429D01*
X920Y429D02*
X973Y429D01*
X1007Y429D02*
X1060Y429D01*
X1452Y429D02*
X1505Y429D01*
X1539Y429D02*
X1591Y429D01*
X1983Y429D02*
X2036Y429D01*
X2070Y429D02*
X2123Y429D01*
X390Y428D02*
X444Y428D01*
X474Y428D02*
X528Y428D01*
X921Y428D02*
X975Y428D01*
X1006Y428D02*
X1059Y428D01*
X1453Y428D02*
X1507Y428D01*
X1537Y428D02*
X1590Y428D01*
X1984Y428D02*
X2038Y428D01*
X2068Y428D02*
X2122Y428D01*
X391Y427D02*
X446Y427D01*
X472Y427D02*
X527Y427D01*
X922Y427D02*
X977Y427D01*
X1004Y427D02*
X1058Y427D01*
X1454Y427D02*
X1508Y427D01*
X1535Y427D02*
X1589Y427D01*
X1985Y427D02*
X2040Y427D01*
X2066Y427D02*
X2121Y427D01*
X392Y426D02*
X448Y426D01*
X470Y426D02*
X526Y426D01*
X923Y426D02*
X979Y426D01*
X1001Y426D02*
X1057Y426D01*
X1454Y426D02*
X1511Y426D01*
X1533Y426D02*
X1588Y426D01*
X1986Y426D02*
X2042Y426D01*
X2064Y426D02*
X2120Y426D01*
X393Y425D02*
X451Y425D01*
X467Y425D02*
X525Y425D01*
X924Y425D02*
X983Y425D01*
X998Y425D02*
X1056Y425D01*
X1456Y425D02*
X1514Y425D01*
X1530Y425D02*
X1587Y425D01*
X1987Y425D02*
X2045Y425D01*
X2061Y425D02*
X2119Y425D01*
X394Y424D02*
X524Y424D01*
X925Y424D02*
X1055Y424D01*
X1457Y424D02*
X1586Y424D01*
X1988Y424D02*
X2118Y424D01*
X395Y423D02*
X522Y423D01*
X926Y423D02*
X1054Y423D01*
X1458Y423D02*
X1585Y423D01*
X1989Y423D02*
X2117Y423D01*
X396Y422D02*
X521Y422D01*
X928Y422D02*
X1053Y422D01*
X1459Y422D02*
X1584Y422D01*
X1990Y422D02*
X2115Y422D01*
X398Y421D02*
X520Y421D01*
X929Y421D02*
X1051Y421D01*
X1460Y421D02*
X1583Y421D01*
X1992Y421D02*
X2114Y421D01*
X399Y420D02*
X518Y420D01*
X931Y420D02*
X1050Y420D01*
X1462Y420D02*
X1581Y420D01*
X1993Y420D02*
X2112Y420D01*
X401Y419D02*
X517Y419D01*
X932Y419D02*
X1048Y419D01*
X1464Y419D02*
X1579Y419D01*
X1995Y419D02*
X2111Y419D01*
X403Y418D02*
X514Y418D01*
X934Y418D02*
X1046Y418D01*
X1466Y418D02*
X1577Y418D01*
X1997Y418D02*
X2109Y418D01*
X405Y417D02*
X512Y417D01*
X937Y417D02*
X1044Y417D01*
X1468Y417D02*
X1575Y417D01*
X1999Y417D02*
X2106Y417D01*
X408Y416D02*
X510Y416D01*
X939Y416D02*
X1041Y416D01*
X1471Y416D02*
X1572Y416D01*
X2002Y416D02*
X2104Y416D01*
X412Y415D02*
X506Y415D01*
X943Y415D02*
X1037Y415D01*
X1474Y415D02*
X1569Y415D01*
X2006Y415D02*
X2100Y415D01*
X419Y296D02*
X498Y296D01*
X951Y296D02*
X1030Y296D01*
X1482Y296D02*
X1561Y296D01*
X2013Y296D02*
X2092Y296D01*
X411Y295D02*
X506Y295D01*
X942Y295D02*
X1038Y295D01*
X1474Y295D02*
X1569Y295D01*
X2005Y295D02*
X2101Y295D01*
X407Y294D02*
X510Y294D01*
X939Y294D02*
X1041Y294D01*
X1470Y294D02*
X1573Y294D01*
X2002Y294D02*
X2104Y294D01*
X405Y293D02*
X513Y293D01*
X936Y293D02*
X1044Y293D01*
X1467Y293D02*
X1575Y293D01*
X1999Y293D02*
X2107Y293D01*
X403Y292D02*
X515Y292D01*
X934Y292D02*
X1046Y292D01*
X1465Y292D02*
X1578Y292D01*
X1997Y292D02*
X2109Y292D01*
X401Y291D02*
X517Y291D01*
X932Y291D02*
X1048Y291D01*
X1463Y291D02*
X1580Y291D01*
X1995Y291D02*
X2111Y291D01*
X399Y290D02*
X518Y290D01*
X930Y290D02*
X1050Y290D01*
X1462Y290D02*
X1581Y290D01*
X1993Y290D02*
X2113Y290D01*
X397Y289D02*
X520Y289D01*
X929Y289D02*
X1051Y289D01*
X1460Y289D02*
X1583Y289D01*
X1992Y289D02*
X2114Y289D01*
X396Y288D02*
X521Y288D01*
X927Y288D02*
X1053Y288D01*
X1459Y288D02*
X1584Y288D01*
X1990Y288D02*
X2115Y288D01*
X395Y287D02*
X523Y287D01*
X926Y287D02*
X1054Y287D01*
X1458Y287D02*
X1585Y287D01*
X1989Y287D02*
X2117Y287D01*
X394Y286D02*
X456Y286D01*
X461Y286D02*
X524Y286D01*
X925Y286D02*
X988Y286D01*
X992Y286D02*
X1055Y286D01*
X1456Y286D02*
X1519Y286D01*
X1524Y286D02*
X1587Y286D01*
X1988Y286D02*
X2051Y286D01*
X2055Y286D02*
X2118Y286D01*
X393Y285D02*
X450Y285D01*
X467Y285D02*
X525Y285D01*
X924Y285D02*
X982Y285D01*
X998Y285D02*
X1056Y285D01*
X1455Y285D02*
X1513Y285D01*
X1530Y285D02*
X1588Y285D01*
X1987Y285D02*
X2045Y285D01*
X2061Y285D02*
X2119Y285D01*
X392Y284D02*
X447Y284D01*
X470Y284D02*
X526Y284D01*
X923Y284D02*
X979Y284D01*
X1001Y284D02*
X1057Y284D01*
X1454Y284D02*
X1510Y284D01*
X1533Y284D02*
X1589Y284D01*
X1986Y284D02*
X2042Y284D01*
X2064Y284D02*
X2120Y284D01*
X391Y283D02*
X445Y283D01*
X472Y283D02*
X527Y283D01*
X922Y283D02*
X976Y283D01*
X1004Y283D02*
X1058Y283D01*
X1453Y283D02*
X1508Y283D01*
X1535Y283D02*
X1590Y283D01*
X1985Y283D02*
X2039Y283D01*
X2066Y283D02*
X2121Y283D01*
X390Y282D02*
X443Y282D01*
X474Y282D02*
X528Y282D01*
X921Y282D02*
X975Y282D01*
X1006Y282D02*
X1059Y282D01*
X1453Y282D02*
X1506Y282D01*
X1537Y282D02*
X1590Y282D01*
X1984Y282D02*
X2037Y282D01*
X2068Y282D02*
X2122Y282D01*
X389Y281D02*
X442Y281D01*
X476Y281D02*
X528Y281D01*
X920Y281D02*
X973Y281D01*
X1007Y281D02*
X1060Y281D01*
X1452Y281D02*
X1504Y281D01*
X1539Y281D02*
X1591Y281D01*
X1983Y281D02*
X2036Y281D01*
X2070Y281D02*
X2123Y281D01*
X388Y280D02*
X440Y280D01*
X477Y280D02*
X529Y280D01*
X920Y280D02*
X972Y280D01*
X1008Y280D02*
X1061Y280D01*
X1451Y280D02*
X1503Y280D01*
X1540Y280D02*
X1592Y280D01*
X1982Y280D02*
X2034Y280D01*
X2071Y280D02*
X2123Y280D01*
X387Y279D02*
X439Y279D01*
X478Y279D02*
X530Y279D01*
X919Y279D02*
X970Y279D01*
X1010Y279D02*
X1061Y279D01*
X1450Y279D02*
X1502Y279D01*
X1541Y279D02*
X1593Y279D01*
X1982Y279D02*
X2033Y279D01*
X2073Y279D02*
X2124Y279D01*
X387Y278D02*
X438Y278D01*
X479Y278D02*
X531Y278D01*
X918Y278D02*
X969Y278D01*
X1011Y278D02*
X1062Y278D01*
X1450Y278D02*
X1501Y278D01*
X1542Y278D02*
X1593Y278D01*
X1981Y278D02*
X2032Y278D01*
X2074Y278D02*
X2125Y278D01*
X386Y277D02*
X437Y277D01*
X480Y277D02*
X531Y277D01*
X918Y277D02*
X968Y277D01*
X1012Y277D02*
X1063Y277D01*
X1449Y277D02*
X1500Y277D01*
X1543Y277D02*
X1594Y277D01*
X1980Y277D02*
X2031Y277D01*
X2075Y277D02*
X2125Y277D01*
X386Y276D02*
X436Y276D01*
X481Y276D02*
X532Y276D01*
X917Y276D02*
X967Y276D01*
X1013Y276D02*
X1063Y276D01*
X1448Y276D02*
X1499Y276D01*
X1544Y276D02*
X1595Y276D01*
X1980Y276D02*
X2030Y276D01*
X2076Y276D02*
X2126Y276D01*
X385Y275D02*
X435Y275D01*
X482Y275D02*
X532Y275D01*
X916Y275D02*
X967Y275D01*
X1014Y275D02*
X1064Y275D01*
X1448Y275D02*
X1498Y275D01*
X1545Y275D02*
X1595Y275D01*
X1979Y275D02*
X2029Y275D01*
X2076Y275D02*
X2127Y275D01*
X385Y274D02*
X434Y274D01*
X483Y274D02*
X533Y274D01*
X916Y274D02*
X966Y274D01*
X1014Y274D02*
X1064Y274D01*
X1447Y274D02*
X1497Y274D01*
X1546Y274D02*
X1596Y274D01*
X1979Y274D02*
X2029Y274D01*
X2077Y274D02*
X2127Y274D01*
X384Y273D02*
X434Y273D01*
X484Y273D02*
X533Y273D01*
X915Y273D02*
X965Y273D01*
X1015Y273D02*
X1065Y273D01*
X1447Y273D02*
X1496Y273D01*
X1547Y273D02*
X1596Y273D01*
X1978Y273D02*
X2028Y273D01*
X2078Y273D02*
X2128Y273D01*
X384Y272D02*
X433Y272D01*
X484Y272D02*
X534Y272D01*
X915Y272D02*
X964Y272D01*
X1016Y272D02*
X1065Y272D01*
X1446Y272D02*
X1496Y272D01*
X1547Y272D02*
X1597Y272D01*
X1978Y272D02*
X2027Y272D01*
X2078Y272D02*
X2128Y272D01*
X383Y271D02*
X432Y271D01*
X485Y271D02*
X534Y271D01*
X915Y271D02*
X964Y271D01*
X1016Y271D02*
X1066Y271D01*
X1446Y271D02*
X1495Y271D01*
X1548Y271D02*
X1597Y271D01*
X1977Y271D02*
X2027Y271D01*
X2079Y271D02*
X2128Y271D01*
X383Y270D02*
X432Y270D01*
X485Y270D02*
X535Y270D01*
X914Y270D02*
X963Y270D01*
X1017Y270D02*
X1066Y270D01*
X1446Y270D02*
X1495Y270D01*
X1548Y270D02*
X1597Y270D01*
X1977Y270D02*
X2026Y270D01*
X2080Y270D02*
X2129Y270D01*
X382Y269D02*
X431Y269D01*
X486Y269D02*
X535Y269D01*
X914Y269D02*
X963Y269D01*
X1017Y269D02*
X1066Y269D01*
X1445Y269D02*
X1494Y269D01*
X1549Y269D02*
X1598Y269D01*
X1977Y269D02*
X2026Y269D01*
X2080Y269D02*
X2129Y269D01*
X382Y268D02*
X431Y268D01*
X486Y268D02*
X535Y268D01*
X914Y268D02*
X962Y268D01*
X1018Y268D02*
X1067Y268D01*
X1445Y268D02*
X1494Y268D01*
X1549Y268D02*
X1598Y268D01*
X1976Y268D02*
X2025Y268D01*
X2081Y268D02*
X2129Y268D01*
X382Y267D02*
X431Y267D01*
X487Y267D02*
X536Y267D01*
X913Y267D02*
X962Y267D01*
X1018Y267D02*
X1067Y267D01*
X1445Y267D02*
X1493Y267D01*
X1550Y267D02*
X1598Y267D01*
X1976Y267D02*
X2025Y267D01*
X2081Y267D02*
X2130Y267D01*
X382Y266D02*
X430Y266D01*
X487Y266D02*
X536Y266D01*
X913Y266D02*
X962Y266D01*
X1019Y266D02*
X1067Y266D01*
X1444Y266D02*
X1493Y266D01*
X1550Y266D02*
X1599Y266D01*
X1976Y266D02*
X2024Y266D01*
X2081Y266D02*
X2130Y266D01*
X381Y265D02*
X430Y265D01*
X487Y265D02*
X536Y265D01*
X913Y265D02*
X961Y265D01*
X1019Y265D02*
X1067Y265D01*
X1444Y265D02*
X1493Y265D01*
X1550Y265D02*
X1599Y265D01*
X1976Y265D02*
X2024Y265D01*
X2082Y265D02*
X2130Y265D01*
X381Y264D02*
X430Y264D01*
X488Y264D02*
X536Y264D01*
X913Y264D02*
X961Y264D01*
X1019Y264D02*
X1068Y264D01*
X1444Y264D02*
X1492Y264D01*
X1551Y264D02*
X1599Y264D01*
X1975Y264D02*
X2024Y264D01*
X2082Y264D02*
X2130Y264D01*
X381Y263D02*
X429Y263D01*
X488Y263D02*
X536Y263D01*
X912Y263D02*
X961Y263D01*
X1019Y263D02*
X1068Y263D01*
X1444Y263D02*
X1492Y263D01*
X1551Y263D02*
X1599Y263D01*
X1975Y263D02*
X2024Y263D01*
X2082Y263D02*
X2131Y263D01*
X381Y262D02*
X429Y262D01*
X488Y262D02*
X537Y262D01*
X912Y262D02*
X961Y262D01*
X1020Y262D02*
X1068Y262D01*
X1444Y262D02*
X1492Y262D01*
X1551Y262D02*
X1599Y262D01*
X1975Y262D02*
X2023Y262D01*
X2082Y262D02*
X2131Y262D01*
X381Y261D02*
X429Y261D01*
X488Y261D02*
X537Y261D01*
X912Y261D02*
X960Y261D01*
X1020Y261D02*
X1068Y261D01*
X1444Y261D02*
X1492Y261D01*
X1551Y261D02*
X1599Y261D01*
X1975Y261D02*
X2023Y261D01*
X2083Y261D02*
X2131Y261D01*
X381Y260D02*
X429Y260D01*
X489Y260D02*
X537Y260D01*
X912Y260D02*
X960Y260D01*
X1020Y260D02*
X1068Y260D01*
X1443Y260D02*
X1492Y260D01*
X1551Y260D02*
X1600Y260D01*
X1975Y260D02*
X2023Y260D01*
X2083Y260D02*
X2131Y260D01*
X381Y259D02*
X429Y259D01*
X489Y259D02*
X537Y259D01*
X912Y259D02*
X960Y259D01*
X1020Y259D02*
X1068Y259D01*
X1443Y259D02*
X1492Y259D01*
X1551Y259D02*
X1600Y259D01*
X1975Y259D02*
X2023Y259D01*
X2083Y259D02*
X2131Y259D01*
X381Y258D02*
X429Y258D01*
X489Y258D02*
X537Y258D01*
X912Y258D02*
X960Y258D01*
X1020Y258D02*
X1068Y258D01*
X1443Y258D02*
X1492Y258D01*
X1551Y258D02*
X1600Y258D01*
X1975Y258D02*
X2023Y258D01*
X2083Y258D02*
X2131Y258D01*
X381Y257D02*
X429Y257D01*
X489Y257D02*
X537Y257D01*
X912Y257D02*
X960Y257D01*
X1020Y257D02*
X1068Y257D01*
X1443Y257D02*
X1491Y257D01*
X1551Y257D02*
X1600Y257D01*
X1975Y257D02*
X2023Y257D01*
X2083Y257D02*
X2131Y257D01*
X381Y256D02*
X429Y256D01*
X489Y256D02*
X537Y256D01*
X912Y256D02*
X960Y256D01*
X1020Y256D02*
X1068Y256D01*
X1443Y256D02*
X1491Y256D01*
X1551Y256D02*
X1600Y256D01*
X1975Y256D02*
X2023Y256D01*
X2083Y256D02*
X2131Y256D01*
X381Y255D02*
X429Y255D01*
X489Y255D02*
X537Y255D01*
X912Y255D02*
X960Y255D01*
X1020Y255D02*
X1068Y255D01*
X1443Y255D02*
X1492Y255D01*
X1551Y255D02*
X1600Y255D01*
X1975Y255D02*
X2023Y255D01*
X2083Y255D02*
X2131Y255D01*
X381Y254D02*
X429Y254D01*
X489Y254D02*
X537Y254D01*
X912Y254D02*
X960Y254D01*
X1020Y254D02*
X1068Y254D01*
X1443Y254D02*
X1492Y254D01*
X1551Y254D02*
X1600Y254D01*
X1975Y254D02*
X2023Y254D01*
X2083Y254D02*
X2131Y254D01*
X381Y253D02*
X429Y253D01*
X488Y253D02*
X537Y253D01*
X912Y253D02*
X960Y253D01*
X1020Y253D02*
X1068Y253D01*
X1443Y253D02*
X1492Y253D01*
X1551Y253D02*
X1600Y253D01*
X1975Y253D02*
X2023Y253D01*
X2083Y253D02*
X2131Y253D01*
X381Y252D02*
X429Y252D01*
X488Y252D02*
X537Y252D01*
X912Y252D02*
X960Y252D01*
X1020Y252D02*
X1068Y252D01*
X1444Y252D02*
X1492Y252D01*
X1551Y252D02*
X1599Y252D01*
X1975Y252D02*
X2023Y252D01*
X2082Y252D02*
X2131Y252D01*
X381Y251D02*
X429Y251D01*
X488Y251D02*
X536Y251D01*
X912Y251D02*
X961Y251D01*
X1020Y251D02*
X1068Y251D01*
X1444Y251D02*
X1492Y251D01*
X1551Y251D02*
X1599Y251D01*
X1975Y251D02*
X2023Y251D01*
X2082Y251D02*
X2131Y251D01*
X381Y250D02*
X429Y250D01*
X488Y250D02*
X536Y250D01*
X912Y250D02*
X961Y250D01*
X1019Y250D02*
X1068Y250D01*
X1444Y250D02*
X1492Y250D01*
X1551Y250D02*
X1599Y250D01*
X1975Y250D02*
X2024Y250D01*
X2082Y250D02*
X2130Y250D01*
X381Y249D02*
X430Y249D01*
X488Y249D02*
X536Y249D01*
X913Y249D02*
X961Y249D01*
X1019Y249D02*
X1068Y249D01*
X1444Y249D02*
X1493Y249D01*
X1550Y249D02*
X1599Y249D01*
X1975Y249D02*
X2024Y249D01*
X2082Y249D02*
X2130Y249D01*
X381Y248D02*
X430Y248D01*
X487Y248D02*
X536Y248D01*
X913Y248D02*
X961Y248D01*
X1019Y248D02*
X1067Y248D01*
X1444Y248D02*
X1493Y248D01*
X1550Y248D02*
X1599Y248D01*
X1976Y248D02*
X2024Y248D01*
X2082Y248D02*
X2130Y248D01*
X382Y247D02*
X430Y247D01*
X487Y247D02*
X536Y247D01*
X913Y247D02*
X962Y247D01*
X1018Y247D02*
X1067Y247D01*
X1445Y247D02*
X1493Y247D01*
X1550Y247D02*
X1598Y247D01*
X1976Y247D02*
X2024Y247D01*
X2081Y247D02*
X2130Y247D01*
X382Y246D02*
X431Y246D01*
X487Y246D02*
X535Y246D01*
X913Y246D02*
X962Y246D01*
X1018Y246D02*
X1067Y246D01*
X1445Y246D02*
X1493Y246D01*
X1549Y246D02*
X1598Y246D01*
X1976Y246D02*
X2025Y246D01*
X2081Y246D02*
X2130Y246D01*
X382Y245D02*
X431Y245D01*
X486Y245D02*
X535Y245D01*
X914Y245D02*
X962Y245D01*
X1018Y245D02*
X1067Y245D01*
X1445Y245D02*
X1494Y245D01*
X1549Y245D02*
X1598Y245D01*
X1976Y245D02*
X2025Y245D01*
X2080Y245D02*
X2129Y245D01*
X383Y244D02*
X432Y244D01*
X486Y244D02*
X535Y244D01*
X914Y244D02*
X963Y244D01*
X1017Y244D02*
X1066Y244D01*
X1445Y244D02*
X1494Y244D01*
X1549Y244D02*
X1598Y244D01*
X1977Y244D02*
X2026Y244D01*
X2080Y244D02*
X2129Y244D01*
X383Y243D02*
X432Y243D01*
X485Y243D02*
X534Y243D01*
X914Y243D02*
X963Y243D01*
X1017Y243D02*
X1066Y243D01*
X1446Y243D02*
X1495Y243D01*
X1548Y243D02*
X1597Y243D01*
X1977Y243D02*
X2026Y243D01*
X2080Y243D02*
X2129Y243D01*
X383Y242D02*
X433Y242D01*
X485Y242D02*
X534Y242D01*
X915Y242D02*
X964Y242D01*
X1016Y242D02*
X1065Y242D01*
X1446Y242D02*
X1495Y242D01*
X1548Y242D02*
X1597Y242D01*
X1978Y242D02*
X2027Y242D01*
X2079Y242D02*
X2128Y242D01*
X384Y241D02*
X433Y241D01*
X484Y241D02*
X534Y241D01*
X915Y241D02*
X965Y241D01*
X1016Y241D02*
X1065Y241D01*
X1447Y241D02*
X1496Y241D01*
X1547Y241D02*
X1596Y241D01*
X1978Y241D02*
X2027Y241D01*
X2078Y241D02*
X2128Y241D01*
X384Y240D02*
X434Y240D01*
X484Y240D02*
X533Y240D01*
X916Y240D02*
X965Y240D01*
X1015Y240D02*
X1065Y240D01*
X1447Y240D02*
X1497Y240D01*
X1546Y240D02*
X1596Y240D01*
X1978Y240D02*
X2028Y240D01*
X2078Y240D02*
X2127Y240D01*
X385Y239D02*
X435Y239D01*
X483Y239D02*
X533Y239D01*
X916Y239D02*
X966Y239D01*
X1014Y239D02*
X1064Y239D01*
X1448Y239D02*
X1497Y239D01*
X1546Y239D02*
X1595Y239D01*
X1979Y239D02*
X2029Y239D01*
X2077Y239D02*
X2127Y239D01*
X385Y238D02*
X435Y238D01*
X482Y238D02*
X532Y238D01*
X917Y238D02*
X967Y238D01*
X1013Y238D02*
X1064Y238D01*
X1448Y238D02*
X1498Y238D01*
X1545Y238D02*
X1595Y238D01*
X1979Y238D02*
X2030Y238D01*
X2076Y238D02*
X2126Y238D01*
X386Y237D02*
X436Y237D01*
X481Y237D02*
X532Y237D01*
X917Y237D02*
X968Y237D01*
X1013Y237D02*
X1063Y237D01*
X1449Y237D02*
X1499Y237D01*
X1544Y237D02*
X1594Y237D01*
X1980Y237D02*
X2030Y237D01*
X2075Y237D02*
X2126Y237D01*
X386Y236D02*
X437Y236D01*
X480Y236D02*
X531Y236D01*
X918Y236D02*
X969Y236D01*
X1012Y236D02*
X1062Y236D01*
X1449Y236D02*
X1500Y236D01*
X1543Y236D02*
X1594Y236D01*
X1981Y236D02*
X2031Y236D01*
X2074Y236D02*
X2125Y236D01*
X387Y235D02*
X438Y235D01*
X479Y235D02*
X530Y235D01*
X918Y235D02*
X970Y235D01*
X1011Y235D02*
X1062Y235D01*
X1450Y235D02*
X1501Y235D01*
X1542Y235D02*
X1593Y235D01*
X1981Y235D02*
X2032Y235D01*
X2073Y235D02*
X2125Y235D01*
X388Y234D02*
X439Y234D01*
X478Y234D02*
X530Y234D01*
X919Y234D02*
X971Y234D01*
X1009Y234D02*
X1061Y234D01*
X1450Y234D02*
X1502Y234D01*
X1541Y234D02*
X1592Y234D01*
X1982Y234D02*
X2033Y234D01*
X2072Y234D02*
X2124Y234D01*
X388Y233D02*
X441Y233D01*
X477Y233D02*
X529Y233D01*
X920Y233D02*
X972Y233D01*
X1008Y233D02*
X1060Y233D01*
X1451Y233D02*
X1503Y233D01*
X1540Y233D02*
X1592Y233D01*
X1983Y233D02*
X2035Y233D01*
X2071Y233D02*
X2123Y233D01*
X389Y232D02*
X442Y232D01*
X475Y232D02*
X528Y232D01*
X921Y232D02*
X973Y232D01*
X1007Y232D02*
X1060Y232D01*
X1452Y232D02*
X1505Y232D01*
X1538Y232D02*
X1591Y232D01*
X1983Y232D02*
X2036Y232D01*
X2070Y232D02*
X2122Y232D01*
X390Y231D02*
X444Y231D01*
X474Y231D02*
X527Y231D01*
X921Y231D02*
X975Y231D01*
X1005Y231D02*
X1059Y231D01*
X1453Y231D02*
X1506Y231D01*
X1537Y231D02*
X1590Y231D01*
X1984Y231D02*
X2038Y231D01*
X2068Y231D02*
X2122Y231D01*
X391Y230D02*
X446Y230D01*
X472Y230D02*
X526Y230D01*
X922Y230D02*
X977Y230D01*
X1003Y230D02*
X1058Y230D01*
X1454Y230D02*
X1508Y230D01*
X1535Y230D02*
X1589Y230D01*
X1985Y230D02*
X2040Y230D01*
X2066Y230D02*
X2121Y230D01*
X392Y229D02*
X448Y229D01*
X469Y229D02*
X526Y229D01*
X923Y229D02*
X979Y229D01*
X1001Y229D02*
X1057Y229D01*
X1455Y229D02*
X1511Y229D01*
X1532Y229D02*
X1588Y229D01*
X1986Y229D02*
X2042Y229D01*
X2064Y229D02*
X2120Y229D01*
X393Y228D02*
X451Y228D01*
X466Y228D02*
X524Y228D01*
X924Y228D02*
X983Y228D01*
X997Y228D02*
X1056Y228D01*
X1456Y228D02*
X1514Y228D01*
X1529Y228D02*
X1587Y228D01*
X1987Y228D02*
X2045Y228D01*
X2060Y228D02*
X2119Y228D01*
X394Y227D02*
X523Y227D01*
X925Y227D02*
X1055Y227D01*
X1457Y227D02*
X1586Y227D01*
X1988Y227D02*
X2118Y227D01*
X395Y226D02*
X522Y226D01*
X927Y226D02*
X1054Y226D01*
X1458Y226D02*
X1585Y226D01*
X1989Y226D02*
X2116Y226D01*
X397Y225D02*
X521Y225D01*
X928Y225D02*
X1052Y225D01*
X1459Y225D02*
X1584Y225D01*
X1991Y225D02*
X2115Y225D01*
X398Y224D02*
X520Y224D01*
X929Y224D02*
X1051Y224D01*
X1461Y224D02*
X1582Y224D01*
X1992Y224D02*
X2114Y224D01*
X400Y223D02*
X518Y223D01*
X931Y223D02*
X1049Y223D01*
X1462Y223D02*
X1581Y223D01*
X1994Y223D02*
X2112Y223D01*
X401Y222D02*
X516Y222D01*
X933Y222D02*
X1048Y222D01*
X1464Y222D02*
X1579Y222D01*
X1995Y222D02*
X2110Y222D01*
X403Y221D02*
X514Y221D01*
X935Y221D02*
X1046Y221D01*
X1466Y221D02*
X1577Y221D01*
X1997Y221D02*
X2108Y221D01*
X406Y220D02*
X512Y220D01*
X937Y220D02*
X1043Y220D01*
X1468Y220D02*
X1575Y220D01*
X2000Y220D02*
X2106Y220D01*
X408Y219D02*
X509Y219D01*
X940Y219D02*
X1040Y219D01*
X1471Y219D02*
X1572Y219D01*
X2003Y219D02*
X2103Y219D01*
X413Y218D02*
X505Y218D01*
X944Y218D02*
X1036Y218D01*
X1475Y218D02*
X1568Y218D01*
X2007Y218D02*
X2099Y218D01*
D02*
G04 End of Copper1*
M02*