,Channel 1,Channel 2,Channel 3,Channel 4
0,0,1.00,0,0
1,0,1.00,0,0
2,0,1.00,0,0
3,0,1.00,0,0
4,0,1.00,0,0
5,0,1.00,0,0
6,0,1.00,0,0
7,0,1.00,0,0
8,0,1.00,0,0
9,0,1.00,0,0
10,0,1.00,0,0
11,0,1.00,0,0
12,0,1.00,0,0
13,0,1.00,0,0
14,0,1.00,0,0
15,0,1.00,0,0
16,0,1.00,0,0
17,0,1.00,0,0
18,0,1.00,0,0
19,0,1.00,0,0
20,0,1.00,0,0
21,0,1.00,0,0
22,0,1.00,0,0
23,0,1.00,0,0
24,0,1.00,0,0
25,0,1.00,0,0
26,0,1.00,0,0
27,0,1.00,0,0
28,0,1.00,0,0
29,0,1.00,0,0
30,2,0.00,0,0
31,2,0.00,0,0
32,2,0.00,0,0
33,2,0.00,0,0
34,2,0.00,0,0
35,2,0.00,0,0
36,2,0.00,0,0
37,2,0.00,0,0
38,2,0.00,0,0
39,2,0.00,0,0
40,2,0.00,0,0
41,2,0.00,0,0
42,2,0.00,0,0
43,2,0.00,0,0
44,2,0.00,0,0
45,2,0.00,0,0
46,2,0.00,0,0
47,2,0.00,0,0
48,2,0.00,0,0
49,2,0.00,0,0
50,2,0.00,0,0
51,2,0.00,0,0
52,2,0.00,0,0
53,2,0.00,0,0
54,2,0.00,0,0
55,2,0.00,0,0
56,2,0.00,0,0
57,2,0.00,0,0
58,2,0.00,0,0
59,2,0.00,0,0
60,0,4.00,0,0
61,0,4.00,0,0
62,0,4.00,0,0
63,0,4.00,0,0
64,0,4.00,0,0
65,0,4.00,0,0
66,0,4.00,0,0
67,0,4.00,0,0
68,0,4.00,0,0
69,0,4.00,0,0
70,0,4.00,0,0
71,0,4.00,0,0
72,0,4.00,0,0
73,0,4.00,0,0
74,0,4.00,0,0
75,0,4.00,0,0
76,0,4.00,0,0
77,0,4.00,0,0
78,0,4.00,0,0
79,0,4.00,0,0
80,0,4.00,0,0
81,0,4.00,0,0
82,0,4.00,0,0
83,0,4.00,0,0
84,0,4.00,0,0
85,0,4.00,0,0
86,0,4.00,0,0
87,0,4.00,0,0
88,0,4.00,0,0
89,0,4.00,0,0
90,6,0.00,0,0
91,6,0.00,0,0
92,6,0.00,0,0
93,6,0.00,0,0
94,6,0.00,0,0
95,6,0.00,0,0
96,6,0.00,0,0
97,6,0.00,0,0
98,6,0.00,0,0
99,6,0.00,0,0
100,6,0.00,0,0
101,6,0.00,0,0
102,6,0.00,0,0
103,6,0.00,0,0
104,6,0.00,0,0
105,6,0.00,0,0
106,6,0.00,0,0
107,6,0.00,0,0
108,6,0.00,0,0
109,6,0.00,0,0
110,6,0.00,0,0
111,6,0.00,0,0
112,6,0.00,0,0
113,6,0.00,0,0
114,6,0.00,0,0
115,6,0.00,0,0
116,6,0.00,0,0
117,6,0.00,0,0
118,6,0.00,0,0
119,6,0.00,0,0
120,0,12.00,0,0
121,0,12.00,0,0
122,0,12.00,0,0
123,0,12.00,0,0
124,0,12.00,0,0
125,0,12.00,0,0
126,0,12.00,0,0
127,0,12.00,0,0
128,0,12.00,0,0
129,0,12.00,0,0
130,0,12.00,0,0
131,0,12.00,0,0
132,0,12.00,0,0
133,0,12.00,0,0
134,0,12.00,0,0
135,0,12.00,0,0
136,0,12.00,0,0
137,0,12.00,0,0
138,0,12.00,0,0
139,0,12.00,0,0
140,0,12.00,0,0
141,0,12.00,0,0
142,0,12.00,0,0
143,0,12.00,0,0
144,0,12.00,0,0
145,0,12.00,0,0
146,0,12.00,0,0
147,0,12.00,0,0
148,0,12.00,0,0
149,0,12.00,0,0
150,24,0.00,0,0
151,24,0.00,0,0
152,24,0.00,0,0
153,24,0.00,0,0
154,24,0.00,0,0
155,24,0.00,0,0
156,24,0.00,0,0
157,24,0.00,0,0
158,24,0.00,0,0
159,24,0.00,0,0
160,24,0.00,0,0
161,24,0.00,0,0
162,24,0.00,0,0
163,24,0.00,0,0
164,24,0.00,0,0
165,24,0.00,0,0
166,24,0.00,0,0
167,24,0.00,0,0
168,24,0.00,0,0
169,24,0.00,0,0
170,24,0.00,0,0
171,24,0.00,0,0
172,24,0.00,0,0
173,24,0.00,0,0
174,24,0.00,0,0
175,24,0.00,0,0
176,24,0.00,0,0
177,24,0.00,0,0
178,24,0.00,0,0
179,24,0.00,0,0
180,0,55.50,0,0
181,0,55.50,0,0
182,0,55.50,0,0
183,0,55.50,0,0
184,0,55.50,0,0
185,0,55.50,0,0
186,0,55.50,0,0
187,0,55.50,0,0
188,0,55.50,0,0
189,0,55.50,0,0
190,0,55.50,0,0
191,0,55.50,0,0
192,0,55.50,0,0
193,0,55.50,0,0
194,0,55.50,0,0
195,0,55.50,0,0
196,0,55.50,0,0
197,0,55.50,0,0
198,0,55.50,0,0
199,0,55.50,0,0
200,0,55.50,0,0
201,0,55.50,0,0
202,0,55.50,0,0
203,0,55.50,0,0
204,0,55.50,0,0
205,0,55.50,0,0
206,0,55.50,0,0
207,0,55.50,0,0
208,0,55.50,0,0
209,0,55.50,0,0
210,100,0.00,0,0
211,100,0.00,0,0
212,100,0.00,0,0
213,100,0.00,0,0
214,100,0.00,0,0
215,100,0.00,0,0
216,100,0.00,0,0
217,100,0.00,0,0
218,100,0.00,0,0
219,100,0.00,0,0
220,100,0.00,0,0
221,100,0.00,0,0
222,100,0.00,0,0
223,100,0.00,0,0
224,100,0.00,0,0
225,100,0.00,0,0
226,100,0.00,0,0
227,100,0.00,0,0
228,100,0.00,0,0
229,100,0.00,0,0
230,100,0.00,0,0
231,100,0.00,0,0
232,100,0.00,0,0
233,100,0.00,0,0
234,100,0.00,0,0
235,100,0.00,0,0
236,100,0.00,0,0
237,100,0.00,0,0
238,100,0.00,0,0
239,100,0.00,0,0
240,0,55.50,0,0
241,0,55.50,0,0
242,0,55.50,0,0
243,0,55.50,0,0
244,0,55.50,0,0
245,0,55.50,0,0
246,0,55.50,0,0
247,0,55.50,0,0
248,0,55.50,0,0
249,0,55.50,0,0
250,0,55.50,0,0
251,0,55.50,0,0
252,0,55.50,0,0
253,0,55.50,0,0
254,0,55.50,0,0
255,0,55.50,0,0
256,0,55.50,0,0
257,0,55.50,0,0
258,0,55.50,0,0
259,0,55.50,0,0
260,0,55.50,0,0
261,0,55.50,0,0
262,0,55.50,0,0
263,0,55.50,0,0
264,0,55.50,0,0
265,0,55.50,0,0
266,0,55.50,0,0
267,0,55.50,0,0
268,0,55.50,0,0
269,0,55.50,0,0
270,24,0.00,0,0
271,24,0.00,0,0
272,24,0.00,0,0
273,24,0.00,0,0
274,24,0.00,0,0
275,24,0.00,0,0
276,24,0.00,0,0
277,24,0.00,0,0
278,24,0.00,0,0
279,24,0.00,0,0
280,24,0.00,0,0
281,24,0.00,0,0
282,24,0.00,0,0
283,24,0.00,0,0
284,24,0.00,0,0
285,24,0.00,0,0
286,24,0.00,0,0
287,24,0.00,0,0
288,24,0.00,0,0
289,24,0.00,0,0
290,24,0.00,0,0
291,24,0.00,0,0
292,24,0.00,0,0
293,24,0.00,0,0
294,24,0.00,0,0
295,24,0.00,0,0
296,24,0.00,0,0
297,24,0.00,0,0
298,24,0.00,0,0
299,24,0.00,0,0
300,0,12.00,0,0
301,0,12.00,0,0
302,0,12.00,0,0
303,0,12.00,0,0
304,0,12.00,0,0
305,0,12.00,0,0
306,0,12.00,0,0
307,0,12.00,0,0
308,0,12.00,0,0
309,0,12.00,0,0
310,0,12.00,0,0
311,0,12.00,0,0
312,0,12.00,0,0
313,0,12.00,0,0
314,0,12.00,0,0
315,0,12.00,0,0
316,0,12.00,0,0
317,0,12.00,0,0
318,0,12.00,0,0
319,0,12.00,0,0
320,0,12.00,0,0
321,0,12.00,0,0
322,0,12.00,0,0
323,0,12.00,0,0
324,0,12.00,0,0
325,0,12.00,0,0
326,0,12.00,0,0
327,0,12.00,0,0
328,0,12.00,0,0
329,0,12.00,0,0
330,6,0.00,0,0
331,6,0.00,0,0
332,6,0.00,0,0
333,6,0.00,0,0
334,6,0.00,0,0
335,6,0.00,0,0
336,6,0.00,0,0
337,6,0.00,0,0
338,6,0.00,0,0
339,6,0.00,0,0
340,6,0.00,0,0
341,6,0.00,0,0
342,6,0.00,0,0
343,6,0.00,0,0
344,6,0.00,0,0
345,6,0.00,0,0
346,6,0.00,0,0
347,6,0.00,0,0
348,6,0.00,0,0
349,6,0.00,0,0
350,6,0.00,0,0
351,6,0.00,0,0
352,6,0.00,0,0
353,6,0.00,0,0
354,6,0.00,0,0
355,6,0.00,0,0
356,6,0.00,0,0
357,6,0.00,0,0
358,6,0.00,0,0
359,6,0.00,0,0
360,0,4.00,0,0
361,0,4.00,0,0
362,0,4.00,0,0
363,0,4.00,0,0
364,0,4.00,0,0
365,0,4.00,0,0
366,0,4.00,0,0
367,0,4.00,0,0
368,0,4.00,0,0
369,0,4.00,0,0
370,0,4.00,0,0
371,0,4.00,0,0
372,0,4.00,0,0
373,0,4.00,0,0
374,0,4.00,0,0
375,0,4.00,0,0
376,0,4.00,0,0
377,0,4.00,0,0
378,0,4.00,0,0
379,0,4.00,0,0
380,0,4.00,0,0
381,0,4.00,0,0
382,0,4.00,0,0
383,0,4.00,0,0
384,0,4.00,0,0
385,0,4.00,0,0
386,0,4.00,0,0
387,0,4.00,0,0
388,0,4.00,0,0
389,0,4.00,0,0
390,2,0.00,0,0
391,2,0.00,0,0
392,2,0.00,0,0
393,2,0.00,0,0
394,2,0.00,0,0
395,2,0.00,0,0
396,2,0.00,0,0
397,2,0.00,0,0
398,2,0.00,0,0
399,2,0.00,0,0
400,2,0.00,0,0
401,2,0.00,0,0
402,2,0.00,0,0
403,2,0.00,0,0
404,2,0.00,0,0
405,2,0.00,0,0
406,2,0.00,0,0
407,2,0.00,0,0
408,2,0.00,0,0
409,2,0.00,0,0
410,2,0.00,0,0
411,2,0.00,0,0
412,2,0.00,0,0
413,2,0.00,0,0
414,2,0.00,0,0
415,2,0.00,0,0
416,2,0.00,0,0
417,2,0.00,0,0
418,2,0.00,0,0
419,2,0.00,0,0
420,0,1.00,0,0
421,0,1.00,0,0
422,0,1.00,0,0
423,0,1.00,0,0
424,0,1.00,0,0
425,0,1.00,0,0
426,0,1.00,0,0
427,0,1.00,0,0
428,0,1.00,0,0
429,0,1.00,0,0
430,0,1.00,0,0
431,0,1.00,0,0
432,0,1.00,0,0
433,0,1.00,0,0
434,0,1.00,0,0
435,0,1.00,0,0
436,0,1.00,0,0
437,0,1.00,0,0
438,0,1.00,0,0
439,0,1.00,0,0
440,0,1.00,0,0
441,0,1.00,0,0
442,0,1.00,0,0
443,0,1.00,0,0
444,0,1.00,0,0
445,0,1.00,0,0
446,0,1.00,0,0
447,0,1.00,0,0
448,0,1.00,0,0
449,0,1.00,0,0
450,100,0.00,0,0
451,100,0.00,0,0
452,100,0.00,0,0
453,100,0.00,0,0
454,100,0.00,0,0
455,100,0.00,0,0
456,100,0.00,0,0
457,100,0.00,0,0
458,100,0.00,0,0
459,100,0.00,0,0
460,100,0.00,0,0
461,100,0.00,0,0
462,100,0.00,0,0
463,100,0.00,0,0
464,100,0.00,0,0
465,100,0.00,0,0
466,100,0.00,0,0
467,100,0.00,0,0
468,100,0.00,0,0
469,100,0.00,0,0
470,100,0.00,0,0
471,100,0.00,0,0
472,100,0.00,0,0
473,100,0.00,0,0
474,100,0.00,0,0
475,100,0.00,0,0
476,100,0.00,0,0
477,100,0.00,0,0
478,100,0.00,0,0
479,100,0.00,0,0
480,0,100.00,0,0
481,0,100.00,0,0
482,0,100.00,0,0
483,0,100.00,0,0
484,0,100.00,0,0
485,0,100.00,0,0
486,0,100.00,0,0
487,0,100.00,0,0
488,0,100.00,0,0
489,0,100.00,0,0
490,0,100.00,0,0
491,0,100.00,0,0
492,0,100.00,0,0
493,0,100.00,0,0
494,0,100.00,0,0
495,0,100.00,0,0
496,0,100.00,0,0
497,0,100.00,0,0
498,0,100.00,0,0
499,0,100.00,0,0
500,0,100.00,0,0
501,0,100.00,0,0
502,0,100.00,0,0
503,0,100.00,0,0
504,0,100.00,0,0
505,0,100.00,0,0
506,0,100.00,0,0
507,0,100.00,0,0
508,0,100.00,0,0
509,0,100.00,0,0
510,100,0.00,0,0
511,100,0.00,0,0
512,100,0.00,0,0
513,100,0.00,0,0
514,100,0.00,0,0
515,100,0.00,0,0
516,100,0.00,0,0
517,100,0.00,0,0
518,100,0.00,0,0
519,100,0.00,0,0
520,100,0.00,0,0
521,100,0.00,0,0
522,100,0.00,0,0
523,100,0.00,0,0
524,100,0.00,0,0
525,100,0.00,0,0
526,100,0.00,0,0
527,100,0.00,0,0
528,100,0.00,0,0
529,100,0.00,0,0
530,100,0.00,0,0
531,100,0.00,0,0
532,100,0.00,0,0
533,100,0.00,0,0
534,100,0.00,0,0
535,100,0.00,0,0
536,100,0.00,0,0
537,100,0.00,0,0
538,100,0.00,0,0
539,100,0.00,0,0
540,0,100.00,0,0
541,0,100.00,0,0
542,0,100.00,0,0
543,0,100.00,0,0
544,0,100.00,0,0
545,0,100.00,0,0
546,0,100.00,0,0
547,0,100.00,0,0
548,0,100.00,0,0
549,0,100.00,0,0
550,0,100.00,0,0
551,0,100.00,0,0
552,0,100.00,0,0
553,0,100.00,0,0
554,0,100.00,0,0
555,0,100.00,0,0
556,0,100.00,0,0
557,0,100.00,0,0
558,0,100.00,0,0
559,0,100.00,0,0
560,0,100.00,0,0
561,0,100.00,0,0
562,0,100.00,0,0
563,0,100.00,0,0
564,0,100.00,0,0
565,0,100.00,0,0
566,0,100.00,0,0
567,0,100.00,0,0
568,0,100.00,0,0
569,0,100.00,0,0
570,100,0.00,0,0
571,100,0.00,0,0
572,100,0.00,0,0
573,100,0.00,0,0
574,100,0.00,0,0
575,100,0.00,0,0
576,100,0.00,0,0
577,100,0.00,0,0
578,100,0.00,0,0
579,100,0.00,0,0
580,100,0.00,0,0
581,100,0.00,0,0
582,100,0.00,0,0
583,100,0.00,0,0
584,100,0.00,0,0
585,100,0.00,0,0
586,100,0.00,0,0
587,100,0.00,0,0
588,100,0.00,0,0
589,100,0.00,0,0
590,100,0.00,0,0
591,100,0.00,0,0
592,100,0.00,0,0
593,100,0.00,0,0
594,100,0.00,0,0
595,100,0.00,0,0
596,100,0.00,0,0
597,100,0.00,0,0
598,100,0.00,0,0
599,100,0.00,0,0
600,0,100.00,0,0
601,0,100.00,0,0
602,0,100.00,0,0
603,0,100.00,0,0
604,0,100.00,0,0
605,0,100.00,0,0
606,0,100.00,0,0
607,0,100.00,0,0
608,0,100.00,0,0
609,0,100.00,0,0
610,0,100.00,0,0
611,0,100.00,0,0
612,0,100.00,0,0
613,0,100.00,0,0
614,0,100.00,0,0
615,0,100.00,0,0
616,0,100.00,0,0
617,0,100.00,0,0
618,0,100.00,0,0
619,0,100.00,0,0
620,0,100.00,0,0
621,0,100.00,0,0
622,0,100.00,0,0
623,0,100.00,0,0
624,0,100.00,0,0
625,0,100.00,0,0
626,0,100.00,0,0
627,0,100.00,0,0
628,0,100.00,0,0
629,0,100.00,0,0
630,100,0.00,0,0
631,100,0.00,0,0
632,100,0.00,0,0
633,100,0.00,0,0
634,100,0.00,0,0
635,100,0.00,0,0
636,100,0.00,0,0
637,100,0.00,0,0
638,100,0.00,0,0
639,100,0.00,0,0
640,100,0.00,0,0
641,100,0.00,0,0
642,100,0.00,0,0
643,100,0.00,0,0
644,100,0.00,0,0
645,100,0.00,0,0
646,100,0.00,0,0
647,100,0.00,0,0
648,100,0.00,0,0
649,100,0.00,0,0
650,100,0.00,0,0
651,100,0.00,0,0
652,100,0.00,0,0
653,100,0.00,0,0
654,100,0.00,0,0
655,100,0.00,0,0
656,100,0.00,0,0
657,100,0.00,0,0
658,100,0.00,0,0
659,100,0.00,0,0
660,0,100.00,0,0
661,0,100.00,0,0
662,0,100.00,0,0
663,0,100.00,0,0
664,0,100.00,0,0
665,0,100.00,0,0
666,0,100.00,0,0
667,0,100.00,0,0
668,0,100.00,0,0
669,0,100.00,0,0
670,0,100.00,0,0
671,0,100.00,0,0
672,0,100.00,0,0
673,0,100.00,0,0
674,0,100.00,0,0
675,0,100.00,0,0
676,0,100.00,0,0
677,0,100.00,0,0
678,0,100.00,0,0
679,0,100.00,0,0
680,0,100.00,0,0
681,0,100.00,0,0
682,0,100.00,0,0
683,0,100.00,0,0
684,0,100.00,0,0
685,0,100.00,0,0
686,0,100.00,0,0
687,0,100.00,0,0
688,0,100.00,0,0
689,0,100.00,0,0
690,100,0.00,0,0
691,100,0.00,0,0
692,100,0.00,0,0
693,100,0.00,0,0
694,100,0.00,0,0
695,100,0.00,0,0
696,100,0.00,0,0
697,100,0.00,0,0
698,100,0.00,0,0
699,100,0.00,0,0
700,100,0.00,0,0
701,100,0.00,0,0
702,100,0.00,0,0
703,100,0.00,0,0
704,100,0.00,0,0
705,100,0.00,0,0
706,100,0.00,0,0
707,100,0.00,0,0
708,100,0.00,0,0
709,100,0.00,0,0
710,100,0.00,0,0
711,100,0.00,0,0
712,100,0.00,0,0
713,100,0.00,0,0
714,100,0.00,0,0
715,100,0.00,0,0
716,100,0.00,0,0
717,100,0.00,0,0
718,100,0.00,0,0
719,100,0.00,0,0
720,0,100.00,0,0
721,0,100.00,0,0
722,0,100.00,0,0
723,0,100.00,0,0
724,0,100.00,0,0
725,0,100.00,0,0
726,0,100.00,0,0
727,0,100.00,0,0
728,0,100.00,0,0
729,0,100.00,0,0
730,0,100.00,0,0
731,0,100.00,0,0
732,0,100.00,0,0
733,0,100.00,0,0
734,0,100.00,0,0
735,0,100.00,0,0
736,0,100.00,0,0
737,0,100.00,0,0
738,0,100.00,0,0
739,0,100.00,0,0
740,0,100.00,0,0
741,0,100.00,0,0
742,0,100.00,0,0
743,0,100.00,0,0
744,0,100.00,0,0
745,0,100.00,0,0
746,0,100.00,0,0
747,0,100.00,0,0
748,0,100.00,0,0
749,0,100.00,0,0
750,100,0.00,0,0
751,100,0.00,0,0
752,100,0.00,0,0
753,100,0.00,0,0
754,100,0.00,0,0
755,100,0.00,0,0
756,100,0.00,0,0
757,100,0.00,0,0
758,100,0.00,0,0
759,100,0.00,0,0
760,100,0.00,0,0
761,100,0.00,0,0
762,100,0.00,0,0
763,100,0.00,0,0
764,100,0.00,0,0
765,100,0.00,0,0
766,100,0.00,0,0
767,100,0.00,0,0
768,100,0.00,0,0
769,100,0.00,0,0
770,100,0.00,0,0
771,100,0.00,0,0
772,100,0.00,0,0
773,100,0.00,0,0
774,100,0.00,0,0
775,100,0.00,0,0
776,100,0.00,0,0
777,100,0.00,0,0
778,100,0.00,0,0
779,100,0.00,0,0
780,0,100.00,0,0
781,0,100.00,0,0
782,0,100.00,0,0
783,0,100.00,0,0
784,0,100.00,0,0
785,0,100.00,0,0
786,0,100.00,0,0
787,0,100.00,0,0
788,0,100.00,0,0
789,0,100.00,0,0
790,0,100.00,0,0
791,0,100.00,0,0
792,0,100.00,0,0
793,0,100.00,0,0
794,0,100.00,0,0
795,0,100.00,0,0
796,0,100.00,0,0
797,0,100.00,0,0
798,0,100.00,0,0
799,0,100.00,0,0
800,0,100.00,0,0
801,0,100.00,0,0
802,0,100.00,0,0
803,0,100.00,0,0
804,0,100.00,0,0
805,0,100.00,0,0
806,0,100.00,0,0
807,0,100.00,0,0
808,0,100.00,0,0
809,0,100.00,0,0
810,100,0.00,0,0
811,100,0.00,0,0
812,100,0.00,0,0
813,100,0.00,0,0
814,100,0.00,0,0
815,100,0.00,0,0
816,100,0.00,0,0
817,100,0.00,0,0
818,100,0.00,0,0
819,100,0.00,0,0
820,100,0.00,0,0
821,100,0.00,0,0
822,100,0.00,0,0
823,100,0.00,0,0
824,100,0.00,0,0
825,100,0.00,0,0
826,100,0.00,0,0
827,100,0.00,0,0
828,100,0.00,0,0
829,100,0.00,0,0
830,100,0.00,0,0
831,100,0.00,0,0
832,100,0.00,0,0
833,100,0.00,0,0
834,100,0.00,0,0
835,100,0.00,0,0
836,100,0.00,0,0
837,100,0.00,0,0
838,100,0.00,0,0
839,100,0.00,0,0
840,0,100.00,0,0
841,0,100.00,0,0
842,0,100.00,0,0
843,0,100.00,0,0
844,0,100.00,0,0
845,0,100.00,0,0
846,0,100.00,0,0
847,0,100.00,0,0
848,0,100.00,0,0
849,0,100.00,0,0
850,0,100.00,0,0
851,0,100.00,0,0
852,0,100.00,0,0
853,0,100.00,0,0
854,0,100.00,0,0
855,0,100.00,0,0
856,0,100.00,0,0
857,0,100.00,0,0
858,0,100.00,0,0
859,0,100.00,0,0
860,0,100.00,0,0
861,0,100.00,0,0
862,0,100.00,0,0
863,0,100.00,0,0
864,0,100.00,0,0
865,0,100.00,0,0
866,0,100.00,0,0
867,0,100.00,0,0
868,0,100.00,0,0
869,0,100.00,0,0
870,100,0.00,0,0
871,100,0.00,0,0
872,100,0.00,0,0
873,100,0.00,0,0
874,100,0.00,0,0
875,100,0.00,0,0
876,100,0.00,0,0
877,100,0.00,0,0
878,100,0.00,0,0
879,100,0.00,0,0
880,100,0.00,0,0
881,100,0.00,0,0
882,100,0.00,0,0
883,100,0.00,0,0
884,100,0.00,0,0
885,100,0.00,0,0
886,100,0.00,0,0
887,100,0.00,0,0
888,100,0.00,0,0
889,100,0.00,0,0
890,100,0.00,0,0
891,100,0.00,0,0
892,100,0.00,0,0
893,100,0.00,0,0
894,100,0.00,0,0
895,100,0.00,0,0
896,100,0.00,0,0
897,100,0.00,0,0
898,100,0.00,0,0
899,100,0.00,0,0
900,0,100.00,0,0
901,0,100.00,0,0
902,0,100.00,0,0
903,0,100.00,0,0
904,0,100.00,0,0
905,0,100.00,0,0
906,0,100.00,0,0
907,0,100.00,0,0
908,0,100.00,0,0
909,0,100.00,0,0
910,0,100.00,0,0
911,0,100.00,0,0
912,0,100.00,0,0
913,0,100.00,0,0
914,0,100.00,0,0
915,0,100.00,0,0
916,0,100.00,0,0
917,0,100.00,0,0
918,0,100.00,0,0
919,0,100.00,0,0
920,0,100.00,0,0
921,0,100.00,0,0
922,0,100.00,0,0
923,0,100.00,0,0
924,0,100.00,0,0
925,0,100.00,0,0
926,0,100.00,0,0
927,0,100.00,0,0
928,0,100.00,0,0
929,0,100.00,0,0
930,100,0.00,0,0
931,100,0.00,0,0
932,100,0.00,0,0
933,100,0.00,0,0
934,100,0.00,0,0
935,100,0.00,0,0
936,100,0.00,0,0
937,100,0.00,0,0
938,100,0.00,0,0
939,100,0.00,0,0
940,100,0.00,0,0
941,100,0.00,0,0
942,100,0.00,0,0
943,100,0.00,0,0
944,100,0.00,0,0
945,100,0.00,0,0
946,100,0.00,0,0
947,100,0.00,0,0
948,100,0.00,0,0
949,100,0.00,0,0
950,100,0.00,0,0
951,100,0.00,0,0
952,100,0.00,0,0
953,100,0.00,0,0
954,100,0.00,0,0
955,100,0.00,0,0
956,100,0.00,0,0
957,100,0.00,0,0
958,100,0.00,0,0
959,100,0.00,0,0
960,0,100.00,0,0
961,0,100.00,0,0
962,0,100.00,0,0
963,0,100.00,0,0
964,0,100.00,0,0
965,0,100.00,0,0
966,0,100.00,0,0
967,0,100.00,0,0
968,0,100.00,0,0
969,0,100.00,0,0
970,0,100.00,0,0
971,0,100.00,0,0
972,0,100.00,0,0
973,0,100.00,0,0
974,0,100.00,0,0
975,0,100.00,0,0
976,0,100.00,0,0
977,0,100.00,0,0
978,0,100.00,0,0
979,0,100.00,0,0
980,0,100.00,0,0
981,0,100.00,0,0
982,0,100.00,0,0
983,0,100.00,0,0
984,0,100.00,0,0
985,0,100.00,0,0
986,0,100.00,0,0
987,0,100.00,0,0
988,0,100.00,0,0
989,0,100.00,0,0
990,100,0.00,0,0
991,100,0.00,0,0
992,100,0.00,0,0
993,100,0.00,0,0
994,100,0.00,0,0
995,100,0.00,0,0
996,100,0.00,0,0
997,100,0.00,0,0
998,100,0.00,0,0
999,100,0.00,0,0
