{
   "3rd instar Dmel" : {
     "filled_area_min_mm": 5,
     "filled_area_max_mm": 55,
     "eccentricity_min": 0.7,
     "eccentricity_max": 1.0,
     "major_over_minor_axis_min": 1.25,
     "major_over_minor_axis_max": 7,
     "max_skeleton_length_mm": 5,
     "max_speed_animal_mm_per_s": 2
   },
  "adult Dmel": {
    "filled_area_min_mm" : 10,
    "filled_area_max_mm" : 40,
    "eccentricity_min" : 0.7,
    "eccentricity_max" : 1,
    "major_over_minor_axis_min" : 1.5,
    "major_over_minor_axis_max" : 10 ,
    "max_skeleton_length_mm": 5,
    "max_speed_animal_mm_per_s" : 150
  },
  "5dpf D. rerio" : {
    "filled_area_min_mm"  : 8,
    "filled_area_max_mm"  : 24,
    "eccentricity_min"    : 0.5,
    "eccentricity_max" : 1,
	 "major_over_minor_axis_min" : 1,
	 "major_over_minor_axis_max" : 10,
    "max_skeleton_length_mm": 4,
    "max_speed_animal_mm_per_s" : 100
  },
    "KelpFly" : {
    "filled_area_min_mm"  :  40,
    "filled_area_max_mm"  : 100,
    "eccentricity_min"  :  0.5,
    "eccentricity_max" :  1,
	 "major_over_minor_axis_min": 1,
	 "major_over_minor_axis_max": 3,
    "max_skeleton_length_mm": 15,
    "max_speed_animal_mm_per_s" : 160
  },
  "Not in list" : {
    "filled_area_min_mm"  :  3,
    "filled_area_max_mm"  : 150,
    "eccentricity_min"  :  0,
    "eccentricity_max" :  1.0,
	 "major_over_minor_axis_min": 1,
	 "major_over_minor_axis_max": 10,
    "max_skeleton_length_mm": 20,
    "max_speed_animal_mm_per_s" : 150
  }
}